,Iteration,Time,Fitness,FEvals,use_fast_mimic,Population Size,Keep Percent,max_iters,fast_mimic
0,0,0.0016361000000000292,15.0,100.0,True,100,0.5,4096,True
1,1,0.056560500000000014,23.0,202.0,True,100,0.5,4096,True
2,2,0.06449719999999992,27.0,304.0,True,100,0.5,4096,True
3,3,0.07819059999999989,27.0,405.0,True,100,0.5,4096,True
4,4,0.09243469999999987,27.0,506.0,True,100,0.5,4096,True
5,5,0.10100160000000002,29.0,608.0,True,100,0.5,4096,True
6,6,0.10884589999999994,29.0,709.0,True,100,0.5,4096,True
7,7,0.11687469999999989,31.0,811.0,True,100,0.5,4096,True
8,8,0.12470549999999991,31.0,912.0,True,100,0.5,4096,True
9,9,0.13279589999999986,31.0,1013.0,True,100,0.5,4096,True
10,10,0.14092019999999983,31.0,1114.0,True,100,0.5,4096,True
11,11,0.14887909999999982,32.0,1216.0,True,100,0.5,4096,True
