,Iteration,Fitness,FEvals,Time,State,schedule_type,schedule_init_temp,schedule_decay,schedule_min_temp,schedule_current_value,Temperature,max_iters
0,0,15.0,0,8.169999999996236e-05,"[1, 1, 0, 0, 1, 1, 1, 0, 0, 0, 0, 0, 1, 0, 0, 0, 1, 0, 1, 1, 1, 0, 0, 0, 0, 1, 0, 1, 1, 0, 1, 1]",geometric,8,0.99,0.001,7.999993431103183,8,4096
1,32,19.0,60,0.04664629999999992,"[0, 1, 0, 1, 1, 1, 0, 0, 0, 1, 1, 0, 1, 0, 1, 1, 1, 0, 1, 1, 0, 0, 0, 1, 1, 1, 1, 0, 1, 0, 1, 1]",geometric,8,0.99,0.001,7.996250391146993,8,4096
2,64,17.0,122,0.05465299999999984,"[0, 0, 0, 0, 0, 1, 1, 1, 0, 1, 0, 0, 1, 0, 1, 1, 1, 0, 0, 0, 1, 0, 1, 1, 1, 0, 1, 1, 1, 0, 1, 1]",geometric,8,0.99,0.001,7.995606958574347,8,4096
3,96,18.0,185,0.06298119999999985,"[0, 1, 0, 0, 1, 0, 0, 1, 0, 1, 0, 0, 1, 0, 1, 1, 1, 1, 1, 1, 0, 0, 1, 1, 1, 0, 0, 1, 1, 0, 1, 1]",geometric,8,0.99,0.001,7.9949377446281735,8,4096
4,128,16.0,245,0.07189500000000004,"[1, 0, 1, 1, 0, 1, 0, 1, 0, 0, 0, 0, 1, 0, 1, 0, 1, 1, 1, 0, 0, 1, 1, 0, 0, 0, 0, 1, 1, 1, 1, 0]",geometric,8,0.99,0.001,7.99422153675082,8,4096
5,160,21.0,300,0.08164859999999985,"[1, 1, 0, 1, 0, 1, 1, 1, 0, 0, 0, 1, 1, 1, 1, 0, 1, 1, 1, 1, 0, 0, 1, 1, 1, 1, 0, 1, 1, 1, 0, 0]",geometric,8,0.99,0.001,7.993437925957854,8,4096
6,192,24.0,345,0.09183269999999988,"[1, 1, 0, 1, 1, 1, 1, 0, 0, 0, 1, 1, 1, 1, 1, 1, 1, 1, 1, 1, 1, 0, 0, 1, 1, 1, 0, 1, 0, 1, 1, 1]",geometric,8,0.99,0.001,7.992619810476254,8,4096
7,224,27.0,392,0.10338329999999996,"[1, 1, 0, 1, 1, 0, 1, 0, 0, 1, 0, 1, 1, 1, 1, 1, 1, 1, 1, 1, 1, 1, 1, 1, 1, 1, 1, 1, 1, 1, 1, 1]",geometric,8,0.99,0.001,7.991692021802193,8,4096
8,256,26.0,441,0.11556849999999996,"[0, 1, 1, 1, 1, 1, 1, 1, 1, 1, 1, 0, 0, 1, 1, 1, 1, 1, 0, 1, 1, 0, 1, 1, 1, 1, 1, 1, 1, 1, 0, 1]",geometric,8,0.99,0.001,7.990713376348438,8,4096
9,288,28.0,483,0.1283646999999999,"[0, 1, 1, 1, 1, 0, 1, 1, 1, 1, 1, 1, 1, 1, 1, 1, 1, 1, 1, 1, 1, 0, 1, 1, 1, 1, 1, 1, 1, 1, 0, 1]",geometric,8,0.99,0.001,7.989685787882263,8,4096
10,320,29.0,520,0.14348549999999993,"[0, 1, 1, 1, 1, 1, 1, 1, 1, 1, 1, 1, 1, 1, 0, 1, 1, 1, 1, 1, 1, 1, 1, 1, 1, 1, 1, 1, 1, 1, 0, 1]",geometric,8,0.99,0.001,7.988471694631674,8,4096
11,352,31.0,554,0.15868139999999986,"[1, 1, 1, 1, 1, 1, 1, 1, 1, 1, 1, 1, 1, 1, 1, 1, 1, 1, 1, 1, 1, 1, 1, 1, 1, 1, 1, 1, 1, 1, 0, 1]",geometric,8,0.99,0.001,7.987251757249812,8,4096
12,384,32.0,556,0.1651342,"[1, 1, 1, 1, 1, 1, 1, 1, 1, 1, 1, 1, 1, 1, 1, 1, 1, 1, 1, 1, 1, 1, 1, 1, 1, 1, 1, 1, 1, 1, 1, 1]",geometric,8,0.99,0.001,7.9867337783479515,8,4096
13,416,32.0,556,0.1651342,"[1, 1, 1, 1, 1, 1, 1, 1, 1, 1, 1, 1, 1, 1, 1, 1, 1, 1, 1, 1, 1, 1, 1, 1, 1, 1, 1, 1, 1, 1, 1, 1]",geometric,8,0.99,0.001,7.9867337783479515,8,4096
14,448,32.0,556,0.1651342,"[1, 1, 1, 1, 1, 1, 1, 1, 1, 1, 1, 1, 1, 1, 1, 1, 1, 1, 1, 1, 1, 1, 1, 1, 1, 1, 1, 1, 1, 1, 1, 1]",geometric,8,0.99,0.001,7.9867337783479515,8,4096
15,480,32.0,556,0.1651342,"[1, 1, 1, 1, 1, 1, 1, 1, 1, 1, 1, 1, 1, 1, 1, 1, 1, 1, 1, 1, 1, 1, 1, 1, 1, 1, 1, 1, 1, 1, 1, 1]",geometric,8,0.99,0.001,7.9867337783479515,8,4096
16,512,32.0,556,0.1651342,"[1, 1, 1, 1, 1, 1, 1, 1, 1, 1, 1, 1, 1, 1, 1, 1, 1, 1, 1, 1, 1, 1, 1, 1, 1, 1, 1, 1, 1, 1, 1, 1]",geometric,8,0.99,0.001,7.9867337783479515,8,4096
17,544,32.0,556,0.1651342,"[1, 1, 1, 1, 1, 1, 1, 1, 1, 1, 1, 1, 1, 1, 1, 1, 1, 1, 1, 1, 1, 1, 1, 1, 1, 1, 1, 1, 1, 1, 1, 1]",geometric,8,0.99,0.001,7.9867337783479515,8,4096
18,576,32.0,556,0.1651342,"[1, 1, 1, 1, 1, 1, 1, 1, 1, 1, 1, 1, 1, 1, 1, 1, 1, 1, 1, 1, 1, 1, 1, 1, 1, 1, 1, 1, 1, 1, 1, 1]",geometric,8,0.99,0.001,7.9867337783479515,8,4096
19,608,32.0,556,0.1651342,"[1, 1, 1, 1, 1, 1, 1, 1, 1, 1, 1, 1, 1, 1, 1, 1, 1, 1, 1, 1, 1, 1, 1, 1, 1, 1, 1, 1, 1, 1, 1, 1]",geometric,8,0.99,0.001,7.9867337783479515,8,4096
20,640,32.0,556,0.1651342,"[1, 1, 1, 1, 1, 1, 1, 1, 1, 1, 1, 1, 1, 1, 1, 1, 1, 1, 1, 1, 1, 1, 1, 1, 1, 1, 1, 1, 1, 1, 1, 1]",geometric,8,0.99,0.001,7.9867337783479515,8,4096
21,672,32.0,556,0.1651342,"[1, 1, 1, 1, 1, 1, 1, 1, 1, 1, 1, 1, 1, 1, 1, 1, 1, 1, 1, 1, 1, 1, 1, 1, 1, 1, 1, 1, 1, 1, 1, 1]",geometric,8,0.99,0.001,7.9867337783479515,8,4096
22,704,32.0,556,0.1651342,"[1, 1, 1, 1, 1, 1, 1, 1, 1, 1, 1, 1, 1, 1, 1, 1, 1, 1, 1, 1, 1, 1, 1, 1, 1, 1, 1, 1, 1, 1, 1, 1]",geometric,8,0.99,0.001,7.9867337783479515,8,4096
23,736,32.0,556,0.1651342,"[1, 1, 1, 1, 1, 1, 1, 1, 1, 1, 1, 1, 1, 1, 1, 1, 1, 1, 1, 1, 1, 1, 1, 1, 1, 1, 1, 1, 1, 1, 1, 1]",geometric,8,0.99,0.001,7.9867337783479515,8,4096
24,768,32.0,556,0.1651342,"[1, 1, 1, 1, 1, 1, 1, 1, 1, 1, 1, 1, 1, 1, 1, 1, 1, 1, 1, 1, 1, 1, 1, 1, 1, 1, 1, 1, 1, 1, 1, 1]",geometric,8,0.99,0.001,7.9867337783479515,8,4096
25,800,32.0,556,0.1651342,"[1, 1, 1, 1, 1, 1, 1, 1, 1, 1, 1, 1, 1, 1, 1, 1, 1, 1, 1, 1, 1, 1, 1, 1, 1, 1, 1, 1, 1, 1, 1, 1]",geometric,8,0.99,0.001,7.9867337783479515,8,4096
26,832,32.0,556,0.1651342,"[1, 1, 1, 1, 1, 1, 1, 1, 1, 1, 1, 1, 1, 1, 1, 1, 1, 1, 1, 1, 1, 1, 1, 1, 1, 1, 1, 1, 1, 1, 1, 1]",geometric,8,0.99,0.001,7.9867337783479515,8,4096
27,864,32.0,556,0.1651342,"[1, 1, 1, 1, 1, 1, 1, 1, 1, 1, 1, 1, 1, 1, 1, 1, 1, 1, 1, 1, 1, 1, 1, 1, 1, 1, 1, 1, 1, 1, 1, 1]",geometric,8,0.99,0.001,7.9867337783479515,8,4096
28,896,32.0,556,0.1651342,"[1, 1, 1, 1, 1, 1, 1, 1, 1, 1, 1, 1, 1, 1, 1, 1, 1, 1, 1, 1, 1, 1, 1, 1, 1, 1, 1, 1, 1, 1, 1, 1]",geometric,8,0.99,0.001,7.9867337783479515,8,4096
29,928,32.0,556,0.1651342,"[1, 1, 1, 1, 1, 1, 1, 1, 1, 1, 1, 1, 1, 1, 1, 1, 1, 1, 1, 1, 1, 1, 1, 1, 1, 1, 1, 1, 1, 1, 1, 1]",geometric,8,0.99,0.001,7.9867337783479515,8,4096
30,960,32.0,556,0.1651342,"[1, 1, 1, 1, 1, 1, 1, 1, 1, 1, 1, 1, 1, 1, 1, 1, 1, 1, 1, 1, 1, 1, 1, 1, 1, 1, 1, 1, 1, 1, 1, 1]",geometric,8,0.99,0.001,7.9867337783479515,8,4096
31,992,32.0,556,0.1651342,"[1, 1, 1, 1, 1, 1, 1, 1, 1, 1, 1, 1, 1, 1, 1, 1, 1, 1, 1, 1, 1, 1, 1, 1, 1, 1, 1, 1, 1, 1, 1, 1]",geometric,8,0.99,0.001,7.9867337783479515,8,4096
32,1024,32.0,556,0.1651342,"[1, 1, 1, 1, 1, 1, 1, 1, 1, 1, 1, 1, 1, 1, 1, 1, 1, 1, 1, 1, 1, 1, 1, 1, 1, 1, 1, 1, 1, 1, 1, 1]",geometric,8,0.99,0.001,7.9867337783479515,8,4096
33,1056,32.0,556,0.1651342,"[1, 1, 1, 1, 1, 1, 1, 1, 1, 1, 1, 1, 1, 1, 1, 1, 1, 1, 1, 1, 1, 1, 1, 1, 1, 1, 1, 1, 1, 1, 1, 1]",geometric,8,0.99,0.001,7.9867337783479515,8,4096
34,1088,32.0,556,0.1651342,"[1, 1, 1, 1, 1, 1, 1, 1, 1, 1, 1, 1, 1, 1, 1, 1, 1, 1, 1, 1, 1, 1, 1, 1, 1, 1, 1, 1, 1, 1, 1, 1]",geometric,8,0.99,0.001,7.9867337783479515,8,4096
35,1120,32.0,556,0.1651342,"[1, 1, 1, 1, 1, 1, 1, 1, 1, 1, 1, 1, 1, 1, 1, 1, 1, 1, 1, 1, 1, 1, 1, 1, 1, 1, 1, 1, 1, 1, 1, 1]",geometric,8,0.99,0.001,7.9867337783479515,8,4096
36,1152,32.0,556,0.1651342,"[1, 1, 1, 1, 1, 1, 1, 1, 1, 1, 1, 1, 1, 1, 1, 1, 1, 1, 1, 1, 1, 1, 1, 1, 1, 1, 1, 1, 1, 1, 1, 1]",geometric,8,0.99,0.001,7.9867337783479515,8,4096
37,1184,32.0,556,0.1651342,"[1, 1, 1, 1, 1, 1, 1, 1, 1, 1, 1, 1, 1, 1, 1, 1, 1, 1, 1, 1, 1, 1, 1, 1, 1, 1, 1, 1, 1, 1, 1, 1]",geometric,8,0.99,0.001,7.9867337783479515,8,4096
38,1216,32.0,556,0.1651342,"[1, 1, 1, 1, 1, 1, 1, 1, 1, 1, 1, 1, 1, 1, 1, 1, 1, 1, 1, 1, 1, 1, 1, 1, 1, 1, 1, 1, 1, 1, 1, 1]",geometric,8,0.99,0.001,7.9867337783479515,8,4096
39,1248,32.0,556,0.1651342,"[1, 1, 1, 1, 1, 1, 1, 1, 1, 1, 1, 1, 1, 1, 1, 1, 1, 1, 1, 1, 1, 1, 1, 1, 1, 1, 1, 1, 1, 1, 1, 1]",geometric,8,0.99,0.001,7.9867337783479515,8,4096
40,1280,32.0,556,0.1651342,"[1, 1, 1, 1, 1, 1, 1, 1, 1, 1, 1, 1, 1, 1, 1, 1, 1, 1, 1, 1, 1, 1, 1, 1, 1, 1, 1, 1, 1, 1, 1, 1]",geometric,8,0.99,0.001,7.9867337783479515,8,4096
41,1312,32.0,556,0.1651342,"[1, 1, 1, 1, 1, 1, 1, 1, 1, 1, 1, 1, 1, 1, 1, 1, 1, 1, 1, 1, 1, 1, 1, 1, 1, 1, 1, 1, 1, 1, 1, 1]",geometric,8,0.99,0.001,7.9867337783479515,8,4096
42,1344,32.0,556,0.1651342,"[1, 1, 1, 1, 1, 1, 1, 1, 1, 1, 1, 1, 1, 1, 1, 1, 1, 1, 1, 1, 1, 1, 1, 1, 1, 1, 1, 1, 1, 1, 1, 1]",geometric,8,0.99,0.001,7.9867337783479515,8,4096
43,1376,32.0,556,0.1651342,"[1, 1, 1, 1, 1, 1, 1, 1, 1, 1, 1, 1, 1, 1, 1, 1, 1, 1, 1, 1, 1, 1, 1, 1, 1, 1, 1, 1, 1, 1, 1, 1]",geometric,8,0.99,0.001,7.9867337783479515,8,4096
44,1408,32.0,556,0.1651342,"[1, 1, 1, 1, 1, 1, 1, 1, 1, 1, 1, 1, 1, 1, 1, 1, 1, 1, 1, 1, 1, 1, 1, 1, 1, 1, 1, 1, 1, 1, 1, 1]",geometric,8,0.99,0.001,7.9867337783479515,8,4096
45,1440,32.0,556,0.1651342,"[1, 1, 1, 1, 1, 1, 1, 1, 1, 1, 1, 1, 1, 1, 1, 1, 1, 1, 1, 1, 1, 1, 1, 1, 1, 1, 1, 1, 1, 1, 1, 1]",geometric,8,0.99,0.001,7.9867337783479515,8,4096
46,1472,32.0,556,0.1651342,"[1, 1, 1, 1, 1, 1, 1, 1, 1, 1, 1, 1, 1, 1, 1, 1, 1, 1, 1, 1, 1, 1, 1, 1, 1, 1, 1, 1, 1, 1, 1, 1]",geometric,8,0.99,0.001,7.9867337783479515,8,4096
47,1504,32.0,556,0.1651342,"[1, 1, 1, 1, 1, 1, 1, 1, 1, 1, 1, 1, 1, 1, 1, 1, 1, 1, 1, 1, 1, 1, 1, 1, 1, 1, 1, 1, 1, 1, 1, 1]",geometric,8,0.99,0.001,7.9867337783479515,8,4096
48,1536,32.0,556,0.1651342,"[1, 1, 1, 1, 1, 1, 1, 1, 1, 1, 1, 1, 1, 1, 1, 1, 1, 1, 1, 1, 1, 1, 1, 1, 1, 1, 1, 1, 1, 1, 1, 1]",geometric,8,0.99,0.001,7.9867337783479515,8,4096
49,1568,32.0,556,0.1651342,"[1, 1, 1, 1, 1, 1, 1, 1, 1, 1, 1, 1, 1, 1, 1, 1, 1, 1, 1, 1, 1, 1, 1, 1, 1, 1, 1, 1, 1, 1, 1, 1]",geometric,8,0.99,0.001,7.9867337783479515,8,4096
50,1600,32.0,556,0.1651342,"[1, 1, 1, 1, 1, 1, 1, 1, 1, 1, 1, 1, 1, 1, 1, 1, 1, 1, 1, 1, 1, 1, 1, 1, 1, 1, 1, 1, 1, 1, 1, 1]",geometric,8,0.99,0.001,7.9867337783479515,8,4096
51,1632,32.0,556,0.1651342,"[1, 1, 1, 1, 1, 1, 1, 1, 1, 1, 1, 1, 1, 1, 1, 1, 1, 1, 1, 1, 1, 1, 1, 1, 1, 1, 1, 1, 1, 1, 1, 1]",geometric,8,0.99,0.001,7.9867337783479515,8,4096
52,1664,32.0,556,0.1651342,"[1, 1, 1, 1, 1, 1, 1, 1, 1, 1, 1, 1, 1, 1, 1, 1, 1, 1, 1, 1, 1, 1, 1, 1, 1, 1, 1, 1, 1, 1, 1, 1]",geometric,8,0.99,0.001,7.9867337783479515,8,4096
53,1696,32.0,556,0.1651342,"[1, 1, 1, 1, 1, 1, 1, 1, 1, 1, 1, 1, 1, 1, 1, 1, 1, 1, 1, 1, 1, 1, 1, 1, 1, 1, 1, 1, 1, 1, 1, 1]",geometric,8,0.99,0.001,7.9867337783479515,8,4096
54,1728,32.0,556,0.1651342,"[1, 1, 1, 1, 1, 1, 1, 1, 1, 1, 1, 1, 1, 1, 1, 1, 1, 1, 1, 1, 1, 1, 1, 1, 1, 1, 1, 1, 1, 1, 1, 1]",geometric,8,0.99,0.001,7.9867337783479515,8,4096
55,1760,32.0,556,0.1651342,"[1, 1, 1, 1, 1, 1, 1, 1, 1, 1, 1, 1, 1, 1, 1, 1, 1, 1, 1, 1, 1, 1, 1, 1, 1, 1, 1, 1, 1, 1, 1, 1]",geometric,8,0.99,0.001,7.9867337783479515,8,4096
56,1792,32.0,556,0.1651342,"[1, 1, 1, 1, 1, 1, 1, 1, 1, 1, 1, 1, 1, 1, 1, 1, 1, 1, 1, 1, 1, 1, 1, 1, 1, 1, 1, 1, 1, 1, 1, 1]",geometric,8,0.99,0.001,7.9867337783479515,8,4096
57,1824,32.0,556,0.1651342,"[1, 1, 1, 1, 1, 1, 1, 1, 1, 1, 1, 1, 1, 1, 1, 1, 1, 1, 1, 1, 1, 1, 1, 1, 1, 1, 1, 1, 1, 1, 1, 1]",geometric,8,0.99,0.001,7.9867337783479515,8,4096
58,1856,32.0,556,0.1651342,"[1, 1, 1, 1, 1, 1, 1, 1, 1, 1, 1, 1, 1, 1, 1, 1, 1, 1, 1, 1, 1, 1, 1, 1, 1, 1, 1, 1, 1, 1, 1, 1]",geometric,8,0.99,0.001,7.9867337783479515,8,4096
59,1888,32.0,556,0.1651342,"[1, 1, 1, 1, 1, 1, 1, 1, 1, 1, 1, 1, 1, 1, 1, 1, 1, 1, 1, 1, 1, 1, 1, 1, 1, 1, 1, 1, 1, 1, 1, 1]",geometric,8,0.99,0.001,7.9867337783479515,8,4096
60,1920,32.0,556,0.1651342,"[1, 1, 1, 1, 1, 1, 1, 1, 1, 1, 1, 1, 1, 1, 1, 1, 1, 1, 1, 1, 1, 1, 1, 1, 1, 1, 1, 1, 1, 1, 1, 1]",geometric,8,0.99,0.001,7.9867337783479515,8,4096
61,1952,32.0,556,0.1651342,"[1, 1, 1, 1, 1, 1, 1, 1, 1, 1, 1, 1, 1, 1, 1, 1, 1, 1, 1, 1, 1, 1, 1, 1, 1, 1, 1, 1, 1, 1, 1, 1]",geometric,8,0.99,0.001,7.9867337783479515,8,4096
62,1984,32.0,556,0.1651342,"[1, 1, 1, 1, 1, 1, 1, 1, 1, 1, 1, 1, 1, 1, 1, 1, 1, 1, 1, 1, 1, 1, 1, 1, 1, 1, 1, 1, 1, 1, 1, 1]",geometric,8,0.99,0.001,7.9867337783479515,8,4096
63,2016,32.0,556,0.1651342,"[1, 1, 1, 1, 1, 1, 1, 1, 1, 1, 1, 1, 1, 1, 1, 1, 1, 1, 1, 1, 1, 1, 1, 1, 1, 1, 1, 1, 1, 1, 1, 1]",geometric,8,0.99,0.001,7.9867337783479515,8,4096
64,2048,32.0,556,0.1651342,"[1, 1, 1, 1, 1, 1, 1, 1, 1, 1, 1, 1, 1, 1, 1, 1, 1, 1, 1, 1, 1, 1, 1, 1, 1, 1, 1, 1, 1, 1, 1, 1]",geometric,8,0.99,0.001,7.9867337783479515,8,4096
65,2080,32.0,556,0.1651342,"[1, 1, 1, 1, 1, 1, 1, 1, 1, 1, 1, 1, 1, 1, 1, 1, 1, 1, 1, 1, 1, 1, 1, 1, 1, 1, 1, 1, 1, 1, 1, 1]",geometric,8,0.99,0.001,7.9867337783479515,8,4096
66,2112,32.0,556,0.1651342,"[1, 1, 1, 1, 1, 1, 1, 1, 1, 1, 1, 1, 1, 1, 1, 1, 1, 1, 1, 1, 1, 1, 1, 1, 1, 1, 1, 1, 1, 1, 1, 1]",geometric,8,0.99,0.001,7.9867337783479515,8,4096
67,2144,32.0,556,0.1651342,"[1, 1, 1, 1, 1, 1, 1, 1, 1, 1, 1, 1, 1, 1, 1, 1, 1, 1, 1, 1, 1, 1, 1, 1, 1, 1, 1, 1, 1, 1, 1, 1]",geometric,8,0.99,0.001,7.9867337783479515,8,4096
68,2176,32.0,556,0.1651342,"[1, 1, 1, 1, 1, 1, 1, 1, 1, 1, 1, 1, 1, 1, 1, 1, 1, 1, 1, 1, 1, 1, 1, 1, 1, 1, 1, 1, 1, 1, 1, 1]",geometric,8,0.99,0.001,7.9867337783479515,8,4096
69,2208,32.0,556,0.1651342,"[1, 1, 1, 1, 1, 1, 1, 1, 1, 1, 1, 1, 1, 1, 1, 1, 1, 1, 1, 1, 1, 1, 1, 1, 1, 1, 1, 1, 1, 1, 1, 1]",geometric,8,0.99,0.001,7.9867337783479515,8,4096
70,2240,32.0,556,0.1651342,"[1, 1, 1, 1, 1, 1, 1, 1, 1, 1, 1, 1, 1, 1, 1, 1, 1, 1, 1, 1, 1, 1, 1, 1, 1, 1, 1, 1, 1, 1, 1, 1]",geometric,8,0.99,0.001,7.9867337783479515,8,4096
71,2272,32.0,556,0.1651342,"[1, 1, 1, 1, 1, 1, 1, 1, 1, 1, 1, 1, 1, 1, 1, 1, 1, 1, 1, 1, 1, 1, 1, 1, 1, 1, 1, 1, 1, 1, 1, 1]",geometric,8,0.99,0.001,7.9867337783479515,8,4096
72,2304,32.0,556,0.1651342,"[1, 1, 1, 1, 1, 1, 1, 1, 1, 1, 1, 1, 1, 1, 1, 1, 1, 1, 1, 1, 1, 1, 1, 1, 1, 1, 1, 1, 1, 1, 1, 1]",geometric,8,0.99,0.001,7.9867337783479515,8,4096
73,2336,32.0,556,0.1651342,"[1, 1, 1, 1, 1, 1, 1, 1, 1, 1, 1, 1, 1, 1, 1, 1, 1, 1, 1, 1, 1, 1, 1, 1, 1, 1, 1, 1, 1, 1, 1, 1]",geometric,8,0.99,0.001,7.9867337783479515,8,4096
74,2368,32.0,556,0.1651342,"[1, 1, 1, 1, 1, 1, 1, 1, 1, 1, 1, 1, 1, 1, 1, 1, 1, 1, 1, 1, 1, 1, 1, 1, 1, 1, 1, 1, 1, 1, 1, 1]",geometric,8,0.99,0.001,7.9867337783479515,8,4096
75,2400,32.0,556,0.1651342,"[1, 1, 1, 1, 1, 1, 1, 1, 1, 1, 1, 1, 1, 1, 1, 1, 1, 1, 1, 1, 1, 1, 1, 1, 1, 1, 1, 1, 1, 1, 1, 1]",geometric,8,0.99,0.001,7.9867337783479515,8,4096
76,2432,32.0,556,0.1651342,"[1, 1, 1, 1, 1, 1, 1, 1, 1, 1, 1, 1, 1, 1, 1, 1, 1, 1, 1, 1, 1, 1, 1, 1, 1, 1, 1, 1, 1, 1, 1, 1]",geometric,8,0.99,0.001,7.9867337783479515,8,4096
77,2464,32.0,556,0.1651342,"[1, 1, 1, 1, 1, 1, 1, 1, 1, 1, 1, 1, 1, 1, 1, 1, 1, 1, 1, 1, 1, 1, 1, 1, 1, 1, 1, 1, 1, 1, 1, 1]",geometric,8,0.99,0.001,7.9867337783479515,8,4096
78,2496,32.0,556,0.1651342,"[1, 1, 1, 1, 1, 1, 1, 1, 1, 1, 1, 1, 1, 1, 1, 1, 1, 1, 1, 1, 1, 1, 1, 1, 1, 1, 1, 1, 1, 1, 1, 1]",geometric,8,0.99,0.001,7.9867337783479515,8,4096
79,2528,32.0,556,0.1651342,"[1, 1, 1, 1, 1, 1, 1, 1, 1, 1, 1, 1, 1, 1, 1, 1, 1, 1, 1, 1, 1, 1, 1, 1, 1, 1, 1, 1, 1, 1, 1, 1]",geometric,8,0.99,0.001,7.9867337783479515,8,4096
80,2560,32.0,556,0.1651342,"[1, 1, 1, 1, 1, 1, 1, 1, 1, 1, 1, 1, 1, 1, 1, 1, 1, 1, 1, 1, 1, 1, 1, 1, 1, 1, 1, 1, 1, 1, 1, 1]",geometric,8,0.99,0.001,7.9867337783479515,8,4096
81,2592,32.0,556,0.1651342,"[1, 1, 1, 1, 1, 1, 1, 1, 1, 1, 1, 1, 1, 1, 1, 1, 1, 1, 1, 1, 1, 1, 1, 1, 1, 1, 1, 1, 1, 1, 1, 1]",geometric,8,0.99,0.001,7.9867337783479515,8,4096
82,2624,32.0,556,0.1651342,"[1, 1, 1, 1, 1, 1, 1, 1, 1, 1, 1, 1, 1, 1, 1, 1, 1, 1, 1, 1, 1, 1, 1, 1, 1, 1, 1, 1, 1, 1, 1, 1]",geometric,8,0.99,0.001,7.9867337783479515,8,4096
83,2656,32.0,556,0.1651342,"[1, 1, 1, 1, 1, 1, 1, 1, 1, 1, 1, 1, 1, 1, 1, 1, 1, 1, 1, 1, 1, 1, 1, 1, 1, 1, 1, 1, 1, 1, 1, 1]",geometric,8,0.99,0.001,7.9867337783479515,8,4096
84,2688,32.0,556,0.1651342,"[1, 1, 1, 1, 1, 1, 1, 1, 1, 1, 1, 1, 1, 1, 1, 1, 1, 1, 1, 1, 1, 1, 1, 1, 1, 1, 1, 1, 1, 1, 1, 1]",geometric,8,0.99,0.001,7.9867337783479515,8,4096
85,2720,32.0,556,0.1651342,"[1, 1, 1, 1, 1, 1, 1, 1, 1, 1, 1, 1, 1, 1, 1, 1, 1, 1, 1, 1, 1, 1, 1, 1, 1, 1, 1, 1, 1, 1, 1, 1]",geometric,8,0.99,0.001,7.9867337783479515,8,4096
86,2752,32.0,556,0.1651342,"[1, 1, 1, 1, 1, 1, 1, 1, 1, 1, 1, 1, 1, 1, 1, 1, 1, 1, 1, 1, 1, 1, 1, 1, 1, 1, 1, 1, 1, 1, 1, 1]",geometric,8,0.99,0.001,7.9867337783479515,8,4096
87,2784,32.0,556,0.1651342,"[1, 1, 1, 1, 1, 1, 1, 1, 1, 1, 1, 1, 1, 1, 1, 1, 1, 1, 1, 1, 1, 1, 1, 1, 1, 1, 1, 1, 1, 1, 1, 1]",geometric,8,0.99,0.001,7.9867337783479515,8,4096
88,2816,32.0,556,0.1651342,"[1, 1, 1, 1, 1, 1, 1, 1, 1, 1, 1, 1, 1, 1, 1, 1, 1, 1, 1, 1, 1, 1, 1, 1, 1, 1, 1, 1, 1, 1, 1, 1]",geometric,8,0.99,0.001,7.9867337783479515,8,4096
89,2848,32.0,556,0.1651342,"[1, 1, 1, 1, 1, 1, 1, 1, 1, 1, 1, 1, 1, 1, 1, 1, 1, 1, 1, 1, 1, 1, 1, 1, 1, 1, 1, 1, 1, 1, 1, 1]",geometric,8,0.99,0.001,7.9867337783479515,8,4096
90,2880,32.0,556,0.1651342,"[1, 1, 1, 1, 1, 1, 1, 1, 1, 1, 1, 1, 1, 1, 1, 1, 1, 1, 1, 1, 1, 1, 1, 1, 1, 1, 1, 1, 1, 1, 1, 1]",geometric,8,0.99,0.001,7.9867337783479515,8,4096
91,2912,32.0,556,0.1651342,"[1, 1, 1, 1, 1, 1, 1, 1, 1, 1, 1, 1, 1, 1, 1, 1, 1, 1, 1, 1, 1, 1, 1, 1, 1, 1, 1, 1, 1, 1, 1, 1]",geometric,8,0.99,0.001,7.9867337783479515,8,4096
92,2944,32.0,556,0.1651342,"[1, 1, 1, 1, 1, 1, 1, 1, 1, 1, 1, 1, 1, 1, 1, 1, 1, 1, 1, 1, 1, 1, 1, 1, 1, 1, 1, 1, 1, 1, 1, 1]",geometric,8,0.99,0.001,7.9867337783479515,8,4096
93,2976,32.0,556,0.1651342,"[1, 1, 1, 1, 1, 1, 1, 1, 1, 1, 1, 1, 1, 1, 1, 1, 1, 1, 1, 1, 1, 1, 1, 1, 1, 1, 1, 1, 1, 1, 1, 1]",geometric,8,0.99,0.001,7.9867337783479515,8,4096
94,3008,32.0,556,0.1651342,"[1, 1, 1, 1, 1, 1, 1, 1, 1, 1, 1, 1, 1, 1, 1, 1, 1, 1, 1, 1, 1, 1, 1, 1, 1, 1, 1, 1, 1, 1, 1, 1]",geometric,8,0.99,0.001,7.9867337783479515,8,4096
95,3040,32.0,556,0.1651342,"[1, 1, 1, 1, 1, 1, 1, 1, 1, 1, 1, 1, 1, 1, 1, 1, 1, 1, 1, 1, 1, 1, 1, 1, 1, 1, 1, 1, 1, 1, 1, 1]",geometric,8,0.99,0.001,7.9867337783479515,8,4096
96,3072,32.0,556,0.1651342,"[1, 1, 1, 1, 1, 1, 1, 1, 1, 1, 1, 1, 1, 1, 1, 1, 1, 1, 1, 1, 1, 1, 1, 1, 1, 1, 1, 1, 1, 1, 1, 1]",geometric,8,0.99,0.001,7.9867337783479515,8,4096
97,3104,32.0,556,0.1651342,"[1, 1, 1, 1, 1, 1, 1, 1, 1, 1, 1, 1, 1, 1, 1, 1, 1, 1, 1, 1, 1, 1, 1, 1, 1, 1, 1, 1, 1, 1, 1, 1]",geometric,8,0.99,0.001,7.9867337783479515,8,4096
98,3136,32.0,556,0.1651342,"[1, 1, 1, 1, 1, 1, 1, 1, 1, 1, 1, 1, 1, 1, 1, 1, 1, 1, 1, 1, 1, 1, 1, 1, 1, 1, 1, 1, 1, 1, 1, 1]",geometric,8,0.99,0.001,7.9867337783479515,8,4096
99,3168,32.0,556,0.1651342,"[1, 1, 1, 1, 1, 1, 1, 1, 1, 1, 1, 1, 1, 1, 1, 1, 1, 1, 1, 1, 1, 1, 1, 1, 1, 1, 1, 1, 1, 1, 1, 1]",geometric,8,0.99,0.001,7.9867337783479515,8,4096
100,3200,32.0,556,0.1651342,"[1, 1, 1, 1, 1, 1, 1, 1, 1, 1, 1, 1, 1, 1, 1, 1, 1, 1, 1, 1, 1, 1, 1, 1, 1, 1, 1, 1, 1, 1, 1, 1]",geometric,8,0.99,0.001,7.9867337783479515,8,4096
101,3232,32.0,556,0.1651342,"[1, 1, 1, 1, 1, 1, 1, 1, 1, 1, 1, 1, 1, 1, 1, 1, 1, 1, 1, 1, 1, 1, 1, 1, 1, 1, 1, 1, 1, 1, 1, 1]",geometric,8,0.99,0.001,7.9867337783479515,8,4096
102,3264,32.0,556,0.1651342,"[1, 1, 1, 1, 1, 1, 1, 1, 1, 1, 1, 1, 1, 1, 1, 1, 1, 1, 1, 1, 1, 1, 1, 1, 1, 1, 1, 1, 1, 1, 1, 1]",geometric,8,0.99,0.001,7.9867337783479515,8,4096
103,3296,32.0,556,0.1651342,"[1, 1, 1, 1, 1, 1, 1, 1, 1, 1, 1, 1, 1, 1, 1, 1, 1, 1, 1, 1, 1, 1, 1, 1, 1, 1, 1, 1, 1, 1, 1, 1]",geometric,8,0.99,0.001,7.9867337783479515,8,4096
104,3328,32.0,556,0.1651342,"[1, 1, 1, 1, 1, 1, 1, 1, 1, 1, 1, 1, 1, 1, 1, 1, 1, 1, 1, 1, 1, 1, 1, 1, 1, 1, 1, 1, 1, 1, 1, 1]",geometric,8,0.99,0.001,7.9867337783479515,8,4096
105,3360,32.0,556,0.1651342,"[1, 1, 1, 1, 1, 1, 1, 1, 1, 1, 1, 1, 1, 1, 1, 1, 1, 1, 1, 1, 1, 1, 1, 1, 1, 1, 1, 1, 1, 1, 1, 1]",geometric,8,0.99,0.001,7.9867337783479515,8,4096
106,3392,32.0,556,0.1651342,"[1, 1, 1, 1, 1, 1, 1, 1, 1, 1, 1, 1, 1, 1, 1, 1, 1, 1, 1, 1, 1, 1, 1, 1, 1, 1, 1, 1, 1, 1, 1, 1]",geometric,8,0.99,0.001,7.9867337783479515,8,4096
107,3424,32.0,556,0.1651342,"[1, 1, 1, 1, 1, 1, 1, 1, 1, 1, 1, 1, 1, 1, 1, 1, 1, 1, 1, 1, 1, 1, 1, 1, 1, 1, 1, 1, 1, 1, 1, 1]",geometric,8,0.99,0.001,7.9867337783479515,8,4096
108,3456,32.0,556,0.1651342,"[1, 1, 1, 1, 1, 1, 1, 1, 1, 1, 1, 1, 1, 1, 1, 1, 1, 1, 1, 1, 1, 1, 1, 1, 1, 1, 1, 1, 1, 1, 1, 1]",geometric,8,0.99,0.001,7.9867337783479515,8,4096
109,3488,32.0,556,0.1651342,"[1, 1, 1, 1, 1, 1, 1, 1, 1, 1, 1, 1, 1, 1, 1, 1, 1, 1, 1, 1, 1, 1, 1, 1, 1, 1, 1, 1, 1, 1, 1, 1]",geometric,8,0.99,0.001,7.9867337783479515,8,4096
110,3520,32.0,556,0.1651342,"[1, 1, 1, 1, 1, 1, 1, 1, 1, 1, 1, 1, 1, 1, 1, 1, 1, 1, 1, 1, 1, 1, 1, 1, 1, 1, 1, 1, 1, 1, 1, 1]",geometric,8,0.99,0.001,7.9867337783479515,8,4096
111,3552,32.0,556,0.1651342,"[1, 1, 1, 1, 1, 1, 1, 1, 1, 1, 1, 1, 1, 1, 1, 1, 1, 1, 1, 1, 1, 1, 1, 1, 1, 1, 1, 1, 1, 1, 1, 1]",geometric,8,0.99,0.001,7.9867337783479515,8,4096
112,3584,32.0,556,0.1651342,"[1, 1, 1, 1, 1, 1, 1, 1, 1, 1, 1, 1, 1, 1, 1, 1, 1, 1, 1, 1, 1, 1, 1, 1, 1, 1, 1, 1, 1, 1, 1, 1]",geometric,8,0.99,0.001,7.9867337783479515,8,4096
113,3616,32.0,556,0.1651342,"[1, 1, 1, 1, 1, 1, 1, 1, 1, 1, 1, 1, 1, 1, 1, 1, 1, 1, 1, 1, 1, 1, 1, 1, 1, 1, 1, 1, 1, 1, 1, 1]",geometric,8,0.99,0.001,7.9867337783479515,8,4096
114,3648,32.0,556,0.1651342,"[1, 1, 1, 1, 1, 1, 1, 1, 1, 1, 1, 1, 1, 1, 1, 1, 1, 1, 1, 1, 1, 1, 1, 1, 1, 1, 1, 1, 1, 1, 1, 1]",geometric,8,0.99,0.001,7.9867337783479515,8,4096
115,3680,32.0,556,0.1651342,"[1, 1, 1, 1, 1, 1, 1, 1, 1, 1, 1, 1, 1, 1, 1, 1, 1, 1, 1, 1, 1, 1, 1, 1, 1, 1, 1, 1, 1, 1, 1, 1]",geometric,8,0.99,0.001,7.9867337783479515,8,4096
116,3712,32.0,556,0.1651342,"[1, 1, 1, 1, 1, 1, 1, 1, 1, 1, 1, 1, 1, 1, 1, 1, 1, 1, 1, 1, 1, 1, 1, 1, 1, 1, 1, 1, 1, 1, 1, 1]",geometric,8,0.99,0.001,7.9867337783479515,8,4096
117,3744,32.0,556,0.1651342,"[1, 1, 1, 1, 1, 1, 1, 1, 1, 1, 1, 1, 1, 1, 1, 1, 1, 1, 1, 1, 1, 1, 1, 1, 1, 1, 1, 1, 1, 1, 1, 1]",geometric,8,0.99,0.001,7.9867337783479515,8,4096
118,3776,32.0,556,0.1651342,"[1, 1, 1, 1, 1, 1, 1, 1, 1, 1, 1, 1, 1, 1, 1, 1, 1, 1, 1, 1, 1, 1, 1, 1, 1, 1, 1, 1, 1, 1, 1, 1]",geometric,8,0.99,0.001,7.9867337783479515,8,4096
119,3808,32.0,556,0.1651342,"[1, 1, 1, 1, 1, 1, 1, 1, 1, 1, 1, 1, 1, 1, 1, 1, 1, 1, 1, 1, 1, 1, 1, 1, 1, 1, 1, 1, 1, 1, 1, 1]",geometric,8,0.99,0.001,7.9867337783479515,8,4096
120,3840,32.0,556,0.1651342,"[1, 1, 1, 1, 1, 1, 1, 1, 1, 1, 1, 1, 1, 1, 1, 1, 1, 1, 1, 1, 1, 1, 1, 1, 1, 1, 1, 1, 1, 1, 1, 1]",geometric,8,0.99,0.001,7.9867337783479515,8,4096
121,3872,32.0,556,0.1651342,"[1, 1, 1, 1, 1, 1, 1, 1, 1, 1, 1, 1, 1, 1, 1, 1, 1, 1, 1, 1, 1, 1, 1, 1, 1, 1, 1, 1, 1, 1, 1, 1]",geometric,8,0.99,0.001,7.9867337783479515,8,4096
122,3904,32.0,556,0.1651342,"[1, 1, 1, 1, 1, 1, 1, 1, 1, 1, 1, 1, 1, 1, 1, 1, 1, 1, 1, 1, 1, 1, 1, 1, 1, 1, 1, 1, 1, 1, 1, 1]",geometric,8,0.99,0.001,7.9867337783479515,8,4096
123,3936,32.0,556,0.1651342,"[1, 1, 1, 1, 1, 1, 1, 1, 1, 1, 1, 1, 1, 1, 1, 1, 1, 1, 1, 1, 1, 1, 1, 1, 1, 1, 1, 1, 1, 1, 1, 1]",geometric,8,0.99,0.001,7.9867337783479515,8,4096
124,3968,32.0,556,0.1651342,"[1, 1, 1, 1, 1, 1, 1, 1, 1, 1, 1, 1, 1, 1, 1, 1, 1, 1, 1, 1, 1, 1, 1, 1, 1, 1, 1, 1, 1, 1, 1, 1]",geometric,8,0.99,0.001,7.9867337783479515,8,4096
125,4000,32.0,556,0.1651342,"[1, 1, 1, 1, 1, 1, 1, 1, 1, 1, 1, 1, 1, 1, 1, 1, 1, 1, 1, 1, 1, 1, 1, 1, 1, 1, 1, 1, 1, 1, 1, 1]",geometric,8,0.99,0.001,7.9867337783479515,8,4096
126,4032,32.0,556,0.1651342,"[1, 1, 1, 1, 1, 1, 1, 1, 1, 1, 1, 1, 1, 1, 1, 1, 1, 1, 1, 1, 1, 1, 1, 1, 1, 1, 1, 1, 1, 1, 1, 1]",geometric,8,0.99,0.001,7.9867337783479515,8,4096
127,4064,32.0,556,0.1651342,"[1, 1, 1, 1, 1, 1, 1, 1, 1, 1, 1, 1, 1, 1, 1, 1, 1, 1, 1, 1, 1, 1, 1, 1, 1, 1, 1, 1, 1, 1, 1, 1]",geometric,8,0.99,0.001,7.9867337783479515,8,4096
