1.223494612161954720e+01,4.030000000000000000e+02
1.223494612161954720e+01,6.040000000000000000e+02
1.223494612161954720e+01,8.050000000000000000e+02
1.219205065439084024e+01,1.007000000000000000e+03
1.219205065439084024e+01,1.208000000000000000e+03
1.218132666346111748e+01,1.410000000000000000e+03
1.218132666346111748e+01,1.611000000000000000e+03
1.218132666346111748e+01,1.812000000000000000e+03
1.212772582368432950e+01,2.014000000000000000e+03
1.212772582368432950e+01,2.215000000000000000e+03
1.212772582368432950e+01,2.416000000000000000e+03
1.212772582368432950e+01,2.617000000000000000e+03
1.212772582368432950e+01,2.818000000000000000e+03
1.204197411195090694e+01,3.020000000000000000e+03
1.204197411195090694e+01,3.221000000000000000e+03
1.204197411195090694e+01,3.422000000000000000e+03
1.204197411195090694e+01,3.623000000000000000e+03
1.204192942783496711e+01,3.825000000000000000e+03
1.204192942783496711e+01,4.026000000000000000e+03
1.204192942783496711e+01,4.227000000000000000e+03
1.204192942783496711e+01,4.428000000000000000e+03
1.204192942783496711e+01,4.629000000000000000e+03
1.204192942783496711e+01,4.830000000000000000e+03
1.204192942783496711e+01,5.031000000000000000e+03
1.204192942783496711e+01,5.232000000000000000e+03
1.204192942783496711e+01,5.433000000000000000e+03
1.204192942783496711e+01,5.634000000000000000e+03
1.204192942783496711e+01,5.835000000000000000e+03
1.204192942783496711e+01,6.036000000000000000e+03
1.204192942783496711e+01,6.237000000000000000e+03
1.203121313250299096e+01,6.439000000000000000e+03
1.203121313250299096e+01,6.640000000000000000e+03
1.203121313250299096e+01,6.841000000000000000e+03
1.203121313250299096e+01,7.042000000000000000e+03
1.203121313250299096e+01,7.243000000000000000e+03
1.203121313250299096e+01,7.444000000000000000e+03
1.203121313250299096e+01,7.645000000000000000e+03
1.203121313250299096e+01,7.846000000000000000e+03
1.203121313250299096e+01,8.047000000000000000e+03
1.203121313250299096e+01,8.248000000000000000e+03
1.203121313250299096e+01,8.449000000000000000e+03
1.203121313250299096e+01,8.650000000000000000e+03
1.203121313250299096e+01,8.851000000000000000e+03
1.200978575498589684e+01,9.053000000000000000e+03
1.200978575498589684e+01,9.254000000000000000e+03
1.200978575498589684e+01,9.455000000000000000e+03
1.200978575498589684e+01,9.656000000000000000e+03
1.200978575498589684e+01,9.857000000000000000e+03
1.200978575498589684e+01,1.005800000000000000e+04
1.200978575498589684e+01,1.025900000000000000e+04
1.200978575498589684e+01,1.046000000000000000e+04
1.200978575498589684e+01,1.066100000000000000e+04
1.200978575498589684e+01,1.086200000000000000e+04
1.200978575498589684e+01,1.106300000000000000e+04
1.200978575498589684e+01,1.126400000000000000e+04
1.200978575498589684e+01,1.146500000000000000e+04
1.200978575498589684e+01,1.166600000000000000e+04
1.200978575498589684e+01,1.186700000000000000e+04
1.200978575498589684e+01,1.206800000000000000e+04
1.200978575498589684e+01,1.226900000000000000e+04
1.200978575498589684e+01,1.247000000000000000e+04
1.200978575498589684e+01,1.267100000000000000e+04
1.200978575498589684e+01,1.287200000000000000e+04
1.200978575498589684e+01,1.307300000000000000e+04
1.200978575498589684e+01,1.327400000000000000e+04
1.200978575498589684e+01,1.347500000000000000e+04
1.200978575498589684e+01,1.367600000000000000e+04
1.200978575498589684e+01,1.387700000000000000e+04
1.200978575498589684e+01,1.407800000000000000e+04
1.200978575498589684e+01,1.427900000000000000e+04
1.200978575498589684e+01,1.448000000000000000e+04
1.200978575498589684e+01,1.468100000000000000e+04
1.200978575498589684e+01,1.488200000000000000e+04
1.200978575498589684e+01,1.508300000000000000e+04
1.200978575498589684e+01,1.528400000000000000e+04
1.200978575498589684e+01,1.548500000000000000e+04
1.200978575498589684e+01,1.568600000000000000e+04
1.200978575498589684e+01,1.588700000000000000e+04
1.200978575498589684e+01,1.608800000000000000e+04
1.200978575498589684e+01,1.628900000000000000e+04
1.200978575498589684e+01,1.649000000000000000e+04
1.200978575498589684e+01,1.669100000000000000e+04
1.200978575498589684e+01,1.689200000000000000e+04
1.200978575498589684e+01,1.709300000000000000e+04
1.200978575498589684e+01,1.729400000000000000e+04
1.199907914121237695e+01,1.749600000000000000e+04
1.199907914121237695e+01,1.769700000000000000e+04
1.199907914121237695e+01,1.789800000000000000e+04
1.199907914121237695e+01,1.809900000000000000e+04
1.199907914121237695e+01,1.830000000000000000e+04
1.199907914121237695e+01,1.850100000000000000e+04
1.199907914121237695e+01,1.870200000000000000e+04
1.199907914121237695e+01,1.890300000000000000e+04
1.199907914121237695e+01,1.910400000000000000e+04
1.199907914121237695e+01,1.930500000000000000e+04
1.199907914121237695e+01,1.950600000000000000e+04
1.199907914121237695e+01,1.970700000000000000e+04
1.199907914121237695e+01,1.990800000000000000e+04
1.199907914121237695e+01,2.010900000000000000e+04
1.199907914121237695e+01,2.031000000000000000e+04
1.199907914121237695e+01,2.051100000000000000e+04
1.199907914121237695e+01,2.071200000000000000e+04
1.199907914121237695e+01,2.091300000000000000e+04
1.199907914121237695e+01,2.111400000000000000e+04
1.199907914121237695e+01,2.131500000000000000e+04
1.199907914121237695e+01,2.151600000000000000e+04
1.199907914121237695e+01,2.171700000000000000e+04
1.199907914121237695e+01,2.191800000000000000e+04
1.199907914121237695e+01,2.211900000000000000e+04
1.199907914121237695e+01,2.232000000000000000e+04
1.199907914121237695e+01,2.252100000000000000e+04
1.199907914121237695e+01,2.272200000000000000e+04
1.199907914121237695e+01,2.292300000000000000e+04
1.199907914121237695e+01,2.312400000000000000e+04
1.199907914121237695e+01,2.332500000000000000e+04
1.199907914121237695e+01,2.352600000000000000e+04
1.199907914121237695e+01,2.372700000000000000e+04
1.199907914121237695e+01,2.392800000000000000e+04
1.199907914121237695e+01,2.412900000000000000e+04
1.199907914121237695e+01,2.433000000000000000e+04
1.199907914121237695e+01,2.453100000000000000e+04
1.199907914121237695e+01,2.473200000000000000e+04
1.199907914121237695e+01,2.493300000000000000e+04
1.199907914121237695e+01,2.513400000000000000e+04
1.199907914121237695e+01,2.533500000000000000e+04
1.199907914121237695e+01,2.553600000000000000e+04
1.199907914121237695e+01,2.573700000000000000e+04
1.199907914121237695e+01,2.593800000000000000e+04
1.199907914121237695e+01,2.613900000000000000e+04
1.199907914121237695e+01,2.634000000000000000e+04
1.199907914121237695e+01,2.654100000000000000e+04
1.199907914121237695e+01,2.674200000000000000e+04
1.199907914121237695e+01,2.694300000000000000e+04
1.199907914121237695e+01,2.714400000000000000e+04
1.199907914121237695e+01,2.734500000000000000e+04
1.195617424067030221e+01,2.754700000000000000e+04
1.195617424067030221e+01,2.774800000000000000e+04
1.195617424067030221e+01,2.794900000000000000e+04
1.195617424067030221e+01,2.815000000000000000e+04
1.195617424067030221e+01,2.835100000000000000e+04
1.195617424067030221e+01,2.855200000000000000e+04
1.195617424067030221e+01,2.875300000000000000e+04
1.195617424067030221e+01,2.895400000000000000e+04
1.195617424067030221e+01,2.915500000000000000e+04
1.195617424067030221e+01,2.935600000000000000e+04
1.195617424067030221e+01,2.955700000000000000e+04
1.195617424067030221e+01,2.975800000000000000e+04
1.195617424067030221e+01,2.995900000000000000e+04
1.195617424067030221e+01,3.016000000000000000e+04
1.195617424067030221e+01,3.036100000000000000e+04
1.195617424067030221e+01,3.056200000000000000e+04
1.195617424067030221e+01,3.076300000000000000e+04
1.195617424067030221e+01,3.096400000000000000e+04
1.195617424067030221e+01,3.116500000000000000e+04
1.195617424067030221e+01,3.136600000000000000e+04
1.195617424067030221e+01,3.156700000000000000e+04
1.195617424067030221e+01,3.176800000000000000e+04
1.195617424067030221e+01,3.196900000000000000e+04
1.195617424067030221e+01,3.217000000000000000e+04
1.195617424067030221e+01,3.237100000000000000e+04
1.195617424067030221e+01,3.257200000000000000e+04
1.195617424067030221e+01,3.277300000000000000e+04
1.195617424067030221e+01,3.297400000000000000e+04
1.195617424067030221e+01,3.317500000000000000e+04
1.195617424067030221e+01,3.337600000000000000e+04
1.195617424067030221e+01,3.357700000000000000e+04
1.195617424067030221e+01,3.377800000000000000e+04
1.195617424067030221e+01,3.397900000000000000e+04
1.195617424067030221e+01,3.418000000000000000e+04
1.195617424067030221e+01,3.438100000000000000e+04
1.195617424067030221e+01,3.458200000000000000e+04
1.195617424067030221e+01,3.478300000000000000e+04
1.195617424067030221e+01,3.498400000000000000e+04
1.195617424067030221e+01,3.518500000000000000e+04
1.195617424067030221e+01,3.538600000000000000e+04
1.195617424067030221e+01,3.558700000000000000e+04
1.195617424067030221e+01,3.578800000000000000e+04
1.195617424067030221e+01,3.598900000000000000e+04
1.195617424067030221e+01,3.619000000000000000e+04
1.195617424067030221e+01,3.639100000000000000e+04
1.195617424067030221e+01,3.659200000000000000e+04
1.195617424067030221e+01,3.679300000000000000e+04
1.195617424067030221e+01,3.699400000000000000e+04
1.195617424067030221e+01,3.719500000000000000e+04
1.195617424067030221e+01,3.739600000000000000e+04
1.195617424067030221e+01,3.759700000000000000e+04
