,Iteration,Fitness,FEvals,Time,State,schedule_type,schedule_init_temp,schedule_decay,schedule_min_temp,schedule_current_value,Temperature,max_iters
0,0,59.0,0,0.0024842000000000475,"[23, 28, 40, 39, 25, 39, 26, 50, 18, 20, 8, 9, 6, 54, 26, 23, 24, 1, 27, 29, 6, 22, 50, 2, 41, 40, 11, 1, 23, 19, 46, 17, 47, 27, 51, 3, 20, 8, 8, 7, 27, 9, 4, 31, 33, 12, 6, 4, 52, 50, 53, 46, 55, 20, 18, 26]",geometric,8,0.99,0.001,7.999800266138775,8,4096
1,32,60.0,62,0.15750629999999988,"[16, 39, 40, 11, 36, 42, 26, 22, 18, 20, 52, 9, 8, 54, 26, 31, 24, 1, 27, 29, 55, 39, 50, 2, 41, 49, 11, 1, 23, 19, 46, 10, 47, 46, 48, 3, 20, 8, 8, 7, 27, 9, 4, 31, 33, 17, 6, 4, 27, 50, 23, 28, 55, 20, 18, 26]",geometric,8,0.99,0.001,7.98734608844548,8,4096
2,64,53.0,122,0.25642680000000007,"[16, 13, 48, 11, 7, 42, 26, 22, 18, 20, 52, 9, 8, 41, 39, 31, 8, 1, 27, 3, 17, 39, 50, 10, 41, 49, 11, 38, 0, 20, 1, 10, 36, 46, 48, 3, 20, 8, 1, 7, 27, 45, 4, 31, 23, 17, 6, 4, 27, 38, 12, 44, 55, 20, 37, 26]",geometric,8,0.99,0.001,7.979409140830539,8,4096
3,96,44.0,180,0.36647870000000005,"[16, 44, 48, 11, 23, 42, 26, 22, 18, 55, 52, 9, 8, 41, 39, 31, 8, 1, 29, 3, 17, 7, 15, 19, 35, 11, 11, 32, 0, 20, 54, 49, 36, 48, 14, 5, 5, 4, 1, 50, 27, 45, 44, 31, 32, 17, 6, 4, 27, 38, 12, 24, 7, 49, 37, 23]",geometric,8,0.99,0.001,7.970588326144013,8,4096
4,128,39.0,234,0.46408000000000005,"[33, 44, 48, 11, 23, 42, 26, 22, 18, 55, 41, 9, 9, 3, 39, 41, 8, 1, 24, 32, 17, 7, 15, 19, 35, 49, 43, 32, 12, 20, 54, 49, 37, 48, 14, 53, 25, 3, 1, 50, 27, 45, 1, 4, 32, 53, 6, 40, 20, 38, 53, 24, 7, 49, 37, 23]",geometric,8,0.99,0.001,7.962773603515448,8,4096
5,160,39.0,289,0.5790348000000001,"[33, 6, 48, 11, 27, 19, 26, 22, 29, 16, 1, 54, 9, 3, 39, 41, 8, 1, 24, 32, 17, 43, 17, 42, 35, 49, 29, 32, 2, 23, 54, 49, 37, 48, 14, 53, 25, 5, 54, 50, 27, 45, 1, 28, 32, 53, 39, 53, 20, 38, 53, 24, 7, 49, 37, 50]",geometric,8,0.99,0.001,7.953579249965129,8,4096
6,192,37.0,345,0.6786672999999999,"[33, 1, 48, 11, 27, 19, 26, 22, 29, 16, 18, 47, 9, 3, 43, 41, 8, 1, 55, 32, 17, 43, 51, 42, 35, 7, 29, 32, 2, 34, 36, 41, 47, 22, 44, 0, 32, 5, 54, 50, 14, 45, 1, 28, 32, 53, 39, 38, 20, 38, 49, 24, 7, 49, 46, 50]",geometric,8,0.99,0.001,7.945618998352266,8,4096
7,224,33.0,395,0.7853059,"[52, 1, 48, 11, 27, 19, 26, 22, 45, 16, 4, 47, 9, 3, 43, 55, 8, 1, 21, 32, 17, 13, 43, 42, 35, 7, 23, 32, 2, 34, 36, 41, 47, 22, 44, 0, 32, 5, 54, 50, 49, 45, 1, 28, 32, 24, 48, 38, 20, 5, 49, 24, 45, 7, 9, 50]",geometric,8,0.99,0.001,7.937107813196843,8,4096
8,256,29.0,442,0.8848063000000002,"[52, 1, 46, 11, 27, 44, 26, 22, 45, 16, 4, 33, 9, 3, 26, 55, 8, 1, 21, 32, 17, 21, 43, 42, 35, 7, 7, 10, 2, 34, 36, 41, 30, 22, 44, 0, 32, 5, 54, 50, 49, 23, 1, 28, 36, 24, 48, 38, 20, 5, 0, 24, 45, 7, 33, 6]",geometric,8,0.99,0.001,7.929174573995465,8,4096
9,288,26.0,481,0.9685928000000001,"[52, 1, 39, 11, 27, 44, 26, 22, 49, 16, 4, 33, 9, 3, 26, 55, 8, 1, 21, 48, 17, 21, 43, 42, 35, 50, 7, 10, 2, 34, 36, 41, 30, 22, 47, 0, 32, 5, 54, 50, 49, 23, 1, 28, 37, 24, 48, 38, 20, 5, 0, 24, 45, 7, 33, 6]",geometric,8,0.99,0.001,7.922500365636169,8,4096
10,320,25.0,520,1.0523921999999999,"[52, 1, 39, 11, 27, 44, 26, 22, 49, 16, 4, 51, 9, 3, 26, 55, 8, 1, 21, 48, 17, 42, 43, 42, 35, 50, 7, 18, 2, 34, 36, 41, 30, 22, 47, 0, 32, 5, 54, 50, 4, 23, 1, 28, 6, 6, 48, 38, 20, 5, 0, 24, 45, 7, 33, 6]",geometric,8,0.99,0.001,7.915830748862774,8,4096
11,352,25.0,559,1.1440149000000002,"[12, 1, 39, 11, 27, 44, 26, 22, 49, 16, 4, 41, 9, 3, 26, 55, 8, 1, 21, 48, 3, 42, 43, 42, 35, 28, 7, 18, 2, 34, 36, 41, 30, 22, 47, 0, 32, 5, 54, 50, 4, 23, 1, 28, 6, 37, 48, 38, 20, 5, 20, 24, 45, 7, 53, 6]",geometric,8,0.99,0.001,7.90854489899139,8,4096
12,384,25.0,597,1.2364565,"[25, 1, 39, 11, 27, 44, 26, 22, 49, 16, 4, 41, 9, 3, 8, 55, 8, 1, 21, 48, 3, 34, 43, 42, 35, 28, 12, 18, 2, 34, 36, 41, 30, 22, 47, 0, 32, 5, 54, 50, 4, 23, 1, 28, 6, 37, 48, 22, 20, 5, 20, 24, 45, 7, 53, 35]",geometric,8,0.99,0.001,7.901200726237904,8,4096
13,416,22.0,635,1.3228021,"[25, 1, 39, 11, 27, 44, 26, 31, 49, 16, 4, 26, 9, 3, 8, 55, 8, 1, 21, 48, 3, 34, 43, 42, 10, 28, 12, 18, 2, 34, 36, 41, 30, 22, 47, 0, 32, 3, 54, 50, 4, 23, 1, 28, 6, 37, 48, 22, 20, 5, 38, 24, 45, 7, 53, 35]",geometric,8,0.99,0.001,7.894347020497956,8,4096
14,448,20.0,672,1.4049559999999999,"[25, 1, 39, 11, 27, 44, 26, 51, 49, 16, 4, 26, 9, 3, 28, 55, 8, 1, 21, 48, 3, 34, 40, 42, 10, 28, 12, 18, 2, 34, 36, 41, 30, 44, 47, 0, 32, 3, 54, 50, 4, 23, 1, 28, 6, 37, 48, 22, 20, 5, 38, 24, 31, 7, 53, 35]",geometric,8,0.99,0.001,7.887831551350866,8,4096
15,480,19.0,709,1.4969457,"[52, 1, 39, 11, 27, 44, 26, 51, 49, 16, 4, 26, 9, 3, 28, 55, 8, 1, 45, 48, 3, 34, 40, 42, 10, 28, 12, 18, 2, 34, 36, 41, 30, 50, 47, 0, 32, 3, 54, 50, 4, 23, 1, 28, 6, 37, 48, 22, 20, 5, 38, 24, 31, 7, 53, 35]",geometric,8,0.99,0.001,7.880542405139143,8,4096
16,512,19.0,747,1.5925002,"[52, 1, 39, 35, 27, 44, 26, 51, 49, 16, 4, 26, 9, 3, 3, 55, 8, 1, 45, 48, 28, 34, 40, 42, 10, 28, 7, 18, 2, 34, 36, 41, 30, 50, 47, 0, 32, 3, 54, 50, 4, 23, 1, 28, 6, 40, 48, 22, 20, 5, 38, 24, 31, 7, 53, 35]",geometric,8,0.99,0.001,7.8729779211530255,8,4096
17,544,18.0,783,1.6721583999999998,"[52, 1, 39, 35, 27, 44, 26, 19, 49, 16, 4, 26, 9, 3, 3, 55, 8, 1, 45, 48, 28, 34, 40, 42, 10, 28, 7, 18, 2, 29, 36, 41, 10, 50, 47, 0, 32, 24, 54, 50, 4, 23, 1, 28, 6, 40, 48, 22, 20, 5, 38, 24, 31, 7, 53, 35]",geometric,8,0.99,0.001,7.866677403070197,8,4096
18,576,18.0,822,1.7679812999999998,"[52, 1, 39, 53, 27, 44, 26, 19, 49, 16, 4, 26, 9, 3, 3, 55, 8, 1, 45, 48, 28, 34, 40, 42, 10, 28, 48, 18, 2, 29, 36, 41, 10, 26, 47, 0, 4, 24, 54, 50, 4, 23, 1, 28, 6, 40, 48, 22, 20, 5, 38, 25, 51, 7, 35, 35]",geometric,8,0.99,0.001,7.859105027969816,8,4096
19,608,18.0,861,1.8671129999999998,"[52, 54, 39, 53, 27, 44, 26, 19, 49, 16, 4, 26, 9, 17, 3, 55, 8, 1, 45, 33, 28, 34, 40, 42, 10, 28, 43, 18, 2, 29, 36, 41, 10, 26, 47, 0, 4, 24, 54, 0, 4, 23, 1, 28, 6, 21, 48, 22, 20, 5, 38, 25, 51, 7, 35, 35]",geometric,8,0.99,0.001,7.851278846856212,8,4096
20,640,14.0,904,1.9690588,"[15, 54, 39, 53, 27, 44, 52, 19, 49, 16, 4, 46, 9, 17, 3, 55, 8, 1, 45, 33, 28, 11, 40, 42, 10, 50, 43, 18, 2, 29, 11, 41, 10, 26, 47, 0, 37, 24, 54, 0, 4, 23, 53, 28, 6, 21, 48, 22, 31, 5, 38, 25, 51, 7, 30, 35]",geometric,8,0.99,0.001,7.843238628426791,8,4096
21,672,14.0,940,2.0583949,"[15, 46, 39, 53, 27, 44, 52, 19, 20, 16, 4, 46, 9, 17, 3, 55, 8, 1, 45, 33, 28, 11, 40, 42, 10, 50, 43, 18, 55, 29, 11, 41, 10, 26, 47, 0, 37, 24, 54, 0, 4, 23, 53, 28, 6, 21, 48, 53, 31, 5, 38, 25, 51, 7, 30, 35]",geometric,8,0.99,0.001,7.83619967583979,8,4096
22,704,13.0,978,2.143792,"[15, 46, 39, 53, 32, 44, 52, 12, 20, 16, 4, 40, 9, 17, 3, 55, 8, 1, 45, 33, 28, 11, 40, 42, 10, 50, 43, 18, 55, 29, 47, 41, 10, 26, 47, 0, 37, 24, 54, 0, 27, 23, 53, 28, 6, 21, 48, 53, 31, 5, 38, 25, 51, 7, 24, 35]",geometric,8,0.99,0.001,7.829476989731688,8,4096
23,736,13.0,1016,2.2311125,"[15, 46, 39, 53, 32, 44, 52, 12, 20, 16, 4, 35, 9, 17, 3, 55, 8, 1, 45, 33, 28, 11, 40, 42, 50, 50, 43, 18, 50, 29, 47, 41, 10, 26, 47, 0, 37, 24, 54, 0, 27, 23, 53, 28, 6, 21, 48, 33, 31, 5, 38, 25, 51, 7, 36, 35]",geometric,8,0.99,0.001,7.82260885215113,8,4096
24,768,12.0,1053,2.3376011,"[15, 46, 39, 53, 32, 44, 52, 12, 14, 16, 4, 35, 9, 17, 3, 55, 8, 1, 45, 33, 28, 11, 40, 42, 50, 50, 43, 18, 50, 4, 25, 41, 10, 26, 47, 0, 37, 24, 54, 0, 27, 2, 53, 28, 6, 21, 48, 33, 31, 5, 38, 25, 51, 7, 36, 35]",geometric,8,0.99,0.001,7.814241213311035,8,4096
25,800,12.0,1089,2.4427134,"[15, 46, 39, 53, 32, 44, 52, 12, 14, 16, 4, 35, 9, 17, 3, 55, 8, 1, 45, 33, 28, 11, 40, 42, 50, 50, 43, 18, 50, 4, 25, 41, 10, 26, 34, 0, 37, 24, 54, 0, 27, 2, 53, 1, 6, 21, 48, 33, 31, 5, 38, 13, 51, 7, 36, 41]",geometric,8,0.99,0.001,7.805990498991929,8,4096
26,832,12.0,1123,2.5427258,"[15, 46, 39, 53, 32, 44, 52, 12, 14, 16, 43, 35, 9, 17, 3, 55, 8, 1, 45, 33, 28, 11, 40, 42, 50, 50, 43, 18, 50, 4, 25, 41, 10, 26, 34, 0, 37, 24, 54, 0, 27, 2, 53, 1, 6, 21, 48, 23, 31, 5, 38, 13, 51, 7, 36, 41]",geometric,8,0.99,0.001,7.798148185601602,8,4096
27,864,12.0,1161,2.6261818,"[15, 46, 39, 53, 32, 44, 52, 12, 14, 16, 43, 35, 9, 17, 3, 55, 8, 1, 45, 33, 28, 11, 40, 42, 50, 50, 43, 18, 22, 4, 25, 41, 10, 26, 34, 0, 49, 47, 54, 0, 27, 2, 53, 1, 6, 21, 48, 23, 29, 5, 30, 47, 51, 7, 36, 41]",geometric,8,0.99,0.001,7.79161014667364,8,4096
28,896,11.0,1196,2.7438407999999996,"[15, 46, 39, 53, 32, 44, 52, 12, 14, 16, 43, 35, 9, 17, 3, 55, 8, 1, 45, 33, 28, 11, 40, 42, 50, 50, 43, 18, 22, 4, 25, 40, 10, 26, 34, 0, 49, 47, 54, 0, 27, 2, 53, 1, 6, 21, 48, 15, 29, 5, 30, 47, 51, 7, 36, 41]",geometric,8,0.99,0.001,7.782401916040302,8,4096
29,928,11.0,1233,2.8346815,"[12, 46, 39, 53, 32, 44, 52, 12, 14, 16, 43, 35, 9, 17, 3, 55, 8, 1, 45, 33, 28, 11, 40, 42, 47, 50, 43, 18, 22, 4, 25, 0, 10, 26, 34, 0, 49, 47, 54, 0, 27, 2, 53, 1, 47, 21, 48, 15, 29, 5, 30, 47, 51, 7, 36, 41]",geometric,8,0.99,0.001,7.775299984738778,8,4096
30,960,11.0,1269,2.9150845999999997,"[12, 46, 39, 53, 32, 44, 52, 20, 14, 16, 43, 35, 9, 17, 3, 55, 8, 1, 19, 33, 28, 11, 40, 42, 47, 50, 43, 18, 22, 4, 25, 0, 10, 26, 34, 0, 49, 47, 54, 0, 27, 2, 31, 1, 47, 21, 48, 24, 29, 5, 30, 47, 51, 7, 36, 41]",geometric,8,0.99,0.001,7.769019472558179,8,4096
31,992,10.0,1302,3.0065820000000003,"[12, 46, 39, 53, 32, 44, 52, 20, 14, 16, 43, 35, 9, 17, 3, 55, 8, 1, 19, 33, 28, 11, 40, 42, 47, 50, 43, 18, 22, 4, 25, 0, 10, 26, 34, 0, 45, 47, 54, 0, 27, 2, 31, 1, 47, 21, 48, 24, 29, 5, 30, 47, 51, 7, 36, 41]",geometric,8,0.99,0.001,7.761878524579627,8,4096
32,1024,10.0,1335,3.1129276000000003,"[12, 46, 39, 53, 32, 44, 52, 20, 14, 16, 43, 35, 9, 17, 3, 55, 8, 1, 19, 33, 28, 11, 40, 42, 47, 50, 43, 18, 22, 4, 25, 0, 10, 26, 34, 0, 45, 47, 54, 0, 27, 2, 40, 1, 47, 21, 48, 24, 29, 5, 30, 47, 51, 7, 36, 41]",geometric,8,0.99,0.001,7.753586990804758,8,4096
33,1056,10.0,1369,3.2383684,"[12, 46, 39, 53, 32, 44, 52, 20, 14, 16, 43, 35, 9, 17, 3, 55, 8, 1, 19, 33, 28, 11, 40, 42, 47, 50, 43, 18, 22, 4, 25, 0, 10, 26, 34, 0, 45, 47, 54, 0, 27, 2, 21, 1, 47, 21, 48, 24, 29, 5, 30, 47, 51, 7, 36, 23]",geometric,8,0.99,0.001,7.7438180310564855,8,4096
34,1088,10.0,1403,3.3601243999999997,"[12, 46, 39, 53, 32, 44, 52, 20, 14, 16, 37, 35, 9, 17, 3, 55, 8, 1, 19, 33, 28, 11, 40, 42, 47, 50, 43, 18, 22, 4, 25, 0, 10, 26, 34, 0, 45, 47, 54, 0, 27, 2, 21, 1, 47, 21, 48, 24, 29, 5, 30, 31, 51, 7, 36, 23]",geometric,8,0.99,0.001,7.734347803984218,8,4096
35,1120,10.0,1438,3.4871503,"[12, 46, 39, 53, 32, 44, 52, 20, 14, 16, 37, 35, 9, 17, 3, 55, 8, 1, 19, 33, 28, 11, 40, 42, 47, 50, 43, 18, 22, 4, 25, 0, 6, 26, 34, 0, 45, 47, 54, 0, 27, 1, 21, 1, 13, 21, 48, 24, 29, 5, 30, 31, 51, 7, 36, 23]",geometric,8,0.99,0.001,7.724480026193166,8,4096
36,1152,9.0,1473,3.6118165999999996,"[12, 46, 39, 53, 32, 44, 52, 20, 14, 16, 37, 35, 9, 17, 3, 55, 8, 1, 19, 33, 28, 11, 40, 42, 40, 50, 43, 18, 22, 4, 25, 9, 6, 26, 34, 0, 45, 47, 54, 0, 27, 52, 21, 1, 13, 21, 48, 24, 29, 5, 30, 31, 51, 7, 36, 23]",geometric,8,0.99,0.001,7.7148077908339046,8,4096
37,1184,9.0,1507,3.7201559000000004,"[12, 46, 39, 53, 2, 44, 52, 20, 14, 16, 10, 35, 9, 17, 3, 55, 8, 1, 19, 33, 28, 11, 40, 42, 40, 50, 43, 18, 22, 4, 25, 9, 6, 26, 34, 0, 45, 47, 54, 0, 27, 52, 21, 1, 13, 21, 48, 24, 29, 5, 30, 31, 51, 7, 36, 23]",geometric,8,0.99,0.001,7.706412122147251,8,4096
38,1216,9.0,1544,3.8183522,"[12, 46, 32, 53, 2, 44, 37, 20, 14, 16, 10, 35, 9, 17, 3, 55, 8, 1, 19, 33, 28, 11, 40, 42, 40, 50, 43, 18, 22, 4, 25, 9, 6, 26, 34, 50, 45, 47, 54, 0, 49, 52, 21, 1, 13, 21, 48, 24, 29, 5, 37, 31, 51, 7, 36, 23]",geometric,8,0.99,0.001,7.698810371091631,8,4096
39,1248,9.0,1576,3.9430036000000004,"[12, 46, 32, 53, 2, 44, 37, 20, 14, 16, 10, 35, 9, 17, 3, 55, 8, 1, 19, 33, 28, 11, 40, 42, 40, 50, 43, 18, 22, 4, 25, 9, 6, 26, 34, 50, 45, 47, 54, 0, 49, 52, 21, 1, 13, 21, 48, 24, 29, 5, 37, 31, 51, 7, 36, 23]",geometric,8,0.99,0.001,7.6891714295364055,8,4096
40,1280,9.0,1609,4.0586926000000005,"[12, 46, 32, 53, 2, 44, 37, 20, 14, 16, 10, 35, 9, 17, 3, 55, 8, 38, 19, 33, 28, 11, 40, 42, 40, 50, 43, 18, 22, 4, 25, 9, 6, 26, 34, 50, 45, 47, 54, 0, 49, 52, 21, 1, 13, 21, 48, 24, 29, 5, 37, 31, 51, 7, 36, 23]",geometric,8,0.99,0.001,7.680236323104452,8,4096
41,1312,9.0,1642,4.1502613,"[12, 46, 32, 53, 2, 44, 37, 20, 14, 16, 10, 35, 9, 17, 3, 55, 8, 38, 19, 33, 28, 11, 40, 42, 40, 50, 43, 18, 22, 4, 25, 9, 6, 26, 34, 39, 45, 47, 54, 0, 49, 52, 21, 1, 13, 21, 48, 24, 29, 5, 37, 31, 51, 7, 36, 23]",geometric,8,0.99,0.001,7.673171482259905,8,4096
42,1344,9.0,1674,4.250408999999999,"[12, 46, 32, 53, 2, 44, 37, 20, 14, 16, 10, 35, 9, 17, 3, 55, 8, 38, 19, 33, 28, 11, 40, 42, 40, 50, 43, 18, 22, 4, 25, 9, 6, 26, 34, 39, 45, 47, 54, 0, 49, 52, 21, 1, 13, 21, 48, 24, 29, 5, 37, 31, 51, 7, 36, 23]",geometric,8,0.99,0.001,7.665452182351718,8,4096
43,1376,9.0,1707,4.3605348,"[12, 46, 32, 53, 2, 44, 37, 20, 14, 16, 10, 35, 9, 16, 3, 55, 8, 38, 19, 33, 28, 11, 40, 42, 40, 50, 43, 18, 22, 4, 25, 9, 6, 26, 34, 39, 45, 47, 54, 0, 49, 52, 21, 1, 13, 21, 48, 24, 29, 5, 37, 31, 51, 7, 36, 23]",geometric,8,0.99,0.001,7.656972743486629,8,4096
44,1408,9.0,1743,4.4850844,"[12, 46, 32, 53, 2, 44, 47, 20, 14, 16, 10, 35, 9, 16, 3, 55, 8, 38, 19, 33, 28, 11, 27, 42, 40, 50, 43, 18, 22, 4, 25, 9, 6, 26, 34, 39, 45, 4, 54, 0, 49, 52, 38, 1, 13, 21, 48, 24, 29, 5, 37, 31, 51, 7, 36, 23]",geometric,8,0.99,0.001,7.6473940070392645,8,4096
45,1440,9.0,1775,4.584759999999999,"[12, 46, 32, 53, 2, 44, 47, 20, 14, 16, 10, 35, 9, 16, 3, 55, 8, 38, 19, 33, 28, 11, 27, 42, 40, 50, 43, 18, 22, 4, 25, 9, 6, 26, 34, 39, 45, 4, 54, 0, 49, 52, 38, 1, 13, 21, 48, 24, 29, 5, 37, 31, 51, 7, 36, 23]",geometric,8,0.99,0.001,7.639736888230645,8,4096
46,1472,8.0,1809,4.718258499999999,"[12, 46, 32, 53, 2, 31, 47, 20, 14, 16, 10, 35, 9, 16, 3, 55, 8, 38, 19, 33, 28, 11, 27, 42, 40, 50, 43, 18, 22, 4, 25, 41, 6, 26, 34, 39, 45, 4, 54, 0, 49, 52, 38, 1, 13, 21, 48, 24, 29, 5, 37, 31, 51, 7, 36, 23]",geometric,8,0.99,0.001,7.629493490219983,8,4096
47,1504,8.0,1842,4.8343197,"[12, 46, 32, 53, 2, 31, 47, 20, 14, 16, 10, 35, 9, 16, 3, 55, 8, 38, 19, 33, 28, 11, 27, 42, 40, 50, 43, 18, 22, 4, 25, 41, 6, 26, 34, 39, 45, 4, 54, 0, 49, 52, 38, 1, 13, 21, 48, 24, 29, 5, 37, 34, 51, 7, 36, 23]",geometric,8,0.99,0.001,7.620599225102726,8,4096
48,1536,7.0,1876,4.960065999999999,"[12, 46, 32, 53, 2, 31, 47, 20, 14, 16, 10, 35, 9, 16, 3, 55, 8, 38, 19, 33, 28, 11, 27, 42, 40, 50, 43, 18, 22, 4, 25, 41, 6, 26, 6, 39, 45, 4, 54, 0, 49, 52, 44, 1, 13, 21, 48, 24, 29, 5, 37, 34, 51, 7, 36, 23]",geometric,8,0.99,0.001,7.610974451735273,8,4096
49,1568,7.0,1908,5.094374500000001,"[12, 46, 32, 53, 2, 31, 47, 20, 14, 16, 10, 35, 9, 16, 3, 55, 8, 38, 19, 33, 28, 11, 27, 42, 40, 50, 43, 18, 22, 4, 25, 41, 6, 26, 6, 39, 45, 4, 54, 0, 49, 52, 44, 1, 13, 21, 48, 24, 29, 5, 37, 34, 51, 7, 36, 23]",geometric,8,0.99,0.001,7.600707742664562,8,4096
50,1600,7.0,1942,5.228856199999999,"[12, 46, 32, 53, 2, 31, 47, 20, 14, 16, 10, 35, 9, 16, 3, 55, 8, 38, 19, 33, 28, 11, 27, 42, 2, 50, 43, 18, 22, 14, 25, 41, 6, 26, 6, 39, 45, 4, 54, 0, 49, 52, 44, 1, 13, 21, 48, 24, 29, 5, 37, 34, 51, 7, 36, 23]",geometric,8,0.99,0.001,7.590441669884806,8,4096
51,1632,7.0,1974,5.369016500000001,"[12, 46, 32, 53, 2, 31, 47, 20, 14, 16, 10, 35, 9, 16, 3, 55, 8, 38, 19, 33, 28, 11, 27, 42, 2, 50, 43, 18, 22, 14, 25, 41, 6, 26, 6, 39, 45, 4, 54, 0, 49, 52, 44, 1, 13, 21, 48, 24, 29, 5, 37, 34, 51, 7, 36, 23]",geometric,8,0.99,0.001,7.57975686022116,8,4096
52,1664,7.0,2006,5.511885400000001,"[12, 46, 32, 53, 2, 31, 47, 20, 14, 16, 10, 35, 9, 16, 3, 55, 8, 38, 19, 33, 28, 11, 27, 42, 2, 50, 43, 18, 22, 14, 25, 41, 6, 26, 6, 39, 45, 4, 54, 0, 49, 52, 44, 1, 13, 21, 48, 24, 29, 5, 37, 34, 51, 7, 36, 23]",geometric,8,0.99,0.001,7.568881045749587,8,4096
53,1696,7.0,2040,5.649278300000001,"[12, 46, 32, 53, 2, 31, 47, 20, 14, 16, 10, 35, 9, 16, 3, 55, 8, 38, 19, 33, 28, 11, 27, 42, 2, 50, 43, 18, 22, 14, 3, 41, 6, 26, 29, 39, 45, 4, 54, 0, 49, 52, 44, 1, 13, 21, 48, 24, 29, 5, 37, 34, 51, 7, 36, 23]",geometric,8,0.99,0.001,7.558436808394755,8,4096
54,1728,7.0,2073,5.7893218,"[12, 46, 32, 53, 2, 31, 47, 20, 14, 16, 10, 35, 9, 16, 3, 55, 8, 38, 19, 33, 28, 11, 27, 42, 2, 50, 43, 18, 22, 14, 3, 41, 6, 26, 29, 39, 45, 4, 54, 0, 49, 52, 44, 1, 13, 21, 48, 24, 34, 5, 37, 34, 51, 7, 36, 23]",geometric,8,0.99,0.001,7.547805911106486,8,4096
55,1760,7.0,2109,5.9304243,"[12, 46, 32, 53, 2, 31, 47, 20, 14, 16, 25, 35, 9, 16, 48, 55, 8, 38, 19, 33, 28, 11, 27, 42, 44, 50, 43, 18, 22, 14, 3, 41, 6, 26, 29, 39, 45, 4, 54, 0, 49, 52, 44, 1, 13, 21, 48, 24, 34, 5, 37, 34, 51, 7, 36, 23]",geometric,8,0.99,0.001,7.537109745923462,8,4096
56,1792,7.0,2142,6.046240599999999,"[12, 46, 32, 53, 2, 31, 47, 20, 14, 16, 25, 35, 9, 16, 48, 55, 8, 38, 19, 33, 28, 11, 27, 42, 44, 50, 43, 18, 22, 14, 3, 41, 6, 26, 29, 39, 45, 4, 54, 0, 49, 52, 8, 1, 13, 21, 48, 24, 34, 5, 37, 34, 51, 7, 36, 23]",geometric,8,0.99,0.001,7.5283417090628,8,4096
57,1824,7.0,2174,6.181405099999999,"[12, 46, 32, 53, 2, 31, 47, 20, 14, 16, 25, 35, 9, 16, 48, 55, 8, 38, 19, 33, 28, 11, 27, 42, 44, 50, 43, 18, 22, 14, 3, 41, 6, 26, 29, 39, 45, 4, 54, 0, 49, 52, 8, 1, 13, 21, 48, 24, 34, 5, 37, 34, 51, 7, 36, 23]",geometric,8,0.99,0.001,7.51812178684495,8,4096
58,1856,7.0,2208,6.3181434,"[12, 46, 32, 53, 2, 31, 47, 20, 14, 16, 25, 35, 9, 16, 48, 55, 8, 38, 19, 33, 28, 11, 27, 42, 44, 50, 43, 18, 22, 14, 3, 41, 6, 26, 29, 39, 45, 4, 54, 0, 49, 52, 8, 1, 13, 21, 48, 24, 34, 5, 37, 22, 51, 7, 36, 23]",geometric,8,0.99,0.001,7.507796985035738,8,4096
59,1888,7.0,2240,6.455020600000001,"[12, 46, 32, 53, 2, 31, 47, 20, 14, 16, 25, 35, 9, 16, 48, 55, 8, 38, 19, 33, 28, 11, 27, 42, 44, 50, 43, 18, 22, 14, 3, 41, 6, 26, 29, 39, 45, 4, 54, 0, 49, 52, 8, 1, 13, 21, 48, 24, 34, 5, 37, 22, 51, 7, 36, 23]",geometric,8,0.99,0.001,7.497475896082615,8,4096
60,1920,7.0,2275,6.5977955999999995,"[12, 46, 32, 53, 2, 31, 47, 20, 14, 5, 25, 35, 9, 16, 48, 55, 8, 38, 19, 33, 28, 11, 27, 42, 44, 50, 43, 18, 22, 14, 3, 41, 6, 26, 29, 39, 45, 4, 54, 0, 49, 52, 21, 1, 13, 21, 48, 24, 34, 5, 37, 22, 51, 7, 36, 23]",geometric,8,0.99,0.001,7.486725207874053,8,4096
61,1952,7.0,2308,6.7268571,"[12, 46, 32, 53, 2, 31, 47, 20, 14, 5, 25, 35, 9, 16, 48, 55, 8, 38, 19, 33, 28, 11, 27, 42, 44, 50, 43, 18, 22, 14, 3, 41, 6, 26, 29, 39, 45, 4, 54, 0, 49, 52, 21, 1, 13, 21, 40, 24, 34, 5, 37, 22, 51, 7, 36, 23]",geometric,8,0.99,0.001,7.477020386580816,8,4096
62,1984,7.0,2341,6.8415651,"[12, 46, 32, 53, 2, 31, 47, 20, 14, 5, 25, 35, 9, 16, 48, 55, 8, 38, 19, 33, 28, 11, 27, 42, 44, 50, 43, 18, 22, 14, 3, 41, 6, 26, 29, 39, 45, 4, 54, 0, 24, 52, 21, 1, 13, 21, 40, 24, 34, 5, 37, 22, 51, 7, 36, 23]",geometric,8,0.99,0.001,7.468405441121218,8,4096
63,2016,7.0,2376,6.958910400000001,"[12, 46, 32, 53, 2, 31, 47, 20, 30, 5, 25, 35, 9, 16, 48, 55, 8, 38, 19, 33, 28, 11, 27, 42, 44, 50, 43, 18, 22, 14, 3, 41, 6, 26, 29, 39, 45, 4, 54, 0, 24, 52, 19, 1, 13, 21, 40, 24, 34, 28, 37, 22, 51, 7, 36, 23]",geometric,8,0.99,0.001,7.459602696722405,8,4096
64,2048,6.0,2414,7.084012400000001,"[12, 46, 32, 53, 2, 31, 47, 20, 30, 5, 25, 35, 9, 16, 48, 55, 8, 38, 19, 33, 28, 10, 27, 42, 44, 50, 43, 18, 22, 14, 3, 41, 6, 26, 29, 39, 45, 4, 54, 0, 24, 52, 12, 1, 13, 21, 11, 24, 34, 28, 37, 51, 51, 7, 36, 23]",geometric,8,0.99,0.001,7.450229504346069,8,4096
65,2080,6.0,2447,7.210735,"[12, 46, 32, 53, 2, 31, 47, 20, 30, 5, 25, 35, 9, 16, 48, 55, 8, 38, 19, 33, 28, 10, 27, 42, 44, 50, 43, 18, 22, 14, 3, 41, 6, 26, 29, 39, 45, 4, 54, 0, 24, 52, 12, 1, 13, 21, 11, 11, 34, 28, 37, 51, 51, 7, 36, 23]",geometric,8,0.99,0.001,7.440746896934477,8,4096
66,2112,6.0,2480,7.353607200000001,"[12, 46, 32, 53, 2, 31, 47, 20, 30, 5, 25, 35, 9, 16, 48, 55, 8, 38, 19, 33, 28, 10, 27, 42, 44, 50, 43, 18, 22, 14, 3, 41, 6, 26, 29, 39, 45, 4, 54, 0, 24, 52, 12, 1, 13, 21, 11, 11, 34, 28, 37, 51, 27, 7, 36, 23]",geometric,8,0.99,0.001,7.430070294488455,8,4096
67,2144,5.0,2514,7.4940923999999995,"[12, 46, 32, 53, 2, 31, 47, 20, 30, 5, 25, 35, 9, 16, 48, 55, 8, 38, 19, 33, 28, 10, 27, 42, 44, 50, 43, 18, 22, 14, 3, 41, 6, 26, 29, 39, 45, 4, 54, 0, 24, 52, 12, 1, 13, 21, 49, 11, 34, 28, 37, 51, 27, 7, 36, 23]",geometric,8,0.99,0.001,7.419587006602163,8,4096
68,2176,5.0,2548,7.613565600000001,"[2, 46, 32, 53, 2, 31, 47, 20, 30, 5, 25, 35, 9, 16, 48, 55, 8, 38, 19, 33, 28, 10, 27, 42, 44, 50, 43, 18, 22, 14, 3, 41, 6, 40, 29, 39, 45, 4, 54, 0, 24, 52, 12, 1, 13, 21, 49, 11, 34, 28, 37, 51, 27, 7, 36, 23]",geometric,8,0.99,0.001,7.410683315378518,8,4096
69,2208,5.0,2580,7.750386500000001,"[2, 46, 32, 53, 2, 31, 47, 20, 30, 5, 25, 35, 9, 16, 48, 55, 8, 38, 19, 33, 28, 10, 27, 42, 44, 50, 43, 18, 22, 14, 3, 41, 6, 40, 29, 39, 45, 4, 54, 0, 24, 52, 12, 1, 13, 21, 49, 11, 34, 28, 37, 51, 27, 7, 36, 23]",geometric,8,0.99,0.001,7.400499917597549,8,4096
70,2240,5.0,2612,7.8906212,"[2, 46, 32, 53, 2, 31, 47, 20, 30, 5, 25, 35, 9, 16, 48, 55, 8, 38, 19, 33, 28, 10, 27, 42, 44, 50, 43, 18, 22, 14, 3, 41, 6, 40, 29, 39, 45, 4, 54, 0, 24, 52, 12, 1, 13, 21, 49, 11, 34, 28, 37, 51, 27, 7, 36, 23]",geometric,8,0.99,0.001,7.3900769566605815,8,4096
71,2272,5.0,2647,8.0504539,"[2, 46, 32, 53, 47, 31, 47, 20, 1, 5, 25, 35, 9, 16, 48, 55, 8, 38, 19, 33, 10, 10, 27, 42, 44, 50, 43, 18, 22, 14, 3, 41, 6, 40, 29, 39, 45, 4, 54, 0, 24, 52, 12, 1, 13, 21, 49, 11, 34, 28, 37, 51, 27, 7, 36, 23]",geometric,8,0.99,0.001,7.3782152713210944,8,4096
72,2304,5.0,2680,8.205587,"[2, 46, 32, 53, 47, 31, 47, 20, 1, 5, 25, 35, 9, 16, 48, 55, 8, 38, 19, 33, 10, 10, 27, 42, 44, 50, 43, 18, 22, 14, 3, 41, 6, 40, 29, 39, 45, 4, 54, 0, 24, 52, 12, 1, 13, 21, 49, 11, 34, 28, 37, 51, 9, 7, 36, 23]",geometric,8,0.99,0.001,7.366720565810645,8,4096
73,2336,5.0,2713,8.360990900000001,"[2, 46, 32, 53, 47, 31, 47, 20, 1, 5, 25, 35, 10, 16, 48, 55, 8, 38, 19, 33, 10, 10, 27, 42, 44, 50, 43, 18, 22, 14, 3, 41, 6, 40, 29, 39, 45, 4, 54, 0, 24, 52, 12, 1, 13, 21, 49, 11, 34, 28, 37, 51, 9, 7, 36, 23]",geometric,8,0.99,0.001,7.355223749956638,8,4096
74,2368,5.0,2746,8.4965831,"[2, 46, 32, 53, 47, 31, 47, 20, 1, 5, 25, 17, 10, 16, 48, 55, 8, 38, 19, 33, 10, 10, 27, 42, 44, 50, 43, 18, 22, 14, 3, 41, 6, 40, 29, 39, 45, 4, 54, 0, 24, 52, 12, 1, 13, 21, 49, 11, 34, 28, 37, 51, 9, 7, 36, 23]",geometric,8,0.99,0.001,7.345207266277686,8,4096
75,2400,5.0,2779,8.6124395,"[2, 46, 32, 53, 47, 31, 47, 20, 1, 5, 25, 17, 10, 16, 48, 55, 8, 38, 19, 33, 10, 10, 27, 42, 44, 50, 43, 18, 22, 14, 3, 41, 6, 40, 29, 39, 45, 4, 54, 0, 24, 52, 12, 15, 13, 21, 49, 11, 34, 28, 37, 51, 9, 7, 36, 23]",geometric,8,0.99,0.001,7.336659515743037,8,4096
76,2432,5.0,2811,8.7724416,"[2, 46, 32, 53, 47, 31, 47, 20, 1, 5, 25, 17, 10, 16, 48, 55, 8, 38, 19, 33, 10, 10, 27, 42, 44, 50, 43, 18, 22, 14, 3, 41, 6, 40, 29, 39, 45, 4, 54, 0, 24, 52, 12, 15, 13, 21, 49, 11, 34, 28, 37, 51, 9, 7, 36, 23]",geometric,8,0.99,0.001,7.3248710990179955,8,4096
77,2464,5.0,2844,8.937864300000001,"[2, 46, 32, 53, 47, 31, 47, 20, 1, 5, 25, 17, 10, 16, 48, 55, 8, 38, 19, 33, 28, 10, 27, 42, 44, 50, 43, 18, 22, 14, 3, 41, 6, 40, 29, 39, 45, 4, 54, 0, 24, 52, 12, 15, 13, 21, 49, 11, 34, 28, 37, 51, 9, 7, 36, 23]",geometric,8,0.99,0.001,7.3127032251976205,8,4096
78,2496,4.0,2879,9.0745606,"[2, 46, 32, 53, 47, 31, 47, 20, 1, 5, 25, 17, 11, 16, 48, 55, 8, 38, 19, 33, 28, 10, 27, 42, 44, 50, 43, 18, 22, 14, 3, 41, 6, 40, 29, 39, 45, 4, 54, 0, 24, 52, 12, 15, 13, 21, 49, 44, 34, 28, 37, 51, 9, 30, 36, 23]",geometric,8,0.99,0.001,7.302663611768458,8,4096
79,2528,4.0,2912,9.2387472,"[2, 46, 32, 53, 40, 31, 47, 20, 1, 5, 25, 17, 11, 16, 48, 55, 8, 38, 19, 33, 28, 10, 27, 42, 44, 50, 43, 18, 22, 14, 3, 41, 6, 40, 29, 39, 45, 4, 54, 0, 24, 52, 12, 15, 13, 21, 49, 44, 34, 28, 37, 51, 9, 30, 36, 23]",geometric,8,0.99,0.001,7.290623200867771,8,4096
80,2560,4.0,2944,9.43723,"[2, 46, 32, 53, 40, 31, 47, 20, 1, 5, 25, 17, 11, 16, 48, 55, 8, 38, 19, 33, 28, 10, 27, 42, 44, 50, 43, 18, 22, 14, 3, 41, 6, 40, 29, 39, 45, 4, 54, 0, 24, 52, 12, 15, 13, 21, 49, 44, 34, 28, 37, 51, 9, 30, 36, 23]",geometric,8,0.99,0.001,7.276094224789881,8,4096
81,2592,4.0,2977,9.6335427,"[2, 46, 32, 53, 40, 31, 47, 35, 1, 5, 25, 17, 11, 16, 48, 55, 8, 38, 19, 33, 28, 10, 27, 42, 44, 50, 43, 18, 22, 14, 3, 41, 6, 40, 29, 39, 45, 4, 54, 0, 24, 52, 12, 15, 13, 21, 49, 44, 34, 28, 37, 51, 9, 30, 36, 23]",geometric,8,0.99,0.001,7.261752581292962,8,4096
82,2624,4.0,3009,9.8239166,"[2, 46, 32, 53, 40, 31, 47, 35, 1, 5, 25, 17, 11, 16, 48, 55, 8, 38, 19, 33, 28, 10, 27, 42, 44, 50, 43, 18, 22, 14, 3, 41, 6, 40, 29, 39, 45, 4, 54, 0, 24, 52, 12, 15, 13, 21, 49, 44, 34, 28, 37, 51, 9, 30, 36, 23]",geometric,8,0.99,0.001,7.24787179642511,8,4096
83,2656,4.0,3041,10.0162595,"[2, 46, 32, 53, 40, 31, 47, 35, 1, 5, 25, 17, 11, 16, 48, 55, 8, 38, 19, 33, 28, 10, 27, 42, 44, 50, 43, 18, 22, 14, 3, 41, 6, 40, 29, 39, 45, 4, 54, 0, 24, 52, 12, 15, 13, 21, 49, 44, 34, 28, 37, 51, 9, 30, 36, 23]",geometric,8,0.99,0.001,7.233874391210175,8,4096
84,2688,4.0,3074,10.1989604,"[2, 46, 32, 53, 17, 31, 47, 35, 1, 5, 25, 17, 11, 16, 48, 55, 8, 38, 19, 33, 28, 10, 27, 42, 44, 50, 43, 18, 22, 14, 3, 41, 6, 40, 29, 39, 45, 4, 54, 0, 24, 52, 12, 15, 13, 21, 49, 44, 34, 28, 37, 51, 9, 30, 36, 23]",geometric,8,0.99,0.001,7.220603699535185,8,4096
85,2720,4.0,3106,10.3955597,"[2, 46, 32, 53, 17, 31, 47, 35, 1, 5, 25, 17, 11, 16, 48, 55, 8, 38, 19, 33, 28, 10, 27, 42, 44, 50, 43, 18, 22, 14, 3, 41, 6, 40, 29, 39, 45, 4, 54, 0, 24, 52, 12, 15, 13, 21, 49, 44, 34, 28, 37, 51, 9, 30, 36, 23]",geometric,8,0.99,0.001,7.2063506739936845,8,4096
86,2752,4.0,3139,10.5522899,"[2, 46, 32, 53, 17, 31, 47, 35, 1, 5, 25, 17, 11, 16, 48, 55, 8, 38, 19, 33, 28, 10, 27, 42, 44, 50, 43, 18, 22, 14, 3, 41, 6, 40, 29, 39, 45, 4, 54, 0, 24, 52, 12, 15, 13, 21, 0, 44, 34, 28, 37, 51, 9, 30, 36, 23]",geometric,8,0.99,0.001,7.195008229803951,8,4096
87,2784,4.0,3171,10.6938783,"[2, 46, 32, 53, 17, 31, 47, 35, 1, 5, 25, 17, 11, 16, 48, 55, 8, 38, 19, 33, 28, 10, 27, 42, 44, 50, 43, 18, 22, 14, 3, 41, 6, 40, 29, 39, 45, 4, 54, 0, 24, 52, 12, 15, 13, 21, 0, 44, 34, 28, 37, 51, 9, 30, 36, 23]",geometric,8,0.99,0.001,7.1847769354909365,8,4096
88,2816,4.0,3204,10.8315143,"[2, 46, 32, 53, 17, 31, 47, 35, 1, 5, 25, 17, 11, 16, 48, 55, 8, 38, 19, 33, 28, 10, 27, 42, 44, 50, 43, 18, 22, 14, 3, 41, 6, 40, 29, 39, 45, 4, 54, 0, 24, 52, 12, 15, 13, 21, 0, 44, 34, 2, 37, 51, 9, 30, 36, 23]",geometric,8,0.99,0.001,7.174845190405662,8,4096
89,2848,4.0,3236,10.975026,"[2, 46, 32, 53, 17, 31, 47, 35, 1, 5, 25, 17, 11, 16, 48, 55, 8, 38, 19, 33, 28, 10, 27, 42, 44, 50, 43, 18, 22, 14, 3, 41, 6, 40, 29, 39, 45, 4, 54, 0, 24, 52, 12, 15, 13, 21, 0, 44, 34, 2, 37, 51, 9, 30, 36, 23]",geometric,8,0.99,0.001,7.164504078066119,8,4096
90,2880,4.0,3268,11.1569569,"[2, 46, 32, 53, 17, 31, 47, 35, 1, 5, 25, 17, 11, 16, 48, 55, 8, 38, 19, 33, 28, 10, 27, 42, 44, 50, 43, 18, 22, 14, 3, 41, 6, 40, 29, 39, 45, 4, 54, 0, 24, 52, 12, 15, 13, 21, 0, 44, 34, 2, 37, 51, 9, 30, 36, 23]",geometric,8,0.99,0.001,7.151415990528358,8,4096
91,2912,4.0,3287,11.2697427,"[2, 46, 32, 53, 17, 31, 47, 35, 1, 5, 25, 17, 11, 16, 48, 55, 8, 38, 19, 33, 28, 10, 27, 42, 44, 50, 43, 18, 22, 14, 3, 41, 6, 40, 29, 39, 45, 4, 54, 0, 24, 52, 12, 15, 13, 21, 0, 44, 34, 2, 37, 51, 9, 30, 36, 23]",geometric,8,0.99,0.001,7.14331420169012,8,4096
92,2944,4.0,3287,11.2697427,"[2, 46, 32, 53, 17, 31, 47, 35, 1, 5, 25, 17, 11, 16, 48, 55, 8, 38, 19, 33, 28, 10, 27, 42, 44, 50, 43, 18, 22, 14, 3, 41, 6, 40, 29, 39, 45, 4, 54, 0, 24, 52, 12, 15, 13, 21, 0, 44, 34, 2, 37, 51, 9, 30, 36, 23]",geometric,8,0.99,0.001,7.14331420169012,8,4096
93,2976,4.0,3287,11.2697427,"[2, 46, 32, 53, 17, 31, 47, 35, 1, 5, 25, 17, 11, 16, 48, 55, 8, 38, 19, 33, 28, 10, 27, 42, 44, 50, 43, 18, 22, 14, 3, 41, 6, 40, 29, 39, 45, 4, 54, 0, 24, 52, 12, 15, 13, 21, 0, 44, 34, 2, 37, 51, 9, 30, 36, 23]",geometric,8,0.99,0.001,7.14331420169012,8,4096
94,3008,4.0,3287,11.2697427,"[2, 46, 32, 53, 17, 31, 47, 35, 1, 5, 25, 17, 11, 16, 48, 55, 8, 38, 19, 33, 28, 10, 27, 42, 44, 50, 43, 18, 22, 14, 3, 41, 6, 40, 29, 39, 45, 4, 54, 0, 24, 52, 12, 15, 13, 21, 0, 44, 34, 2, 37, 51, 9, 30, 36, 23]",geometric,8,0.99,0.001,7.14331420169012,8,4096
95,3040,4.0,3287,11.2697427,"[2, 46, 32, 53, 17, 31, 47, 35, 1, 5, 25, 17, 11, 16, 48, 55, 8, 38, 19, 33, 28, 10, 27, 42, 44, 50, 43, 18, 22, 14, 3, 41, 6, 40, 29, 39, 45, 4, 54, 0, 24, 52, 12, 15, 13, 21, 0, 44, 34, 2, 37, 51, 9, 30, 36, 23]",geometric,8,0.99,0.001,7.14331420169012,8,4096
96,3072,4.0,3287,11.2697427,"[2, 46, 32, 53, 17, 31, 47, 35, 1, 5, 25, 17, 11, 16, 48, 55, 8, 38, 19, 33, 28, 10, 27, 42, 44, 50, 43, 18, 22, 14, 3, 41, 6, 40, 29, 39, 45, 4, 54, 0, 24, 52, 12, 15, 13, 21, 0, 44, 34, 2, 37, 51, 9, 30, 36, 23]",geometric,8,0.99,0.001,7.14331420169012,8,4096
97,3104,4.0,3287,11.2697427,"[2, 46, 32, 53, 17, 31, 47, 35, 1, 5, 25, 17, 11, 16, 48, 55, 8, 38, 19, 33, 28, 10, 27, 42, 44, 50, 43, 18, 22, 14, 3, 41, 6, 40, 29, 39, 45, 4, 54, 0, 24, 52, 12, 15, 13, 21, 0, 44, 34, 2, 37, 51, 9, 30, 36, 23]",geometric,8,0.99,0.001,7.14331420169012,8,4096
98,3136,4.0,3287,11.2697427,"[2, 46, 32, 53, 17, 31, 47, 35, 1, 5, 25, 17, 11, 16, 48, 55, 8, 38, 19, 33, 28, 10, 27, 42, 44, 50, 43, 18, 22, 14, 3, 41, 6, 40, 29, 39, 45, 4, 54, 0, 24, 52, 12, 15, 13, 21, 0, 44, 34, 2, 37, 51, 9, 30, 36, 23]",geometric,8,0.99,0.001,7.14331420169012,8,4096
99,3168,4.0,3287,11.2697427,"[2, 46, 32, 53, 17, 31, 47, 35, 1, 5, 25, 17, 11, 16, 48, 55, 8, 38, 19, 33, 28, 10, 27, 42, 44, 50, 43, 18, 22, 14, 3, 41, 6, 40, 29, 39, 45, 4, 54, 0, 24, 52, 12, 15, 13, 21, 0, 44, 34, 2, 37, 51, 9, 30, 36, 23]",geometric,8,0.99,0.001,7.14331420169012,8,4096
100,3200,4.0,3287,11.2697427,"[2, 46, 32, 53, 17, 31, 47, 35, 1, 5, 25, 17, 11, 16, 48, 55, 8, 38, 19, 33, 28, 10, 27, 42, 44, 50, 43, 18, 22, 14, 3, 41, 6, 40, 29, 39, 45, 4, 54, 0, 24, 52, 12, 15, 13, 21, 0, 44, 34, 2, 37, 51, 9, 30, 36, 23]",geometric,8,0.99,0.001,7.14331420169012,8,4096
101,3232,4.0,3287,11.2697427,"[2, 46, 32, 53, 17, 31, 47, 35, 1, 5, 25, 17, 11, 16, 48, 55, 8, 38, 19, 33, 28, 10, 27, 42, 44, 50, 43, 18, 22, 14, 3, 41, 6, 40, 29, 39, 45, 4, 54, 0, 24, 52, 12, 15, 13, 21, 0, 44, 34, 2, 37, 51, 9, 30, 36, 23]",geometric,8,0.99,0.001,7.14331420169012,8,4096
102,3264,4.0,3287,11.2697427,"[2, 46, 32, 53, 17, 31, 47, 35, 1, 5, 25, 17, 11, 16, 48, 55, 8, 38, 19, 33, 28, 10, 27, 42, 44, 50, 43, 18, 22, 14, 3, 41, 6, 40, 29, 39, 45, 4, 54, 0, 24, 52, 12, 15, 13, 21, 0, 44, 34, 2, 37, 51, 9, 30, 36, 23]",geometric,8,0.99,0.001,7.14331420169012,8,4096
103,3296,4.0,3287,11.2697427,"[2, 46, 32, 53, 17, 31, 47, 35, 1, 5, 25, 17, 11, 16, 48, 55, 8, 38, 19, 33, 28, 10, 27, 42, 44, 50, 43, 18, 22, 14, 3, 41, 6, 40, 29, 39, 45, 4, 54, 0, 24, 52, 12, 15, 13, 21, 0, 44, 34, 2, 37, 51, 9, 30, 36, 23]",geometric,8,0.99,0.001,7.14331420169012,8,4096
104,3328,4.0,3287,11.2697427,"[2, 46, 32, 53, 17, 31, 47, 35, 1, 5, 25, 17, 11, 16, 48, 55, 8, 38, 19, 33, 28, 10, 27, 42, 44, 50, 43, 18, 22, 14, 3, 41, 6, 40, 29, 39, 45, 4, 54, 0, 24, 52, 12, 15, 13, 21, 0, 44, 34, 2, 37, 51, 9, 30, 36, 23]",geometric,8,0.99,0.001,7.14331420169012,8,4096
105,3360,4.0,3287,11.2697427,"[2, 46, 32, 53, 17, 31, 47, 35, 1, 5, 25, 17, 11, 16, 48, 55, 8, 38, 19, 33, 28, 10, 27, 42, 44, 50, 43, 18, 22, 14, 3, 41, 6, 40, 29, 39, 45, 4, 54, 0, 24, 52, 12, 15, 13, 21, 0, 44, 34, 2, 37, 51, 9, 30, 36, 23]",geometric,8,0.99,0.001,7.14331420169012,8,4096
106,3392,4.0,3287,11.2697427,"[2, 46, 32, 53, 17, 31, 47, 35, 1, 5, 25, 17, 11, 16, 48, 55, 8, 38, 19, 33, 28, 10, 27, 42, 44, 50, 43, 18, 22, 14, 3, 41, 6, 40, 29, 39, 45, 4, 54, 0, 24, 52, 12, 15, 13, 21, 0, 44, 34, 2, 37, 51, 9, 30, 36, 23]",geometric,8,0.99,0.001,7.14331420169012,8,4096
107,3424,4.0,3287,11.2697427,"[2, 46, 32, 53, 17, 31, 47, 35, 1, 5, 25, 17, 11, 16, 48, 55, 8, 38, 19, 33, 28, 10, 27, 42, 44, 50, 43, 18, 22, 14, 3, 41, 6, 40, 29, 39, 45, 4, 54, 0, 24, 52, 12, 15, 13, 21, 0, 44, 34, 2, 37, 51, 9, 30, 36, 23]",geometric,8,0.99,0.001,7.14331420169012,8,4096
108,3456,4.0,3287,11.2697427,"[2, 46, 32, 53, 17, 31, 47, 35, 1, 5, 25, 17, 11, 16, 48, 55, 8, 38, 19, 33, 28, 10, 27, 42, 44, 50, 43, 18, 22, 14, 3, 41, 6, 40, 29, 39, 45, 4, 54, 0, 24, 52, 12, 15, 13, 21, 0, 44, 34, 2, 37, 51, 9, 30, 36, 23]",geometric,8,0.99,0.001,7.14331420169012,8,4096
109,3488,4.0,3287,11.2697427,"[2, 46, 32, 53, 17, 31, 47, 35, 1, 5, 25, 17, 11, 16, 48, 55, 8, 38, 19, 33, 28, 10, 27, 42, 44, 50, 43, 18, 22, 14, 3, 41, 6, 40, 29, 39, 45, 4, 54, 0, 24, 52, 12, 15, 13, 21, 0, 44, 34, 2, 37, 51, 9, 30, 36, 23]",geometric,8,0.99,0.001,7.14331420169012,8,4096
110,3520,4.0,3287,11.2697427,"[2, 46, 32, 53, 17, 31, 47, 35, 1, 5, 25, 17, 11, 16, 48, 55, 8, 38, 19, 33, 28, 10, 27, 42, 44, 50, 43, 18, 22, 14, 3, 41, 6, 40, 29, 39, 45, 4, 54, 0, 24, 52, 12, 15, 13, 21, 0, 44, 34, 2, 37, 51, 9, 30, 36, 23]",geometric,8,0.99,0.001,7.14331420169012,8,4096
111,3552,4.0,3287,11.2697427,"[2, 46, 32, 53, 17, 31, 47, 35, 1, 5, 25, 17, 11, 16, 48, 55, 8, 38, 19, 33, 28, 10, 27, 42, 44, 50, 43, 18, 22, 14, 3, 41, 6, 40, 29, 39, 45, 4, 54, 0, 24, 52, 12, 15, 13, 21, 0, 44, 34, 2, 37, 51, 9, 30, 36, 23]",geometric,8,0.99,0.001,7.14331420169012,8,4096
112,3584,4.0,3287,11.2697427,"[2, 46, 32, 53, 17, 31, 47, 35, 1, 5, 25, 17, 11, 16, 48, 55, 8, 38, 19, 33, 28, 10, 27, 42, 44, 50, 43, 18, 22, 14, 3, 41, 6, 40, 29, 39, 45, 4, 54, 0, 24, 52, 12, 15, 13, 21, 0, 44, 34, 2, 37, 51, 9, 30, 36, 23]",geometric,8,0.99,0.001,7.14331420169012,8,4096
113,3616,4.0,3287,11.2697427,"[2, 46, 32, 53, 17, 31, 47, 35, 1, 5, 25, 17, 11, 16, 48, 55, 8, 38, 19, 33, 28, 10, 27, 42, 44, 50, 43, 18, 22, 14, 3, 41, 6, 40, 29, 39, 45, 4, 54, 0, 24, 52, 12, 15, 13, 21, 0, 44, 34, 2, 37, 51, 9, 30, 36, 23]",geometric,8,0.99,0.001,7.14331420169012,8,4096
114,3648,4.0,3287,11.2697427,"[2, 46, 32, 53, 17, 31, 47, 35, 1, 5, 25, 17, 11, 16, 48, 55, 8, 38, 19, 33, 28, 10, 27, 42, 44, 50, 43, 18, 22, 14, 3, 41, 6, 40, 29, 39, 45, 4, 54, 0, 24, 52, 12, 15, 13, 21, 0, 44, 34, 2, 37, 51, 9, 30, 36, 23]",geometric,8,0.99,0.001,7.14331420169012,8,4096
115,3680,4.0,3287,11.2697427,"[2, 46, 32, 53, 17, 31, 47, 35, 1, 5, 25, 17, 11, 16, 48, 55, 8, 38, 19, 33, 28, 10, 27, 42, 44, 50, 43, 18, 22, 14, 3, 41, 6, 40, 29, 39, 45, 4, 54, 0, 24, 52, 12, 15, 13, 21, 0, 44, 34, 2, 37, 51, 9, 30, 36, 23]",geometric,8,0.99,0.001,7.14331420169012,8,4096
116,3712,4.0,3287,11.2697427,"[2, 46, 32, 53, 17, 31, 47, 35, 1, 5, 25, 17, 11, 16, 48, 55, 8, 38, 19, 33, 28, 10, 27, 42, 44, 50, 43, 18, 22, 14, 3, 41, 6, 40, 29, 39, 45, 4, 54, 0, 24, 52, 12, 15, 13, 21, 0, 44, 34, 2, 37, 51, 9, 30, 36, 23]",geometric,8,0.99,0.001,7.14331420169012,8,4096
117,3744,4.0,3287,11.2697427,"[2, 46, 32, 53, 17, 31, 47, 35, 1, 5, 25, 17, 11, 16, 48, 55, 8, 38, 19, 33, 28, 10, 27, 42, 44, 50, 43, 18, 22, 14, 3, 41, 6, 40, 29, 39, 45, 4, 54, 0, 24, 52, 12, 15, 13, 21, 0, 44, 34, 2, 37, 51, 9, 30, 36, 23]",geometric,8,0.99,0.001,7.14331420169012,8,4096
118,3776,4.0,3287,11.2697427,"[2, 46, 32, 53, 17, 31, 47, 35, 1, 5, 25, 17, 11, 16, 48, 55, 8, 38, 19, 33, 28, 10, 27, 42, 44, 50, 43, 18, 22, 14, 3, 41, 6, 40, 29, 39, 45, 4, 54, 0, 24, 52, 12, 15, 13, 21, 0, 44, 34, 2, 37, 51, 9, 30, 36, 23]",geometric,8,0.99,0.001,7.14331420169012,8,4096
119,3808,4.0,3287,11.2697427,"[2, 46, 32, 53, 17, 31, 47, 35, 1, 5, 25, 17, 11, 16, 48, 55, 8, 38, 19, 33, 28, 10, 27, 42, 44, 50, 43, 18, 22, 14, 3, 41, 6, 40, 29, 39, 45, 4, 54, 0, 24, 52, 12, 15, 13, 21, 0, 44, 34, 2, 37, 51, 9, 30, 36, 23]",geometric,8,0.99,0.001,7.14331420169012,8,4096
120,3840,4.0,3287,11.2697427,"[2, 46, 32, 53, 17, 31, 47, 35, 1, 5, 25, 17, 11, 16, 48, 55, 8, 38, 19, 33, 28, 10, 27, 42, 44, 50, 43, 18, 22, 14, 3, 41, 6, 40, 29, 39, 45, 4, 54, 0, 24, 52, 12, 15, 13, 21, 0, 44, 34, 2, 37, 51, 9, 30, 36, 23]",geometric,8,0.99,0.001,7.14331420169012,8,4096
121,3872,4.0,3287,11.2697427,"[2, 46, 32, 53, 17, 31, 47, 35, 1, 5, 25, 17, 11, 16, 48, 55, 8, 38, 19, 33, 28, 10, 27, 42, 44, 50, 43, 18, 22, 14, 3, 41, 6, 40, 29, 39, 45, 4, 54, 0, 24, 52, 12, 15, 13, 21, 0, 44, 34, 2, 37, 51, 9, 30, 36, 23]",geometric,8,0.99,0.001,7.14331420169012,8,4096
122,3904,4.0,3287,11.2697427,"[2, 46, 32, 53, 17, 31, 47, 35, 1, 5, 25, 17, 11, 16, 48, 55, 8, 38, 19, 33, 28, 10, 27, 42, 44, 50, 43, 18, 22, 14, 3, 41, 6, 40, 29, 39, 45, 4, 54, 0, 24, 52, 12, 15, 13, 21, 0, 44, 34, 2, 37, 51, 9, 30, 36, 23]",geometric,8,0.99,0.001,7.14331420169012,8,4096
123,3936,4.0,3287,11.2697427,"[2, 46, 32, 53, 17, 31, 47, 35, 1, 5, 25, 17, 11, 16, 48, 55, 8, 38, 19, 33, 28, 10, 27, 42, 44, 50, 43, 18, 22, 14, 3, 41, 6, 40, 29, 39, 45, 4, 54, 0, 24, 52, 12, 15, 13, 21, 0, 44, 34, 2, 37, 51, 9, 30, 36, 23]",geometric,8,0.99,0.001,7.14331420169012,8,4096
124,3968,4.0,3287,11.2697427,"[2, 46, 32, 53, 17, 31, 47, 35, 1, 5, 25, 17, 11, 16, 48, 55, 8, 38, 19, 33, 28, 10, 27, 42, 44, 50, 43, 18, 22, 14, 3, 41, 6, 40, 29, 39, 45, 4, 54, 0, 24, 52, 12, 15, 13, 21, 0, 44, 34, 2, 37, 51, 9, 30, 36, 23]",geometric,8,0.99,0.001,7.14331420169012,8,4096
125,4000,4.0,3287,11.2697427,"[2, 46, 32, 53, 17, 31, 47, 35, 1, 5, 25, 17, 11, 16, 48, 55, 8, 38, 19, 33, 28, 10, 27, 42, 44, 50, 43, 18, 22, 14, 3, 41, 6, 40, 29, 39, 45, 4, 54, 0, 24, 52, 12, 15, 13, 21, 0, 44, 34, 2, 37, 51, 9, 30, 36, 23]",geometric,8,0.99,0.001,7.14331420169012,8,4096
126,4032,4.0,3287,11.2697427,"[2, 46, 32, 53, 17, 31, 47, 35, 1, 5, 25, 17, 11, 16, 48, 55, 8, 38, 19, 33, 28, 10, 27, 42, 44, 50, 43, 18, 22, 14, 3, 41, 6, 40, 29, 39, 45, 4, 54, 0, 24, 52, 12, 15, 13, 21, 0, 44, 34, 2, 37, 51, 9, 30, 36, 23]",geometric,8,0.99,0.001,7.14331420169012,8,4096
127,4064,4.0,3287,11.2697427,"[2, 46, 32, 53, 17, 31, 47, 35, 1, 5, 25, 17, 11, 16, 48, 55, 8, 38, 19, 33, 28, 10, 27, 42, 44, 50, 43, 18, 22, 14, 3, 41, 6, 40, 29, 39, 45, 4, 54, 0, 24, 52, 12, 15, 13, 21, 0, 44, 34, 2, 37, 51, 9, 30, 36, 23]",geometric,8,0.99,0.001,7.14331420169012,8,4096
