,Iteration,Time,Fitness,FEvals,use_fast_mimic,Population Size,Keep Percent,max_iters,fast_mimic
0,0,0.08452609999999994,37.0,100.0,True,100,0.5,4096,True
1,1,0.5062532,22.0,202.0,True,100,0.5,4096,True
2,2,0.8959868000000002,20.0,304.0,True,100,0.5,4096,True
3,3,1.3663587000000001,17.0,406.0,True,100,0.5,4096,True
4,4,1.8131304,17.0,507.0,True,100,0.5,4096,True
5,5,2.1926671,17.0,608.0,True,100,0.5,4096,True
6,6,2.5813999,17.0,709.0,True,100,0.5,4096,True
7,7,3.0078113,17.0,810.0,True,100,0.5,4096,True
8,8,3.3832122,17.0,911.0,True,100,0.5,4096,True
9,9,3.8152609999999996,17.0,1012.0,True,100,0.5,4096,True
10,10,4.230831,17.0,1113.0,True,100,0.5,4096,True
11,11,4.7554714,17.0,1214.0,True,100,0.5,4096,True
12,12,5.2495151,17.0,1315.0,True,100,0.5,4096,True
13,13,5.7022163,17.0,1416.0,True,100,0.5,4096,True
14,14,6.1890342,17.0,1517.0,True,100,0.5,4096,True
15,15,6.572246399999999,17.0,1618.0,True,100,0.5,4096,True
16,16,7.036025,17.0,1719.0,True,100,0.5,4096,True
17,17,7.4879847999999996,17.0,1820.0,True,100,0.5,4096,True
18,18,7.947726599999999,17.0,1921.0,True,100,0.5,4096,True
19,19,8.399668,17.0,2022.0,True,100,0.5,4096,True
20,20,8.8653108,17.0,2123.0,True,100,0.5,4096,True
21,21,9.3874059,17.0,2224.0,True,100,0.5,4096,True
22,22,9.9531654,17.0,2325.0,True,100,0.5,4096,True
23,23,10.4869734,17.0,2426.0,True,100,0.5,4096,True
24,24,10.949479,17.0,2527.0,True,100,0.5,4096,True
25,25,11.4180897,17.0,2628.0,True,100,0.5,4096,True
26,26,11.8703082,17.0,2729.0,True,100,0.5,4096,True
27,27,12.3428182,17.0,2830.0,True,100,0.5,4096,True
28,28,12.81022,17.0,2931.0,True,100,0.5,4096,True
29,29,13.2578183,17.0,3032.0,True,100,0.5,4096,True
30,30,13.7877372,17.0,3133.0,True,100,0.5,4096,True
31,31,14.3704486,17.0,3234.0,True,100,0.5,4096,True
32,32,14.9250755,17.0,3335.0,True,100,0.5,4096,True
33,33,15.431854800000002,17.0,3436.0,True,100,0.5,4096,True
34,34,16.0058876,17.0,3537.0,True,100,0.5,4096,True
35,35,16.566475699999998,17.0,3638.0,True,100,0.5,4096,True
36,36,17.111263800000003,17.0,3739.0,True,100,0.5,4096,True
37,37,17.630716900000003,17.0,3840.0,True,100,0.5,4096,True
38,38,18.1547708,17.0,3941.0,True,100,0.5,4096,True
39,39,18.697725300000002,17.0,4042.0,True,100,0.5,4096,True
40,40,19.227905800000002,17.0,4143.0,True,100,0.5,4096,True
41,41,19.7346299,17.0,4244.0,True,100,0.5,4096,True
42,42,20.251629800000003,17.0,4345.0,True,100,0.5,4096,True
43,43,20.727811600000003,17.0,4446.0,True,100,0.5,4096,True
44,44,21.1986347,17.0,4547.0,True,100,0.5,4096,True
45,45,21.685338199999997,17.0,4648.0,True,100,0.5,4096,True
46,46,22.148562499999997,17.0,4749.0,True,100,0.5,4096,True
47,47,22.650424800000003,17.0,4850.0,True,100,0.5,4096,True
48,48,23.173187900000002,17.0,4951.0,True,100,0.5,4096,True
49,49,23.624666400000002,17.0,5052.0,True,100,0.5,4096,True
50,50,24.1312742,17.0,5153.0,True,100,0.5,4096,True
51,51,24.690145200000003,17.0,5254.0,True,100,0.5,4096,True
52,52,25.1617836,17.0,5355.0,True,100,0.5,4096,True
53,53,25.6381278,17.0,5456.0,True,100,0.5,4096,True
54,54,26.1708668,17.0,5557.0,True,100,0.5,4096,True
55,55,26.6134475,17.0,5658.0,True,100,0.5,4096,True
56,56,27.1261967,17.0,5759.0,True,100,0.5,4096,True
57,57,27.641933,17.0,5860.0,True,100,0.5,4096,True
58,58,28.116359000000003,17.0,5961.0,True,100,0.5,4096,True
59,59,28.6349005,17.0,6062.0,True,100,0.5,4096,True
60,60,29.185958900000003,17.0,6163.0,True,100,0.5,4096,True
61,61,29.694170999999997,17.0,6264.0,True,100,0.5,4096,True
62,62,30.167348599999997,17.0,6365.0,True,100,0.5,4096,True
63,63,30.643680100000005,17.0,6466.0,True,100,0.5,4096,True
64,64,31.148924800000003,17.0,6567.0,True,100,0.5,4096,True
65,65,31.650476400000002,17.0,6668.0,True,100,0.5,4096,True
66,66,32.1499457,17.0,6769.0,True,100,0.5,4096,True
67,67,32.6334274,17.0,6870.0,True,100,0.5,4096,True
68,68,33.107994500000004,17.0,6971.0,True,100,0.5,4096,True
69,69,33.5877798,17.0,7072.0,True,100,0.5,4096,True
70,70,34.044777100000005,17.0,7173.0,True,100,0.5,4096,True
71,71,34.506224700000004,17.0,7274.0,True,100,0.5,4096,True
72,72,34.980549100000005,17.0,7375.0,True,100,0.5,4096,True
73,73,35.435209300000004,17.0,7476.0,True,100,0.5,4096,True
74,74,35.9286088,17.0,7577.0,True,100,0.5,4096,True
75,75,36.393431,17.0,7678.0,True,100,0.5,4096,True
76,76,36.8393964,17.0,7779.0,True,100,0.5,4096,True
77,77,37.3111004,17.0,7880.0,True,100,0.5,4096,True
78,78,37.7971689,17.0,7981.0,True,100,0.5,4096,True
79,79,38.2857744,17.0,8082.0,True,100,0.5,4096,True
80,80,38.7443624,17.0,8183.0,True,100,0.5,4096,True
81,81,39.2320212,17.0,8284.0,True,100,0.5,4096,True
82,82,39.687989300000005,17.0,8385.0,True,100,0.5,4096,True
83,83,40.1442755,17.0,8486.0,True,100,0.5,4096,True
84,84,40.6738218,17.0,8587.0,True,100,0.5,4096,True
85,85,41.264982700000004,17.0,8688.0,True,100,0.5,4096,True
86,86,41.8423506,17.0,8789.0,True,100,0.5,4096,True
87,87,42.410253600000004,17.0,8890.0,True,100,0.5,4096,True
88,88,42.9399883,17.0,8991.0,True,100,0.5,4096,True
89,89,43.5590739,17.0,9092.0,True,100,0.5,4096,True
90,90,44.1286508,17.0,9193.0,True,100,0.5,4096,True
91,91,44.6181374,17.0,9294.0,True,100,0.5,4096,True
92,92,45.1946187,17.0,9395.0,True,100,0.5,4096,True
93,93,45.7798411,17.0,9496.0,True,100,0.5,4096,True
94,94,46.3750805,17.0,9597.0,True,100,0.5,4096,True
95,95,46.9910426,17.0,9698.0,True,100,0.5,4096,True
96,96,47.5485909,17.0,9799.0,True,100,0.5,4096,True
97,97,48.0312618,17.0,9900.0,True,100,0.5,4096,True
98,98,48.5706026,17.0,10001.0,True,100,0.5,4096,True
99,99,49.1449036,17.0,10102.0,True,100,0.5,4096,True
100,100,49.7065548,17.0,10203.0,True,100,0.5,4096,True
101,101,50.2627037,17.0,10304.0,True,100,0.5,4096,True
102,102,50.8397796,17.0,10405.0,True,100,0.5,4096,True
103,103,51.397029,17.0,10506.0,True,100,0.5,4096,True
