,Iteration,Time,Fitness,FEvals,use_fast_mimic,Population Size,Keep Percent,max_iters,fast_mimic
0,0,0.004955899999999902,478.0,200.0,True,200,0.5,4096,True
1,1,0.08134039999999998,736.0,402.0,True,200,0.5,4096,True
2,2,0.10794389999999998,736.0,603.0,True,200,0.5,4096,True
3,3,0.13451239999999998,736.0,804.0,True,200,0.5,4096,True
4,4,0.1616202,760.0,1006.0,True,200,0.5,4096,True
5,5,0.1877244,779.0,1208.0,True,200,0.5,4096,True
6,6,0.21348809999999996,779.0,1409.0,True,200,0.5,4096,True
7,7,0.2388033999999999,779.0,1610.0,True,200,0.5,4096,True
8,8,0.26411830000000003,779.0,1811.0,True,200,0.5,4096,True
9,9,0.28962679999999996,779.0,2012.0,True,200,0.5,4096,True
10,10,0.3147065,779.0,2213.0,True,200,0.5,4096,True
11,11,0.3393161,779.0,2414.0,True,200,0.5,4096,True
12,12,0.36308189999999985,779.0,2615.0,True,200,0.5,4096,True
13,13,0.3871243,779.0,2816.0,True,200,0.5,4096,True
14,14,0.4148555999999999,779.0,3017.0,True,200,0.5,4096,True
15,15,0.44168380000000007,779.0,3218.0,True,200,0.5,4096,True
16,16,0.47028629999999993,779.0,3419.0,True,200,0.5,4096,True
17,17,0.4989760999999999,779.0,3620.0,True,200,0.5,4096,True
18,18,0.5302279999999999,779.0,3821.0,True,200,0.5,4096,True
19,19,0.5570384999999998,779.0,4022.0,True,200,0.5,4096,True
20,20,0.5851062,779.0,4223.0,True,200,0.5,4096,True
21,21,0.6167057999999999,779.0,4424.0,True,200,0.5,4096,True
22,22,0.6460312000000001,779.0,4625.0,True,200,0.5,4096,True
23,23,0.6740609999999998,779.0,4826.0,True,200,0.5,4096,True
24,24,0.7160713999999999,779.0,5027.0,True,200,0.5,4096,True
25,25,0.7472269999999999,779.0,5228.0,True,200,0.5,4096,True
26,26,0.7873748,779.0,5429.0,True,200,0.5,4096,True
27,27,0.8237623999999999,779.0,5630.0,True,200,0.5,4096,True
28,28,0.8570242999999997,779.0,5831.0,True,200,0.5,4096,True
29,29,0.8898863999999997,779.0,6032.0,True,200,0.5,4096,True
30,30,0.9315599999999999,779.0,6233.0,True,200,0.5,4096,True
31,31,0.9632341,779.0,6434.0,True,200,0.5,4096,True
32,32,0.9936258,779.0,6635.0,True,200,0.5,4096,True
33,33,1.0290624000000002,779.0,6836.0,True,200,0.5,4096,True
34,34,1.0631335999999998,779.0,7037.0,True,200,0.5,4096,True
35,35,1.0918759,779.0,7238.0,True,200,0.5,4096,True
36,36,1.1190798,779.0,7439.0,True,200,0.5,4096,True
37,37,1.1462183999999997,779.0,7640.0,True,200,0.5,4096,True
38,38,1.1802257999999999,779.0,7841.0,True,200,0.5,4096,True
39,39,1.213646,779.0,8042.0,True,200,0.5,4096,True
40,40,1.2414013,779.0,8243.0,True,200,0.5,4096,True
41,41,1.2694639,779.0,8444.0,True,200,0.5,4096,True
42,42,1.2997539,779.0,8645.0,True,200,0.5,4096,True
43,43,1.3285387999999998,779.0,8846.0,True,200,0.5,4096,True
44,44,1.3557548,779.0,9047.0,True,200,0.5,4096,True
45,45,1.3827793999999998,779.0,9248.0,True,200,0.5,4096,True
46,46,1.4123575999999998,779.0,9449.0,True,200,0.5,4096,True
47,47,1.4403145000000002,779.0,9650.0,True,200,0.5,4096,True
48,48,1.4677855,779.0,9851.0,True,200,0.5,4096,True
49,49,1.4947286999999998,779.0,10052.0,True,200,0.5,4096,True
50,50,1.5215689999999997,779.0,10253.0,True,200,0.5,4096,True
51,51,1.5484276,779.0,10454.0,True,200,0.5,4096,True
52,52,1.5752154,779.0,10655.0,True,200,0.5,4096,True
53,53,1.6029810999999998,779.0,10856.0,True,200,0.5,4096,True
54,54,1.6325880999999998,779.0,11057.0,True,200,0.5,4096,True
55,55,1.6639278,779.0,11258.0,True,200,0.5,4096,True
56,56,1.6951143999999998,779.0,11459.0,True,200,0.5,4096,True
57,57,1.7222479,779.0,11660.0,True,200,0.5,4096,True
58,58,1.7493031999999997,779.0,11861.0,True,200,0.5,4096,True
59,59,1.7766705,779.0,12062.0,True,200,0.5,4096,True
60,60,1.8094455999999999,779.0,12263.0,True,200,0.5,4096,True
61,61,1.8559905,779.0,12464.0,True,200,0.5,4096,True
62,62,1.8847585999999998,779.0,12665.0,True,200,0.5,4096,True
63,63,1.9123767,779.0,12866.0,True,200,0.5,4096,True
64,64,1.9451357,779.0,13067.0,True,200,0.5,4096,True
65,65,1.9828548,779.0,13268.0,True,200,0.5,4096,True
66,66,2.0216979999999998,779.0,13469.0,True,200,0.5,4096,True
67,67,2.0686169000000003,779.0,13670.0,True,200,0.5,4096,True
68,68,2.1020807999999995,779.0,13871.0,True,200,0.5,4096,True
69,69,2.1291336000000003,779.0,14072.0,True,200,0.5,4096,True
70,70,2.1564185,779.0,14273.0,True,200,0.5,4096,True
71,71,2.1833897,779.0,14474.0,True,200,0.5,4096,True
72,72,2.2109192,779.0,14675.0,True,200,0.5,4096,True
73,73,2.2446713999999997,779.0,14876.0,True,200,0.5,4096,True
74,74,2.2714974999999997,779.0,15077.0,True,200,0.5,4096,True
75,75,2.2981521999999996,779.0,15278.0,True,200,0.5,4096,True
76,76,2.3251489999999997,779.0,15479.0,True,200,0.5,4096,True
77,77,2.3534220999999995,779.0,15680.0,True,200,0.5,4096,True
78,78,2.3811308,779.0,15881.0,True,200,0.5,4096,True
79,79,2.4116405,779.0,16082.0,True,200,0.5,4096,True
80,80,2.4384912000000005,779.0,16283.0,True,200,0.5,4096,True
81,81,2.4678767000000006,779.0,16484.0,True,200,0.5,4096,True
82,82,2.4999137000000005,779.0,16685.0,True,200,0.5,4096,True
83,83,2.5269734,779.0,16886.0,True,200,0.5,4096,True
84,84,2.5571297,779.0,17087.0,True,200,0.5,4096,True
85,85,2.5859873,779.0,17288.0,True,200,0.5,4096,True
86,86,2.6141309,779.0,17489.0,True,200,0.5,4096,True
87,87,2.6428907000000006,779.0,17690.0,True,200,0.5,4096,True
88,88,2.6717119,779.0,17891.0,True,200,0.5,4096,True
89,89,2.7045516000000003,779.0,18092.0,True,200,0.5,4096,True
90,90,2.7357202000000003,779.0,18293.0,True,200,0.5,4096,True
91,91,2.7692706000000005,779.0,18494.0,True,200,0.5,4096,True
92,92,2.7984124,779.0,18695.0,True,200,0.5,4096,True
93,93,2.8297944,779.0,18896.0,True,200,0.5,4096,True
94,94,2.8605798,779.0,19097.0,True,200,0.5,4096,True
95,95,2.8919576000000005,779.0,19298.0,True,200,0.5,4096,True
96,96,2.93422,779.0,19499.0,True,200,0.5,4096,True
97,97,2.9858031,779.0,19700.0,True,200,0.5,4096,True
98,98,3.0189924,779.0,19901.0,True,200,0.5,4096,True
99,99,3.0608149000000004,779.0,20102.0,True,200,0.5,4096,True
100,100,3.1006853000000003,779.0,20303.0,True,200,0.5,4096,True
101,101,3.1374197000000006,779.0,20504.0,True,200,0.5,4096,True
102,102,3.1807022,779.0,20705.0,True,200,0.5,4096,True
103,103,3.2156265,779.0,20906.0,True,200,0.5,4096,True
104,104,3.2433486,779.0,21107.0,True,200,0.5,4096,True
105,105,3.2733381,779.0,21308.0,True,200,0.5,4096,True
