1.412233724636928933e+01,2.300000000000000000e+01
1.412233724636928933e+01,3.400000000000000000e+01
1.412233724636928933e+01,4.500000000000000000e+01
1.403651031637403790e+01,5.700000000000000000e+01
1.346820656800799654e+01,6.900000000000000000e+01
1.346820656800799654e+01,8.000000000000000000e+01
1.346820656800799654e+01,9.100000000000000000e+01
1.346820656800799654e+01,1.020000000000000000e+02
1.346820656800799654e+01,1.130000000000000000e+02
1.346820656800799654e+01,1.240000000000000000e+02
1.338241960547199483e+01,1.360000000000000000e+02
1.329661030087802942e+01,1.480000000000000000e+02
1.329661030087802942e+01,1.590000000000000000e+02
1.301779894895971346e+01,1.710000000000000000e+02
1.298563293405267238e+01,1.830000000000000000e+02
1.247088807204345251e+01,1.950000000000000000e+02
1.247088807204345251e+01,2.060000000000000000e+02
1.222425390606115769e+01,2.180000000000000000e+02
1.205269437920430065e+01,2.300000000000000000e+02
1.205269437920430065e+01,2.410000000000000000e+02
1.205269437920430065e+01,2.520000000000000000e+02
1.205269437920430065e+01,2.630000000000000000e+02
1.197763513127435075e+01,2.750000000000000000e+02
1.197763140759802347e+01,2.870000000000000000e+02
1.191329739182323522e+01,2.990000000000000000e+02
1.191329739182323522e+01,3.100000000000000000e+02
1.191329590235270608e+01,3.220000000000000000e+02
1.191329590235270608e+01,3.330000000000000000e+02
1.188112541903407404e+01,3.450000000000000000e+02
1.185967917489025147e+01,3.570000000000000000e+02
1.185967917489025147e+01,3.680000000000000000e+02
1.185967917489025147e+01,3.790000000000000000e+02
1.185967917489025147e+01,3.900000000000000000e+02
1.185967917489025147e+01,4.010000000000000000e+02
1.185967917489025147e+01,4.120000000000000000e+02
1.185967917489025147e+01,4.230000000000000000e+02
1.180606641934921264e+01,4.350000000000000000e+02
1.180606641934921264e+01,4.460000000000000000e+02
1.180606641934921264e+01,4.570000000000000000e+02
1.180606641934921264e+01,4.680000000000000000e+02
1.180606641934921264e+01,4.790000000000000000e+02
1.180606641934921264e+01,4.900000000000000000e+02
1.180606641934921264e+01,5.010000000000000000e+02
1.180606641934921264e+01,5.120000000000000000e+02
1.180606641934921264e+01,5.230000000000000000e+02
1.180606641934921264e+01,5.340000000000000000e+02
1.180606641934921264e+01,5.450000000000000000e+02
1.180606641934921264e+01,5.560000000000000000e+02
1.180606641934921264e+01,5.670000000000000000e+02
1.180606641934921264e+01,5.780000000000000000e+02
1.180606641934921264e+01,5.890000000000000000e+02
1.180606641934921264e+01,6.000000000000000000e+02
1.180606641934921264e+01,6.110000000000000000e+02
1.180606641934921264e+01,6.220000000000000000e+02
1.180606641934921264e+01,6.330000000000000000e+02
1.180606641934921264e+01,6.440000000000000000e+02
1.180606641934921264e+01,6.550000000000000000e+02
1.180606641934921264e+01,6.660000000000000000e+02
1.180606641934921264e+01,6.770000000000000000e+02
1.180606641934921264e+01,6.880000000000000000e+02
1.180606641934921264e+01,6.990000000000000000e+02
1.180606641934921264e+01,7.100000000000000000e+02
1.180606641934921264e+01,7.210000000000000000e+02
1.180606641934921264e+01,7.320000000000000000e+02
1.180606641934921264e+01,7.430000000000000000e+02
1.180606641934921264e+01,7.540000000000000000e+02
1.180606641934921264e+01,7.650000000000000000e+02
1.180606641934921264e+01,7.760000000000000000e+02
1.180606641934921264e+01,7.870000000000000000e+02
1.180606641934921264e+01,7.980000000000000000e+02
1.180606641934921264e+01,8.090000000000000000e+02
1.180606641934921264e+01,8.200000000000000000e+02
1.180606641934921264e+01,8.310000000000000000e+02
1.180606641934921264e+01,8.420000000000000000e+02
1.180606641934921264e+01,8.530000000000000000e+02
1.180606641934921264e+01,8.640000000000000000e+02
1.180606641934921264e+01,8.750000000000000000e+02
1.180606641934921264e+01,8.860000000000000000e+02
1.180606641934921264e+01,8.970000000000000000e+02
1.180606641934921264e+01,9.080000000000000000e+02
1.180606641934921264e+01,9.190000000000000000e+02
1.180606641934921264e+01,9.300000000000000000e+02
1.180606641934921264e+01,9.410000000000000000e+02
1.180606641934921264e+01,9.520000000000000000e+02
1.180606641934921264e+01,9.630000000000000000e+02
1.180606641934921264e+01,9.740000000000000000e+02
1.180606641934921264e+01,9.850000000000000000e+02
