1.223494612161954720e+01,8.030000000000000000e+02
1.217061905670724009e+01,1.205000000000000000e+03
1.207413019705439972e+01,1.607000000000000000e+03
1.207413019705439972e+01,2.008000000000000000e+03
1.207413019705439972e+01,2.409000000000000000e+03
1.198833454594030457e+01,2.811000000000000000e+03
1.198833454594030457e+01,3.212000000000000000e+03
1.198833454594030457e+01,3.613000000000000000e+03
1.198833454594030457e+01,4.014000000000000000e+03
1.198833454594030457e+01,4.415000000000000000e+03
1.198833454594030457e+01,4.816000000000000000e+03
1.182748312232750010e+01,5.218000000000000000e+03
1.182748312232750010e+01,5.619000000000000000e+03
1.182748312232750010e+01,6.020000000000000000e+03
1.182748312232750010e+01,6.421000000000000000e+03
1.182748312232750010e+01,6.822000000000000000e+03
1.182748312232750010e+01,7.223000000000000000e+03
1.182748312232750010e+01,7.624000000000000000e+03
1.182748312232750010e+01,8.025000000000000000e+03
1.182748312232750010e+01,8.426000000000000000e+03
1.182747890216099584e+01,8.828000000000000000e+03
1.182747890216099584e+01,9.229000000000000000e+03
1.179532381003785169e+01,9.631000000000000000e+03
1.179532381003785169e+01,1.003200000000000000e+04
1.179532381003785169e+01,1.043300000000000000e+04
1.179532381003785169e+01,1.083400000000000000e+04
1.179532381003785169e+01,1.123500000000000000e+04
1.179532381003785169e+01,1.163600000000000000e+04
1.174171527466331888e+01,1.203800000000000000e+04
1.174171527466331888e+01,1.243900000000000000e+04
1.174171527466331888e+01,1.284000000000000000e+04
1.174171527466331888e+01,1.324100000000000000e+04
1.173100270300767001e+01,1.364300000000000000e+04
1.170954131591344805e+01,1.404500000000000000e+04
1.166665279954722045e+01,1.444700000000000000e+04
1.166665279954722045e+01,1.484800000000000000e+04
1.166665279954722045e+01,1.524900000000000000e+04
1.165592285073537226e+01,1.565100000000000000e+04
1.162375832529886743e+01,1.605300000000000000e+04
1.162375832529886743e+01,1.645400000000000000e+04
1.162375832529886743e+01,1.685500000000000000e+04
1.162375832529886743e+01,1.725600000000000000e+04
1.162375832529886743e+01,1.765700000000000000e+04
1.162375832529886743e+01,1.805800000000000000e+04
1.162375832529886743e+01,1.845900000000000000e+04
1.162375832529886743e+01,1.886000000000000000e+04
1.162375832529886743e+01,1.926100000000000000e+04
1.162375832529886743e+01,1.966200000000000000e+04
1.157014035661097218e+01,2.006400000000000000e+04
1.157014035661097218e+01,2.046500000000000000e+04
1.152725481918580641e+01,2.086700000000000000e+04
1.152725481918580641e+01,2.126800000000000000e+04
1.152725481918580641e+01,2.166900000000000000e+04
1.146291161834274597e+01,2.207100000000000000e+04
1.146291161834274597e+01,2.247200000000000000e+04
1.145218862039337893e+01,2.287400000000000000e+04
1.145218862039337893e+01,2.327500000000000000e+04
1.145218862039337893e+01,2.367600000000000000e+04
1.145218862039337893e+01,2.407700000000000000e+04
1.145218862039337893e+01,2.447800000000000000e+04
1.145218862039337893e+01,2.487900000000000000e+04
1.143074758939641455e+01,2.528100000000000000e+04
1.143074758939641455e+01,2.568200000000000000e+04
1.143074758939641455e+01,2.608300000000000000e+04
1.143074758939641455e+01,2.648400000000000000e+04
1.143074758939641455e+01,2.688500000000000000e+04
1.143074758939641455e+01,2.728600000000000000e+04
1.139857611309742857e+01,2.768800000000000000e+04
1.137713334438484480e+01,2.809000000000000000e+04
1.137713334438484480e+01,2.849100000000000000e+04
1.137713334438484480e+01,2.889200000000000000e+04
1.137713334438484480e+01,2.929300000000000000e+04
1.137713334438484480e+01,2.969400000000000000e+04
1.130207186224910032e+01,3.009600000000000000e+04
1.130207186224910032e+01,3.049700000000000000e+04
1.130207186224910032e+01,3.089800000000000000e+04
1.130207186224910032e+01,3.129900000000000000e+04
1.130207186224910032e+01,3.170000000000000000e+04
1.130207186224910032e+01,3.210100000000000000e+04
1.130207186224910032e+01,3.250200000000000000e+04
1.129134712658411210e+01,3.290400000000000000e+04
1.129134712658411210e+01,3.330500000000000000e+04
1.129134712658411210e+01,3.370600000000000000e+04
1.129134712658411210e+01,3.410700000000000000e+04
1.129134712658411210e+01,3.450800000000000000e+04
1.129134712658411210e+01,3.490900000000000000e+04
1.129134712658411210e+01,3.531000000000000000e+04
1.129134712658411210e+01,3.571100000000000000e+04
1.129134712658411210e+01,3.611200000000000000e+04
1.129134712658411210e+01,3.651300000000000000e+04
1.129134712658411210e+01,3.691400000000000000e+04
1.126990137893047006e+01,3.731600000000000000e+04
1.126990137893047006e+01,3.771700000000000000e+04
1.125917664326548007e+01,3.811900000000000000e+04
1.125917664326548007e+01,3.852000000000000000e+04
1.124845712074735538e+01,3.892200000000000000e+04
1.124845712074735538e+01,3.932300000000000000e+04
1.122700665643702855e+01,3.972500000000000000e+04
1.122700665643702855e+01,4.012600000000000000e+04
1.122700665643702855e+01,4.052700000000000000e+04
1.122700665643702855e+01,4.092800000000000000e+04
1.122700665643702855e+01,4.132900000000000000e+04
1.122700665643702855e+01,4.173000000000000000e+04
1.122700665643702855e+01,4.213100000000000000e+04
1.122700665643702855e+01,4.253200000000000000e+04
1.121629011285996214e+01,4.293400000000000000e+04
1.119483915205946012e+01,4.333600000000000000e+04
1.118412186374713002e+01,4.373800000000000000e+04
1.118412186374713002e+01,4.413900000000000000e+04
1.118412186374713002e+01,4.454000000000000000e+04
1.117339539036652241e+01,4.494200000000000000e+04
1.117339539036652241e+01,4.534300000000000000e+04
1.117339539036652241e+01,4.574400000000000000e+04
1.117339539036652241e+01,4.614500000000000000e+04
1.117339539036652241e+01,4.654600000000000000e+04
1.117339539036652241e+01,4.694700000000000000e+04
1.116267115119171294e+01,4.734900000000000000e+04
1.116267115119171294e+01,4.775000000000000000e+04
1.115195038744814049e+01,4.815200000000000000e+04
1.114122763774386193e+01,4.855400000000000000e+04
1.114122763774386193e+01,4.895500000000000000e+04
1.114122763774386193e+01,4.935600000000000000e+04
1.114122763774386193e+01,4.975700000000000000e+04
1.105544390239401764e+01,5.015900000000000000e+04
1.105544390239401764e+01,5.056000000000000000e+04
1.105544390239401764e+01,5.096100000000000000e+04
1.105544390239401764e+01,5.136200000000000000e+04
1.105544390239401764e+01,5.176300000000000000e+04
1.105544390239401764e+01,5.216400000000000000e+04
1.105544390239401764e+01,5.256500000000000000e+04
1.105544390239401764e+01,5.296600000000000000e+04
1.105544390239401764e+01,5.336700000000000000e+04
1.105544390239401764e+01,5.376800000000000000e+04
1.105544390239401764e+01,5.416900000000000000e+04
1.105544390239401764e+01,5.457000000000000000e+04
1.105544390239401764e+01,5.497100000000000000e+04
1.105544390239401764e+01,5.537200000000000000e+04
1.105544390239401764e+01,5.577300000000000000e+04
1.105544390239401764e+01,5.617400000000000000e+04
1.105544390239401764e+01,5.657500000000000000e+04
1.105544390239401764e+01,5.697600000000000000e+04
1.105544390239401764e+01,5.737700000000000000e+04
1.105544390239401764e+01,5.777800000000000000e+04
1.104472065619956211e+01,5.818000000000000000e+04
1.104472065619956211e+01,5.858100000000000000e+04
1.103399517579931022e+01,5.898300000000000000e+04
1.103399517579931022e+01,5.938400000000000000e+04
1.103399517579931022e+01,5.978500000000000000e+04
1.103399517579931022e+01,6.018600000000000000e+04
1.103399517579931022e+01,6.058700000000000000e+04
1.103399517579931022e+01,6.098800000000000000e+04
1.103399517579931022e+01,6.138900000000000000e+04
1.103399517579931022e+01,6.179000000000000000e+04
1.103399517579931022e+01,6.219100000000000000e+04
1.103399517579931022e+01,6.259200000000000000e+04
1.101255290357690342e+01,6.299400000000000000e+04
1.101255290357690342e+01,6.339500000000000000e+04
1.101254694569477799e+01,6.379700000000000000e+04
1.101254694569477799e+01,6.419800000000000000e+04
1.100182568546103212e+01,6.460000000000000000e+04
1.100182568546103212e+01,6.500100000000000000e+04
1.100182568546103212e+01,6.540200000000000000e+04
1.100182568546103212e+01,6.580300000000000000e+04
1.100182568546103212e+01,6.620400000000000000e+04
1.100182568546103212e+01,6.660500000000000000e+04
1.100182568546103212e+01,6.700600000000000000e+04
1.099109623313936446e+01,6.740800000000000000e+04
1.099109623313936446e+01,6.780900000000000000e+04
1.099109623313936446e+01,6.821000000000000000e+04
1.099109623313936446e+01,6.861100000000000000e+04
1.099109623313936446e+01,6.901200000000000000e+04
1.099109623313936446e+01,6.941300000000000000e+04
1.099109623313936446e+01,6.981400000000000000e+04
1.099109623313936446e+01,7.021500000000000000e+04
1.099109623313936446e+01,7.061600000000000000e+04
1.099109623313936446e+01,7.101700000000000000e+04
1.099109623313936446e+01,7.141800000000000000e+04
1.099109623313936446e+01,7.181900000000000000e+04
1.099109623313936446e+01,7.222000000000000000e+04
1.099109623313936446e+01,7.262100000000000000e+04
1.099109623313936446e+01,7.302200000000000000e+04
1.099109623313936446e+01,7.342300000000000000e+04
1.099109623313936446e+01,7.382400000000000000e+04
1.099109623313936446e+01,7.422500000000000000e+04
1.099109623313936446e+01,7.462600000000000000e+04
1.099109623313936446e+01,7.502700000000000000e+04
1.099109623313936446e+01,7.542800000000000000e+04
1.099109623313936446e+01,7.582900000000000000e+04
1.099109623313936446e+01,7.623000000000000000e+04
1.099109623313936446e+01,7.663100000000000000e+04
1.099109623313936446e+01,7.703200000000000000e+04
1.099109623313936446e+01,7.743300000000000000e+04
1.099109623313936446e+01,7.783400000000000000e+04
1.099109623313936446e+01,7.823500000000000000e+04
1.099109623313936446e+01,7.863600000000000000e+04
1.099109623313936446e+01,7.903700000000000000e+04
1.099109623313936446e+01,7.943800000000000000e+04
1.099109623313936446e+01,7.983900000000000000e+04
1.099109623313936446e+01,8.024000000000000000e+04
1.099109623313936446e+01,8.064100000000000000e+04
1.099109623313936446e+01,8.104200000000000000e+04
1.099109623313936446e+01,8.144300000000000000e+04
1.095893667260462578e+01,8.184500000000000000e+04
1.095893667260462578e+01,8.224600000000000000e+04
1.095893667260462578e+01,8.264700000000000000e+04
1.095893667260462578e+01,8.304800000000000000e+04
1.095893667260462578e+01,8.344900000000000000e+04
1.094820821326331028e+01,8.385100000000000000e+04
1.094820821326331028e+01,8.425200000000000000e+04
1.094820821326331028e+01,8.465300000000000000e+04
1.094820821326331028e+01,8.505400000000000000e+04
1.094820821326331028e+01,8.545500000000000000e+04
1.094820821326331028e+01,8.585600000000000000e+04
1.094820821326331028e+01,8.625700000000000000e+04
1.094820821326331028e+01,8.665800000000000000e+04
1.094820821326331028e+01,8.705900000000000000e+04
1.094820821326331028e+01,8.746000000000000000e+04
1.094820821326331028e+01,8.786100000000000000e+04
1.094820821326331028e+01,8.826200000000000000e+04
1.093748546355903173e+01,8.866400000000000000e+04
1.093748546355903173e+01,8.906500000000000000e+04
1.093748546355903173e+01,8.946600000000000000e+04
1.093748546355903173e+01,8.986700000000000000e+04
1.093748546355903173e+01,9.026800000000000000e+04
1.093748546355903173e+01,9.066900000000000000e+04
1.093748546355903173e+01,9.107000000000000000e+04
1.093748546355903173e+01,9.147100000000000000e+04
1.093748546355903173e+01,9.187200000000000000e+04
1.093748546355903173e+01,9.227300000000000000e+04
1.093748546355903173e+01,9.267400000000000000e+04
1.093748546355903173e+01,9.307500000000000000e+04
1.093748546355903173e+01,9.347600000000000000e+04
1.093748546355903173e+01,9.387700000000000000e+04
1.092676718226634769e+01,9.427900000000000000e+04
1.092676718226634769e+01,9.468000000000000000e+04
1.092676718226634769e+01,9.508100000000000000e+04
1.092676718226634769e+01,9.548200000000000000e+04
1.092676718226634769e+01,9.588300000000000000e+04
1.092676718226634769e+01,9.628400000000000000e+04
1.092676718226634769e+01,9.668500000000000000e+04
1.092676718226634769e+01,9.708600000000000000e+04
1.092676718226634769e+01,9.748700000000000000e+04
1.092676718226634769e+01,9.788800000000000000e+04
1.092676718226634769e+01,9.828900000000000000e+04
1.092676718226634769e+01,9.869000000000000000e+04
1.092676718226634769e+01,9.909100000000000000e+04
1.092676718226634769e+01,9.949200000000000000e+04
1.092676718226634769e+01,9.989300000000000000e+04
1.092676718226634769e+01,1.002940000000000000e+05
1.092676718226634769e+01,1.006950000000000000e+05
1.092676718226634769e+01,1.010960000000000000e+05
1.092676718226634769e+01,1.014970000000000000e+05
1.092676718226634769e+01,1.018980000000000000e+05
1.092676718226634769e+01,1.022990000000000000e+05
1.092676718226634769e+01,1.027000000000000000e+05
1.092676718226634769e+01,1.031010000000000000e+05
1.092676718226634769e+01,1.035020000000000000e+05
1.092676718226634769e+01,1.039030000000000000e+05
1.092676718226634769e+01,1.043040000000000000e+05
1.092676718226634769e+01,1.047050000000000000e+05
1.092676718226634769e+01,1.051060000000000000e+05
1.092676718226634769e+01,1.055070000000000000e+05
1.092676718226634769e+01,1.059080000000000000e+05
1.092676718226634769e+01,1.063090000000000000e+05
1.092676718226634769e+01,1.067100000000000000e+05
1.092676718226634769e+01,1.071110000000000000e+05
1.092676718226634769e+01,1.075120000000000000e+05
1.092676718226634769e+01,1.079130000000000000e+05
1.092676718226634769e+01,1.083140000000000000e+05
1.092676718226634769e+01,1.087150000000000000e+05
1.092676718226634769e+01,1.091160000000000000e+05
1.092676718226634769e+01,1.095170000000000000e+05
1.092676718226634769e+01,1.099180000000000000e+05
1.092676718226634769e+01,1.103190000000000000e+05
1.092676718226634769e+01,1.107200000000000000e+05
1.092676718226634769e+01,1.111210000000000000e+05
1.092676718226634769e+01,1.115220000000000000e+05
1.092676718226634769e+01,1.119230000000000000e+05
1.092676718226634769e+01,1.123240000000000000e+05
1.092676718226634769e+01,1.127250000000000000e+05
1.092676047964895680e+01,1.131270000000000000e+05
1.092676047964895680e+01,1.135280000000000000e+05
1.092676047964895680e+01,1.139290000000000000e+05
1.090533732229837049e+01,1.143310000000000000e+05
1.090533732229837049e+01,1.147320000000000000e+05
1.090533732229837049e+01,1.151330000000000000e+05
1.090533732229837049e+01,1.155340000000000000e+05
1.090531224954442813e+01,1.159360000000000000e+05
1.090531224954442813e+01,1.163370000000000000e+05
1.090531224954442813e+01,1.167380000000000000e+05
1.090531224954442813e+01,1.171390000000000000e+05
1.090531224954442813e+01,1.175400000000000000e+05
1.088390448338933147e+01,1.179420000000000000e+05
1.088390448338933147e+01,1.183430000000000000e+05
1.088390448338933147e+01,1.187440000000000000e+05
1.088390448338933147e+01,1.191450000000000000e+05
1.088390448338933147e+01,1.195460000000000000e+05
1.088390448338933147e+01,1.199470000000000000e+05
1.088390448338933147e+01,1.203480000000000000e+05
1.088390448338933147e+01,1.207490000000000000e+05
1.088390448338933147e+01,1.211500000000000000e+05
1.088390448338933147e+01,1.215510000000000000e+05
1.088390448338933147e+01,1.219520000000000000e+05
1.088390448338933147e+01,1.223530000000000000e+05
1.088390448338933147e+01,1.227540000000000000e+05
1.088390448338933147e+01,1.231550000000000000e+05
1.084100454774903000e+01,1.235570000000000000e+05
1.084100454774903000e+01,1.239580000000000000e+05
1.084100454774903000e+01,1.243590000000000000e+05
1.084100454774903000e+01,1.247600000000000000e+05
1.084100454774903000e+01,1.251610000000000000e+05
1.084100454774903000e+01,1.255620000000000000e+05
1.084100454774903000e+01,1.259630000000000000e+05
1.084100454774903000e+01,1.263640000000000000e+05
1.084098270218123616e+01,1.267660000000000000e+05
1.084098270218123616e+01,1.271670000000000000e+05
1.084098270218123616e+01,1.275680000000000000e+05
1.084098270218123616e+01,1.279690000000000000e+05
1.084098270218123616e+01,1.283700000000000000e+05
1.084098270218123616e+01,1.287710000000000000e+05
1.084098270218123616e+01,1.291720000000000000e+05
1.084098270218123616e+01,1.295730000000000000e+05
1.084098270218123616e+01,1.299740000000000000e+05
1.079809418581501035e+01,1.303760000000000000e+05
1.079809418581501035e+01,1.307770000000000000e+05
1.079809418581501035e+01,1.311780000000000000e+05
1.079809418581501035e+01,1.315790000000000000e+05
1.079809418581501035e+01,1.319800000000000000e+05
1.079809418581501035e+01,1.323810000000000000e+05
1.079809418581501035e+01,1.327820000000000000e+05
1.079809418581501035e+01,1.331830000000000000e+05
1.079809418581501035e+01,1.335840000000000000e+05
1.079809418581501035e+01,1.339850000000000000e+05
1.079809418581501035e+01,1.343860000000000000e+05
1.075522354309515549e+01,1.347880000000000000e+05
1.075522354309515549e+01,1.351890000000000000e+05
1.075522354309515549e+01,1.355900000000000000e+05
1.075522354309515549e+01,1.359910000000000000e+05
1.075522354309515549e+01,1.363920000000000000e+05
1.075522354309515549e+01,1.367930000000000000e+05
1.075522354309515549e+01,1.371940000000000000e+05
1.075522354309515549e+01,1.375950000000000000e+05
1.075522354309515549e+01,1.379960000000000000e+05
1.075522354309515549e+01,1.383970000000000000e+05
1.075522354309515549e+01,1.387980000000000000e+05
1.075522354309515549e+01,1.391990000000000000e+05
1.075522354309515549e+01,1.396000000000000000e+05
1.075522354309515549e+01,1.400010000000000000e+05
1.075522354309515549e+01,1.404020000000000000e+05
1.075522354309515549e+01,1.408030000000000000e+05
1.075522354309515549e+01,1.412040000000000000e+05
1.075522354309515549e+01,1.416050000000000000e+05
1.060510057882366652e+01,1.420070000000000000e+05
1.060510057882366652e+01,1.424080000000000000e+05
1.060510057882366652e+01,1.428090000000000000e+05
1.060510057882366652e+01,1.432100000000000000e+05
1.060510057882366652e+01,1.436110000000000000e+05
1.060510057882366652e+01,1.440120000000000000e+05
1.060510057882366652e+01,1.444130000000000000e+05
1.060510057882366652e+01,1.448140000000000000e+05
1.060510057882366652e+01,1.452150000000000000e+05
1.060510057882366652e+01,1.456160000000000000e+05
1.060510057882366652e+01,1.460170000000000000e+05
1.060510057882366652e+01,1.464180000000000000e+05
1.060510057882366652e+01,1.468190000000000000e+05
1.060510057882366652e+01,1.472200000000000000e+05
1.060510057882366652e+01,1.476210000000000000e+05
1.060510057882366652e+01,1.480220000000000000e+05
1.060510057882366652e+01,1.484230000000000000e+05
1.060510057882366652e+01,1.488240000000000000e+05
1.060510057882366652e+01,1.492250000000000000e+05
1.060510057882366652e+01,1.496260000000000000e+05
1.060510057882366652e+01,1.500270000000000000e+05
1.060510057882366652e+01,1.504280000000000000e+05
1.060510057882366652e+01,1.508290000000000000e+05
1.060510057882366652e+01,1.512300000000000000e+05
1.060510057882366652e+01,1.516310000000000000e+05
1.060510057882366652e+01,1.520320000000000000e+05
1.055147987943979437e+01,1.524340000000000000e+05
1.055147987943979437e+01,1.528350000000000000e+05
1.055147987943979437e+01,1.532360000000000000e+05
1.055147987943979437e+01,1.536370000000000000e+05
1.055147987943979437e+01,1.540380000000000000e+05
1.055147987943979437e+01,1.544390000000000000e+05
1.055147987943979437e+01,1.548400000000000000e+05
1.055147987943979437e+01,1.552410000000000000e+05
1.055147987943979437e+01,1.556420000000000000e+05
1.055147987943979437e+01,1.560430000000000000e+05
1.055147987943979437e+01,1.564440000000000000e+05
1.055147987943979437e+01,1.568450000000000000e+05
1.055147987943979437e+01,1.572460000000000000e+05
1.055147987943979437e+01,1.576470000000000000e+05
1.055147987943979437e+01,1.580480000000000000e+05
1.050858515694635287e+01,1.584500000000000000e+05
1.050858515694635287e+01,1.588510000000000000e+05
1.050858515694635287e+01,1.592520000000000000e+05
1.050858515694635287e+01,1.596530000000000000e+05
1.041210101395019905e+01,1.600550000000000000e+05
1.041210101395019905e+01,1.604560000000000000e+05
1.041210101395019905e+01,1.608570000000000000e+05
1.041210101395019905e+01,1.612580000000000000e+05
1.041210101395019905e+01,1.616590000000000000e+05
1.041210101395019905e+01,1.620600000000000000e+05
1.041210101395019905e+01,1.624610000000000000e+05
1.041210101395019905e+01,1.628620000000000000e+05
1.041210101395019905e+01,1.632630000000000000e+05
1.041210101395019905e+01,1.636640000000000000e+05
1.041210101395019905e+01,1.640650000000000000e+05
1.041210101395019905e+01,1.644660000000000000e+05
1.041210101395019905e+01,1.648670000000000000e+05
1.041210101395019905e+01,1.652680000000000000e+05
1.041210101395019905e+01,1.656690000000000000e+05
1.041210101395019905e+01,1.660700000000000000e+05
1.041210101395019905e+01,1.664710000000000000e+05
1.041210101395019905e+01,1.668720000000000000e+05
1.041210101395019905e+01,1.672730000000000000e+05
1.041210101395019905e+01,1.676740000000000000e+05
1.041210101395019905e+01,1.680750000000000000e+05
1.041210101395019905e+01,1.684760000000000000e+05
1.041210101395019905e+01,1.688770000000000000e+05
1.041210101395019905e+01,1.692780000000000000e+05
1.041210101395019905e+01,1.696790000000000000e+05
1.041210101395019905e+01,1.700800000000000000e+05
1.041210101395019905e+01,1.704810000000000000e+05
1.041210101395019905e+01,1.708820000000000000e+05
1.041210101395019905e+01,1.712830000000000000e+05
1.041210101395019905e+01,1.716840000000000000e+05
1.041210101395019905e+01,1.720850000000000000e+05
1.041210101395019905e+01,1.724860000000000000e+05
1.041210101395019905e+01,1.728870000000000000e+05
1.041210101395019905e+01,1.732880000000000000e+05
1.041210101395019905e+01,1.736890000000000000e+05
1.041210101395019905e+01,1.740900000000000000e+05
1.041210101395019905e+01,1.744910000000000000e+05
1.041210101395019905e+01,1.748920000000000000e+05
1.041210101395019905e+01,1.752930000000000000e+05
1.039064583298318745e+01,1.756950000000000000e+05
1.039064583298318745e+01,1.760960000000000000e+05
1.039064583298318745e+01,1.764970000000000000e+05
1.039064583298318745e+01,1.768980000000000000e+05
1.039064583298318745e+01,1.772990000000000000e+05
1.039064583298318745e+01,1.777000000000000000e+05
1.039064583298318745e+01,1.781010000000000000e+05
1.039064583298318745e+01,1.785020000000000000e+05
1.039064583298318745e+01,1.789030000000000000e+05
1.039064583298318745e+01,1.793040000000000000e+05
1.039064583298318745e+01,1.797050000000000000e+05
1.039064583298318745e+01,1.801060000000000000e+05
1.039064583298318745e+01,1.805070000000000000e+05
1.039064583298318745e+01,1.809080000000000000e+05
1.039064583298318745e+01,1.813090000000000000e+05
1.039064583298318745e+01,1.817100000000000000e+05
1.039064583298318745e+01,1.821110000000000000e+05
1.039064583298318745e+01,1.825120000000000000e+05
1.039064583298318745e+01,1.829130000000000000e+05
1.039064583298318745e+01,1.833140000000000000e+05
1.039064583298318745e+01,1.837150000000000000e+05
1.039064583298318745e+01,1.841160000000000000e+05
1.037992134556328949e+01,1.845180000000000000e+05
1.035847137774313964e+01,1.849200000000000000e+05
1.035847137774313964e+01,1.853210000000000000e+05
1.035847137774313964e+01,1.857220000000000000e+05
1.035847137774313964e+01,1.861230000000000000e+05
1.030485390554541780e+01,1.865250000000000000e+05
1.030485390554541780e+01,1.869260000000000000e+05
1.030485390554541780e+01,1.873270000000000000e+05
1.030485390554541780e+01,1.877280000000000000e+05
1.030485390554541780e+01,1.881290000000000000e+05
1.030485390554541780e+01,1.885300000000000000e+05
1.030485390554541780e+01,1.889310000000000000e+05
1.028342255610690970e+01,1.893330000000000000e+05
1.028342255610690970e+01,1.897340000000000000e+05
1.028342255610690970e+01,1.901350000000000000e+05
1.028342255610690970e+01,1.905360000000000000e+05
1.028342255610690970e+01,1.909370000000000000e+05
1.028342255610690970e+01,1.913380000000000000e+05
1.028342255610690970e+01,1.917390000000000000e+05
1.028342255610690970e+01,1.921400000000000000e+05
1.028342255610690970e+01,1.925410000000000000e+05
1.028342255610690970e+01,1.929420000000000000e+05
1.028342255610690970e+01,1.933430000000000000e+05
1.028342255610690970e+01,1.937440000000000000e+05
1.028342255610690970e+01,1.941450000000000000e+05
1.028342255610690970e+01,1.945460000000000000e+05
1.027269012484417843e+01,1.949480000000000000e+05
1.027269012484417843e+01,1.953490000000000000e+05
1.027269012484417843e+01,1.957500000000000000e+05
1.027269012484417843e+01,1.961510000000000000e+05
1.027269012484417843e+01,1.965520000000000000e+05
1.027269012484417843e+01,1.969530000000000000e+05
1.027269012484417843e+01,1.973540000000000000e+05
1.027269012484417843e+01,1.977550000000000000e+05
1.025125058331774675e+01,1.981570000000000000e+05
1.025124834911195038e+01,1.985590000000000000e+05
1.025124834911195038e+01,1.989600000000000000e+05
1.022980160847795084e+01,1.993620000000000000e+05
1.021907488685225474e+01,1.997640000000000000e+05
1.021907488685225474e+01,2.001650000000000000e+05
1.021907488685225474e+01,2.005660000000000000e+05
1.021907488685225474e+01,2.009670000000000000e+05
1.017618388803514407e+01,2.013690000000000000e+05
1.017618388803514407e+01,2.017700000000000000e+05
1.017618388803514407e+01,2.021710000000000000e+05
1.017618388803514407e+01,2.025720000000000000e+05
1.017618388803514407e+01,2.029730000000000000e+05
1.017618388803514407e+01,2.033740000000000000e+05
1.017618388803514407e+01,2.037750000000000000e+05
1.017618388803514407e+01,2.041760000000000000e+05
1.017618388803514407e+01,2.045770000000000000e+05
1.010112141291904386e+01,2.049790000000000000e+05
1.010112141291904386e+01,2.053800000000000000e+05
1.010112141291904386e+01,2.057810000000000000e+05
1.010112141291904386e+01,2.061820000000000000e+05
1.010112141291904386e+01,2.065830000000000000e+05
1.010112141291904386e+01,2.069840000000000000e+05
1.010112141291904386e+01,2.073850000000000000e+05
1.010112141291904386e+01,2.077860000000000000e+05
1.010112141291904386e+01,2.081870000000000000e+05
1.010112141291904386e+01,2.085880000000000000e+05
1.010112141291904386e+01,2.089890000000000000e+05
1.010112141291904386e+01,2.093900000000000000e+05
1.010112141291904386e+01,2.097910000000000000e+05
1.010112141291904386e+01,2.101920000000000000e+05
1.010112141291904386e+01,2.105930000000000000e+05
1.010112141291904386e+01,2.109940000000000000e+05
1.010112141291904386e+01,2.113950000000000000e+05
1.010112141291904386e+01,2.117960000000000000e+05
1.010112141291904386e+01,2.121970000000000000e+05
1.010112141291904386e+01,2.125980000000000000e+05
1.010112141291904386e+01,2.129990000000000000e+05
1.010112141291904386e+01,2.134000000000000000e+05
1.010112141291904386e+01,2.138010000000000000e+05
1.010112141291904386e+01,2.142020000000000000e+05
1.010112141291904386e+01,2.146030000000000000e+05
1.010112141291904386e+01,2.150040000000000000e+05
1.010112141291904386e+01,2.154050000000000000e+05
1.010112141291904386e+01,2.158060000000000000e+05
1.010112141291904386e+01,2.162070000000000000e+05
1.010112141291904386e+01,2.166080000000000000e+05
1.002606961234175031e+01,2.170100000000000000e+05
1.002606961234175031e+01,2.174110000000000000e+05
1.002606961234175031e+01,2.178120000000000000e+05
1.002606961234175031e+01,2.182130000000000000e+05
1.002606961234175031e+01,2.186140000000000000e+05
1.002606961234175031e+01,2.190150000000000000e+05
1.002606961234175031e+01,2.194160000000000000e+05
1.002606961234175031e+01,2.198170000000000000e+05
1.002606961234175031e+01,2.202180000000000000e+05
1.002606961234175031e+01,2.206190000000000000e+05
1.002606961234175031e+01,2.210200000000000000e+05
1.002606961234175031e+01,2.214210000000000000e+05
1.002606961234175031e+01,2.218220000000000000e+05
1.002606961234175031e+01,2.222230000000000000e+05
1.002606961234175031e+01,2.226240000000000000e+05
1.002606961234175031e+01,2.230250000000000000e+05
1.002606961234175031e+01,2.234260000000000000e+05
1.002606961234175031e+01,2.238270000000000000e+05
1.002606961234175031e+01,2.242280000000000000e+05
1.002606961234175031e+01,2.246290000000000000e+05
1.002606961234175031e+01,2.250300000000000000e+05
1.002606961234175031e+01,2.254310000000000000e+05
1.002606961234175031e+01,2.258320000000000000e+05
1.002606961234175031e+01,2.262330000000000000e+05
1.002606961234175031e+01,2.266340000000000000e+05
1.002606961234175031e+01,2.270350000000000000e+05
1.002606961234175031e+01,2.274360000000000000e+05
1.002606961234175031e+01,2.278370000000000000e+05
1.002606961234175031e+01,2.282380000000000000e+05
1.002606961234175031e+01,2.286390000000000000e+05
1.002606961234175031e+01,2.290400000000000000e+05
1.001534562141202933e+01,2.294420000000000000e+05
1.001534562141202933e+01,2.298430000000000000e+05
1.001534562141202933e+01,2.302440000000000000e+05
1.001534562141202933e+01,2.306450000000000000e+05
1.001534562141202933e+01,2.310460000000000000e+05
1.001534562141202933e+01,2.314470000000000000e+05
1.001534562141202933e+01,2.318480000000000000e+05
1.001534562141202933e+01,2.322490000000000000e+05
1.001534562141202933e+01,2.326500000000000000e+05
1.001534562141202933e+01,2.330510000000000000e+05
1.001534562141202933e+01,2.334520000000000000e+05
1.001534562141202933e+01,2.338530000000000000e+05
1.001534562141202933e+01,2.342540000000000000e+05
1.001534562141202933e+01,2.346550000000000000e+05
1.001534562141202933e+01,2.350560000000000000e+05
1.001534562141202933e+01,2.354570000000000000e+05
9.951003165304236120e+00,2.358590000000000000e+05
9.951003165304236120e+00,2.362600000000000000e+05
9.951003165304236120e+00,2.366610000000000000e+05
9.951003165304236120e+00,2.370620000000000000e+05
9.951003165304236120e+00,2.374630000000000000e+05
9.951003165304236120e+00,2.378640000000000000e+05
9.951003165304236120e+00,2.382650000000000000e+05
9.951003165304236120e+00,2.386660000000000000e+05
9.951003165304236120e+00,2.390670000000000000e+05
9.951003165304236120e+00,2.394680000000000000e+05
9.951003165304236120e+00,2.398690000000000000e+05
9.951003165304236120e+00,2.402700000000000000e+05
9.951003165304236120e+00,2.406710000000000000e+05
9.951003165304236120e+00,2.410720000000000000e+05
9.951003165304236120e+00,2.414730000000000000e+05
9.951003165304236120e+00,2.418740000000000000e+05
9.951003165304236120e+00,2.422750000000000000e+05
9.951003165304236120e+00,2.426760000000000000e+05
9.951003165304236120e+00,2.430770000000000000e+05
9.951003165304236120e+00,2.434780000000000000e+05
9.951003165304236120e+00,2.438790000000000000e+05
9.951003165304236120e+00,2.442800000000000000e+05
9.951003165304236120e+00,2.446810000000000000e+05
9.940277684903982447e+00,2.450830000000000000e+05
9.940277684903982447e+00,2.454840000000000000e+05
9.940277684903982447e+00,2.458850000000000000e+05
9.886668901284361155e+00,2.462870000000000000e+05
9.886668901284361155e+00,2.466880000000000000e+05
9.886668901284361155e+00,2.470890000000000000e+05
9.886668901284361155e+00,2.474900000000000000e+05
9.886668901284361155e+00,2.478910000000000000e+05
9.886668901284361155e+00,2.482920000000000000e+05
9.886668901284361155e+00,2.486930000000000000e+05
9.886668901284361155e+00,2.490940000000000000e+05
9.811605681432997272e+00,2.494960000000000000e+05
9.811605681432997272e+00,2.498970000000000000e+05
9.811605681432997272e+00,2.502980000000000000e+05
9.811605681432997272e+00,2.506990000000000000e+05
9.811605681432997272e+00,2.511000000000000000e+05
9.811605681432997272e+00,2.515010000000000000e+05
9.811605681432997272e+00,2.519020000000000000e+05
9.811605681432997272e+00,2.523030000000000000e+05
9.790154968877581965e+00,2.527050000000000000e+05
9.790154968877581965e+00,2.531060000000000000e+05
9.790154968877581965e+00,2.535070000000000000e+05
9.790154968877581965e+00,2.539080000000000000e+05
9.790154968877581965e+00,2.543090000000000000e+05
9.790154968877581965e+00,2.547100000000000000e+05
9.790154968877581965e+00,2.551110000000000000e+05
9.790154968877581965e+00,2.555120000000000000e+05
9.790154968877581965e+00,2.559130000000000000e+05
9.790154968877581965e+00,2.563140000000000000e+05
9.790154968877581965e+00,2.567150000000000000e+05
9.790154968877581965e+00,2.571160000000000000e+05
9.790154968877581965e+00,2.575170000000000000e+05
9.790154968877581965e+00,2.579180000000000000e+05
9.790154968877581965e+00,2.583190000000000000e+05
9.790154968877581965e+00,2.587200000000000000e+05
9.790154968877581965e+00,2.591210000000000000e+05
9.790154968877581965e+00,2.595220000000000000e+05
9.790154968877581965e+00,2.599230000000000000e+05
9.790154968877581965e+00,2.603240000000000000e+05
9.790154968877581965e+00,2.607250000000000000e+05
9.790154968877581965e+00,2.611260000000000000e+05
9.790154968877581965e+00,2.615270000000000000e+05
9.790154968877581965e+00,2.619280000000000000e+05
9.790154968877581965e+00,2.623290000000000000e+05
9.715098948133784162e+00,2.627310000000000000e+05
9.715098948133784162e+00,2.631320000000000000e+05
9.715098948133784162e+00,2.635330000000000000e+05
9.715098948133784162e+00,2.639340000000000000e+05
9.715098948133784162e+00,2.643350000000000000e+05
9.715098948133784162e+00,2.647360000000000000e+05
9.715098948133784162e+00,2.651370000000000000e+05
9.715098948133784162e+00,2.655380000000000000e+05
9.715098948133784162e+00,2.659390000000000000e+05
9.715098948133784162e+00,2.663400000000000000e+05
9.715098948133784162e+00,2.667410000000000000e+05
9.715098948133784162e+00,2.671420000000000000e+05
9.715098948133784162e+00,2.675430000000000000e+05
9.715098948133784162e+00,2.679440000000000000e+05
9.715098948133784162e+00,2.683450000000000000e+05
9.715098948133784162e+00,2.687460000000000000e+05
9.715098948133784162e+00,2.691470000000000000e+05
9.715098948133784162e+00,2.695480000000000000e+05
9.715098948133784162e+00,2.699490000000000000e+05
9.715098948133784162e+00,2.703500000000000000e+05
9.661474276828496244e+00,2.707520000000000000e+05
9.661474276828496244e+00,2.711530000000000000e+05
9.661474276828496244e+00,2.715540000000000000e+05
9.661474276828496244e+00,2.719550000000000000e+05
9.661474276828496244e+00,2.723560000000000000e+05
9.661474276828496244e+00,2.727570000000000000e+05
9.661474276828496244e+00,2.731580000000000000e+05
9.661474276828496244e+00,2.735590000000000000e+05
9.661474276828496244e+00,2.739600000000000000e+05
9.661474276828496244e+00,2.743610000000000000e+05
9.661474276828496244e+00,2.747620000000000000e+05
9.661474276828496244e+00,2.751630000000000000e+05
9.661474276828496244e+00,2.755640000000000000e+05
9.661474276828496244e+00,2.759650000000000000e+05
9.661474276828496244e+00,2.763660000000000000e+05
9.629304786490218149e+00,2.767680000000000000e+05
9.629304786490218149e+00,2.771690000000000000e+05
9.629304786490218149e+00,2.775700000000000000e+05
9.629304786490218149e+00,2.779710000000000000e+05
9.629304786490218149e+00,2.783720000000000000e+05
9.629304786490218149e+00,2.787730000000000000e+05
9.629304786490218149e+00,2.791740000000000000e+05
9.629304786490218149e+00,2.795750000000000000e+05
9.629304786490218149e+00,2.799760000000000000e+05
9.629304786490218149e+00,2.803770000000000000e+05
9.629304786490218149e+00,2.807780000000000000e+05
9.629304786490218149e+00,2.811790000000000000e+05
9.629304786490218149e+00,2.815800000000000000e+05
9.629304786490218149e+00,2.819810000000000000e+05
9.629304786490218149e+00,2.823820000000000000e+05
9.629304786490218149e+00,2.827830000000000000e+05
9.629304786490218149e+00,2.831840000000000000e+05
9.629304786490218149e+00,2.835850000000000000e+05
9.629304786490218149e+00,2.839860000000000000e+05
9.629304786490218149e+00,2.843870000000000000e+05
9.629304786490218149e+00,2.847880000000000000e+05
9.629304786490218149e+00,2.851890000000000000e+05
9.629304786490218149e+00,2.855900000000000000e+05
9.629304786490218149e+00,2.859910000000000000e+05
9.629304786490218149e+00,2.863920000000000000e+05
9.629304786490218149e+00,2.867930000000000000e+05
9.629304786490218149e+00,2.871940000000000000e+05
9.629304786490218149e+00,2.875950000000000000e+05
9.629304786490218149e+00,2.879960000000000000e+05
9.629304786490218149e+00,2.883970000000000000e+05
9.629304786490218149e+00,2.887980000000000000e+05
9.629304786490218149e+00,2.891990000000000000e+05
9.629304786490218149e+00,2.896000000000000000e+05
9.629304786490218149e+00,2.900010000000000000e+05
9.629304786490218149e+00,2.904020000000000000e+05
9.629304786490218149e+00,2.908030000000000000e+05
9.629304786490218149e+00,2.912040000000000000e+05
9.629304786490218149e+00,2.916050000000000000e+05
9.629304786490218149e+00,2.920060000000000000e+05
9.629304786490218149e+00,2.924070000000000000e+05
9.629304786490218149e+00,2.928080000000000000e+05
9.629304786490218149e+00,2.932090000000000000e+05
9.629304786490218149e+00,2.936100000000000000e+05
9.629304786490218149e+00,2.940110000000000000e+05
9.629304786490218149e+00,2.944120000000000000e+05
9.629304786490218149e+00,2.948130000000000000e+05
9.629304786490218149e+00,2.952140000000000000e+05
9.629304786490218149e+00,2.956150000000000000e+05
9.629304786490218149e+00,2.960160000000000000e+05
9.629304786490218149e+00,2.964170000000000000e+05
9.629304786490218149e+00,2.968180000000000000e+05
