1.699106757317686123e+00,1.498700000000000000e+04
1.699101512071428344e+00,1.498900000000000000e+04
1.699058280042619717e+00,1.499100000000000000e+04
1.699048393960410408e+00,1.499300000000000000e+04
1.699047616109281345e+00,1.499500000000000000e+04
1.699047616109281345e+00,1.499600000000000000e+04
1.699041682534181863e+00,1.499800000000000000e+04
1.699024699704142494e+00,1.500000000000000000e+04
1.699014707786279166e+00,1.500200000000000000e+04
1.699014707786279166e+00,1.500300000000000000e+04
1.699014385189531406e+00,1.500500000000000000e+04
1.699007191944858164e+00,1.500700000000000000e+04
1.699007191944858164e+00,1.500800000000000000e+04
1.698992007918507019e+00,1.501000000000000000e+04
1.698692783903951398e+00,1.501200000000000000e+04
1.698688909425620785e+00,1.501400000000000000e+04
1.698688909425620785e+00,1.501500000000000000e+04
1.698677898151347065e+00,1.501700000000000000e+04
1.698677898151347065e+00,1.501800000000000000e+04
1.698677898151347065e+00,1.501900000000000000e+04
1.698674152856869402e+00,1.502100000000000000e+04
1.698669333947755211e+00,1.502300000000000000e+04
1.698667382979986984e+00,1.502500000000000000e+04
1.698665772887859360e+00,1.502700000000000000e+04
1.698648589517496310e+00,1.502900000000000000e+04
1.698631841033966028e+00,1.503100000000000000e+04
1.698631841033966028e+00,1.503200000000000000e+04
1.698620729110635885e+00,1.503400000000000000e+04
1.698609618894994844e+00,1.503600000000000000e+04
1.698609070600256787e+00,1.503800000000000000e+04
1.698609070600256787e+00,1.503900000000000000e+04
1.698603022343065039e+00,1.504100000000000000e+04
1.698592708950208197e+00,1.504300000000000000e+04
1.698592708950208197e+00,1.504400000000000000e+04
1.698592708950208197e+00,1.504500000000000000e+04
1.698591551425032264e+00,1.504700000000000000e+04
1.698581238225667533e+00,1.504900000000000000e+04
1.698581238225667533e+00,1.505000000000000000e+04
1.698581238225667533e+00,1.505100000000000000e+04
1.698581238225667533e+00,1.505200000000000000e+04
1.698576975204865835e+00,1.505400000000000000e+04
1.698576975204865835e+00,1.505500000000000000e+04
1.698574322892542066e+00,1.505700000000000000e+04
1.698572052757674422e+00,1.505900000000000000e+04
1.698566675836729045e+00,1.506100000000000000e+04
1.698566675836729045e+00,1.506200000000000000e+04
1.698513483906413546e+00,1.506400000000000000e+04
1.698513483906413546e+00,1.506500000000000000e+04
1.698513483906413546e+00,1.506600000000000000e+04
1.698513483906413546e+00,1.506700000000000000e+04
1.698476241021121602e+00,1.506900000000000000e+04
1.698473931307059148e+00,1.507100000000000000e+04
1.698473931307059148e+00,1.507200000000000000e+04
1.698467550834869222e+00,1.507400000000000000e+04
1.698467550834869222e+00,1.507500000000000000e+04
1.698464797003106375e+00,1.507700000000000000e+04
1.698464797003106375e+00,1.507800000000000000e+04
1.698460880857212363e+00,1.508000000000000000e+04
1.698397950407858792e+00,1.508200000000000000e+04
1.698395408356210057e+00,1.508400000000000000e+04
1.698395408356210057e+00,1.508500000000000000e+04
1.698386683849349321e+00,1.508700000000000000e+04
1.698374807381618945e+00,1.508900000000000000e+04
1.698374807381618945e+00,1.509000000000000000e+04
1.698374807381618945e+00,1.509100000000000000e+04
1.698372540230673300e+00,1.509300000000000000e+04
1.698360405100835635e+00,1.509500000000000000e+04
1.698343515526794745e+00,1.509700000000000000e+04
1.698343515526794745e+00,1.509800000000000000e+04
1.698343515526794745e+00,1.509900000000000000e+04
1.698341224425127471e+00,1.510100000000000000e+04
1.698341224425127471e+00,1.510200000000000000e+04
1.698341224425127471e+00,1.510300000000000000e+04
1.698341224425127471e+00,1.510400000000000000e+04
1.698317341937308989e+00,1.510600000000000000e+04
1.698308070083910382e+00,1.510800000000000000e+04
1.698308070083910382e+00,1.510900000000000000e+04
1.698308070083910382e+00,1.511000000000000000e+04
1.698308070083910382e+00,1.511100000000000000e+04
1.698308070083910382e+00,1.511200000000000000e+04
1.698292461579600454e+00,1.511400000000000000e+04
1.698292461579600454e+00,1.511500000000000000e+04
1.698292461579600454e+00,1.511600000000000000e+04
1.698292461579600454e+00,1.511700000000000000e+04
1.698292461579600454e+00,1.511800000000000000e+04
1.698292461579600454e+00,1.511900000000000000e+04
1.698280272302527649e+00,1.512100000000000000e+04
1.698269258265177495e+00,1.512300000000000000e+04
1.698268868551055633e+00,1.512500000000000000e+04
1.698268868551055633e+00,1.512600000000000000e+04
1.697914097645782272e+00,1.512800000000000000e+04
1.697912593173232843e+00,1.513000000000000000e+04
1.697912593173232843e+00,1.513100000000000000e+04
1.697904118327197676e+00,1.513300000000000000e+04
1.697904118327197676e+00,1.513400000000000000e+04
1.697876444177959021e+00,1.513600000000000000e+04
1.697876444177959021e+00,1.513700000000000000e+04
1.697866343112597098e+00,1.513900000000000000e+04
1.697866343112597098e+00,1.514000000000000000e+04
1.697863024153235312e+00,1.514200000000000000e+04
1.697863024153235312e+00,1.514300000000000000e+04
1.697842659180133440e+00,1.514500000000000000e+04
1.697839635116519030e+00,1.514700000000000000e+04
1.697821206084860757e+00,1.514900000000000000e+04
1.697799520801784867e+00,1.515100000000000000e+04
1.697799520801784867e+00,1.515200000000000000e+04
1.697796221254739946e+00,1.515400000000000000e+04
1.697796221254739946e+00,1.515500000000000000e+04
1.697794466863141727e+00,1.515700000000000000e+04
1.697790215491110200e+00,1.515900000000000000e+04
1.697734318952597077e+00,1.516100000000000000e+04
1.697724265155050594e+00,1.516300000000000000e+04
1.697713261499720350e+00,1.516500000000000000e+04
1.697677731126660872e+00,1.516700000000000000e+04
1.697677731126660872e+00,1.516800000000000000e+04
1.697677731126660872e+00,1.516900000000000000e+04
1.697677731126660872e+00,1.517000000000000000e+04
1.697672275220172500e+00,1.517200000000000000e+04
1.697669569953382362e+00,1.517400000000000000e+04
1.697655097587841722e+00,1.517600000000000000e+04
1.697648287450828519e+00,1.517800000000000000e+04
1.697635645248041225e+00,1.518000000000000000e+04
1.697635645248041225e+00,1.518100000000000000e+04
1.697635645248041225e+00,1.518200000000000000e+04
1.697635555279400910e+00,1.518400000000000000e+04
1.697600446640968430e+00,1.518600000000000000e+04
1.697599801959789323e+00,1.518800000000000000e+04
1.697556556999827215e+00,1.519000000000000000e+04
1.697556556999827215e+00,1.519100000000000000e+04
1.697556556999827215e+00,1.519200000000000000e+04
1.697556556999827215e+00,1.519300000000000000e+04
1.697556556999827215e+00,1.519400000000000000e+04
1.697517396191347228e+00,1.519600000000000000e+04
1.697517396191347228e+00,1.519700000000000000e+04
1.697517396191347228e+00,1.519800000000000000e+04
1.697507806742794445e+00,1.520000000000000000e+04
1.697503744123924685e+00,1.520200000000000000e+04
1.697503744123924685e+00,1.520300000000000000e+04
1.697501438257308148e+00,1.520500000000000000e+04
1.697501438257308148e+00,1.520600000000000000e+04
1.697501438257308148e+00,1.520700000000000000e+04
1.697501438257308148e+00,1.520800000000000000e+04
1.697501438257308148e+00,1.520900000000000000e+04
1.697501438257308148e+00,1.521000000000000000e+04
1.697501438257308148e+00,1.521100000000000000e+04
1.697495030493737289e+00,1.521300000000000000e+04
1.697474663135722484e+00,1.521500000000000000e+04
1.697474663135722484e+00,1.521600000000000000e+04
1.697474663135722484e+00,1.521700000000000000e+04
1.697466462249827224e+00,1.521900000000000000e+04
1.697465538061183388e+00,1.522100000000000000e+04
1.697465538061183388e+00,1.522200000000000000e+04
1.697465538061183388e+00,1.522300000000000000e+04
1.697465031831599802e+00,1.522500000000000000e+04
1.697448764844304847e+00,1.522700000000000000e+04
1.697435529797642451e+00,1.522900000000000000e+04
1.697422209525831560e+00,1.523100000000000000e+04
1.697403954012585370e+00,1.523300000000000000e+04
1.697403954012585370e+00,1.523400000000000000e+04
1.697401353223805254e+00,1.523600000000000000e+04
1.697401353223805254e+00,1.523700000000000000e+04
1.697362221715680963e+00,1.523900000000000000e+04
1.697362221715680963e+00,1.524000000000000000e+04
1.697362221715680963e+00,1.524100000000000000e+04
1.697362221715680963e+00,1.524200000000000000e+04
1.697356603089444249e+00,1.524400000000000000e+04
1.697338354465648180e+00,1.524600000000000000e+04
1.697338354465648180e+00,1.524700000000000000e+04
1.697338354465648180e+00,1.524800000000000000e+04
1.697338354465648180e+00,1.524900000000000000e+04
1.697338354465648180e+00,1.525000000000000000e+04
1.697332625584993870e+00,1.525200000000000000e+04
1.697332625584993870e+00,1.525300000000000000e+04
1.697323791833062145e+00,1.525500000000000000e+04
1.697323791833062145e+00,1.525600000000000000e+04
1.697296733004608260e+00,1.525800000000000000e+04
1.697296733004608260e+00,1.525900000000000000e+04
1.697290099636041605e+00,1.526100000000000000e+04
1.697290099636041605e+00,1.526200000000000000e+04
1.697287077383982545e+00,1.526400000000000000e+04
1.697283430036715890e+00,1.526600000000000000e+04
1.697283430036715890e+00,1.526700000000000000e+04
1.697234958671345550e+00,1.526900000000000000e+04
1.697234958671345550e+00,1.527000000000000000e+04
1.697234958671345550e+00,1.527100000000000000e+04
1.697234861050304966e+00,1.527300000000000000e+04
1.697234861050304966e+00,1.527400000000000000e+04
1.697200653251895508e+00,1.527600000000000000e+04
1.697200653251895508e+00,1.527700000000000000e+04
1.697196902843936650e+00,1.527900000000000000e+04
1.697194374324652255e+00,1.528100000000000000e+04
1.697184127800753117e+00,1.528300000000000000e+04
1.697184127800753117e+00,1.528400000000000000e+04
1.697166185209868727e+00,1.528600000000000000e+04
1.697149713800110593e+00,1.528800000000000000e+04
1.697149713800110593e+00,1.528900000000000000e+04
1.697149713800110593e+00,1.529000000000000000e+04
1.697149713800110593e+00,1.529100000000000000e+04
1.697134265686719878e+00,1.529300000000000000e+04
1.697124448011894549e+00,1.529500000000000000e+04
1.697090627321727441e+00,1.529700000000000000e+04
1.697090627321727441e+00,1.529800000000000000e+04
1.697090627321727441e+00,1.529900000000000000e+04
1.697090627321727441e+00,1.530000000000000000e+04
1.697087310163988949e+00,1.530200000000000000e+04
1.697087310163988949e+00,1.530300000000000000e+04
1.697087310163988949e+00,1.530400000000000000e+04
1.697086933961545974e+00,1.530600000000000000e+04
1.697041477891448213e+00,1.530800000000000000e+04
1.697041477891448213e+00,1.530900000000000000e+04
1.697041477891448213e+00,1.531000000000000000e+04
1.697024650333558204e+00,1.531200000000000000e+04
1.697024650333558204e+00,1.531300000000000000e+04
1.697024650333558204e+00,1.531400000000000000e+04
1.697024650333558204e+00,1.531500000000000000e+04
1.697020744038219897e+00,1.531700000000000000e+04
1.697020744038219897e+00,1.531800000000000000e+04
1.697017097270946406e+00,1.532000000000000000e+04
1.696964870316782781e+00,1.532200000000000000e+04
1.696964870316782781e+00,1.532300000000000000e+04
1.696953115531649514e+00,1.532500000000000000e+04
1.696927500552696699e+00,1.532700000000000000e+04
1.696927500552696699e+00,1.532800000000000000e+04
1.696890987855939059e+00,1.533000000000000000e+04
1.696881728116306220e+00,1.533200000000000000e+04
1.696881728116306220e+00,1.533300000000000000e+04
1.696874971956466638e+00,1.533500000000000000e+04
1.696826466645293907e+00,1.533700000000000000e+04
1.696816061854457436e+00,1.533900000000000000e+04
1.696799962544765616e+00,1.534100000000000000e+04
1.696799962544765616e+00,1.534200000000000000e+04
1.696799962544765616e+00,1.534300000000000000e+04
1.696799962544765616e+00,1.534400000000000000e+04
1.696759737301034798e+00,1.534600000000000000e+04
1.696759737301034798e+00,1.534700000000000000e+04
1.696751604033323479e+00,1.534900000000000000e+04
1.696751604033323479e+00,1.535000000000000000e+04
1.696740770906730811e+00,1.535200000000000000e+04
1.696740770906730811e+00,1.535300000000000000e+04
1.696740770906730811e+00,1.535400000000000000e+04
1.696740770906730811e+00,1.535500000000000000e+04
1.696740770906730811e+00,1.535600000000000000e+04
1.696738017447823044e+00,1.535800000000000000e+04
1.696738017447823044e+00,1.535900000000000000e+04
1.696738017447823044e+00,1.536000000000000000e+04
1.696738017447823044e+00,1.536100000000000000e+04
1.696713684494041807e+00,1.536300000000000000e+04
1.696713684494041807e+00,1.536400000000000000e+04
1.696700463835059569e+00,1.536600000000000000e+04
1.696691741050781577e+00,1.536800000000000000e+04
1.696691741050781577e+00,1.536900000000000000e+04
1.696691741050781577e+00,1.537000000000000000e+04
1.696655891163775243e+00,1.537200000000000000e+04
1.696655891163775243e+00,1.537300000000000000e+04
1.696652872549358815e+00,1.537500000000000000e+04
1.696639744377688608e+00,1.537700000000000000e+04
1.696639744377688608e+00,1.537800000000000000e+04
1.696639744377688608e+00,1.537900000000000000e+04
1.696627999921182406e+00,1.538100000000000000e+04
1.696623160276986342e+00,1.538300000000000000e+04
1.696623160276986342e+00,1.538400000000000000e+04
1.696623160276986342e+00,1.538500000000000000e+04
1.696614182568475293e+00,1.538700000000000000e+04
1.696614182568475293e+00,1.538800000000000000e+04
1.696586444589100129e+00,1.539000000000000000e+04
1.696586444589100129e+00,1.539100000000000000e+04
1.696584497560376770e+00,1.539300000000000000e+04
1.696584497560376770e+00,1.539400000000000000e+04
1.696584497560376770e+00,1.539500000000000000e+04
1.696572017559644374e+00,1.539700000000000000e+04
1.696572017559644374e+00,1.539800000000000000e+04
1.696569394375519790e+00,1.540000000000000000e+04
1.696569394375519790e+00,1.540100000000000000e+04
1.696569394375519790e+00,1.540200000000000000e+04
1.696569394375519790e+00,1.540300000000000000e+04
1.696546975771310528e+00,1.540500000000000000e+04
1.696546975771310528e+00,1.540600000000000000e+04
1.696546975771310528e+00,1.540700000000000000e+04
1.696536055916469499e+00,1.540900000000000000e+04
1.696521349675497392e+00,1.541100000000000000e+04
1.696435301212808833e+00,1.541300000000000000e+04
1.696435301212808833e+00,1.541400000000000000e+04
1.696424427936365387e+00,1.541600000000000000e+04
1.696420847710778945e+00,1.541800000000000000e+04
1.696415507328054018e+00,1.542000000000000000e+04
1.696400246766674558e+00,1.542200000000000000e+04
1.696390396642366571e+00,1.542400000000000000e+04
1.696390396642366571e+00,1.542500000000000000e+04
1.696390396642366571e+00,1.542600000000000000e+04
1.696390396642366571e+00,1.542700000000000000e+04
1.696378642401286552e+00,1.542900000000000000e+04
1.696378642401286552e+00,1.543000000000000000e+04
1.696369818776215066e+00,1.543200000000000000e+04
1.696321342035555624e+00,1.543400000000000000e+04
1.696321342035555624e+00,1.543500000000000000e+04
1.696305712278513456e+00,1.543700000000000000e+04
1.696305712278513456e+00,1.543800000000000000e+04
1.696304367658327594e+00,1.544000000000000000e+04
1.696295567507110524e+00,1.544200000000000000e+04
1.696295567507110524e+00,1.544300000000000000e+04
1.696295221920171903e+00,1.544500000000000000e+04
1.696295221920171903e+00,1.544600000000000000e+04
1.696291283093326552e+00,1.544800000000000000e+04
1.696279499175898264e+00,1.545000000000000000e+04
1.696279499175898264e+00,1.545100000000000000e+04
1.696258604319561769e+00,1.545300000000000000e+04
1.696258604319561769e+00,1.545400000000000000e+04
1.696222133585458813e+00,1.545600000000000000e+04
1.696222133585458813e+00,1.545700000000000000e+04
1.696206054839939359e+00,1.545900000000000000e+04
1.696206054839939359e+00,1.546000000000000000e+04
1.696203825730621118e+00,1.546200000000000000e+04
1.696203825730621118e+00,1.546300000000000000e+04
1.696188409313596601e+00,1.546500000000000000e+04
1.696188409313596601e+00,1.546600000000000000e+04
1.696181665024307117e+00,1.546800000000000000e+04
1.696178389208247594e+00,1.547000000000000000e+04
1.696176045332991489e+00,1.547200000000000000e+04
1.696159435637539792e+00,1.547400000000000000e+04
1.696159435637539792e+00,1.547500000000000000e+04
1.696114355242222427e+00,1.547700000000000000e+04
1.696102979090155172e+00,1.547900000000000000e+04
1.696102979090155172e+00,1.548000000000000000e+04
1.696092752526800362e+00,1.548200000000000000e+04
1.696080110634035742e+00,1.548400000000000000e+04
1.696048902278838533e+00,1.548600000000000000e+04
1.696033522928148241e+00,1.548800000000000000e+04
1.696033522928148241e+00,1.548900000000000000e+04
1.696033522928148241e+00,1.549000000000000000e+04
1.696033522928148241e+00,1.549100000000000000e+04
1.696033522928148241e+00,1.549200000000000000e+04
1.695999375306004753e+00,1.549400000000000000e+04
1.695999375306004753e+00,1.549500000000000000e+04
1.695996126915276125e+00,1.549700000000000000e+04
1.695936231817396722e+00,1.549900000000000000e+04
1.695925411609864097e+00,1.550100000000000000e+04
1.695925411609864097e+00,1.550200000000000000e+04
1.695925411609864097e+00,1.550300000000000000e+04
1.695925340573724016e+00,1.550500000000000000e+04
1.695925340573724016e+00,1.550600000000000000e+04
1.695925340573724016e+00,1.550700000000000000e+04
1.695925340573724016e+00,1.550800000000000000e+04
1.695925340573724016e+00,1.550900000000000000e+04
1.695902151706296657e+00,1.551100000000000000e+04
1.695901759980434242e+00,1.551300000000000000e+04
1.695895279956286084e+00,1.551500000000000000e+04
1.695891437795094658e+00,1.551700000000000000e+04
1.695891437795094658e+00,1.551800000000000000e+04
1.695891437795094658e+00,1.551900000000000000e+04
1.695891437795094658e+00,1.552000000000000000e+04
1.695891437795094658e+00,1.552100000000000000e+04
1.695885756440808523e+00,1.552300000000000000e+04
1.695885756440808523e+00,1.552400000000000000e+04
1.695885756440808523e+00,1.552500000000000000e+04
1.695883023957708291e+00,1.552700000000000000e+04
1.695883023957708291e+00,1.552800000000000000e+04
1.695880716519493570e+00,1.553000000000000000e+04
1.695880716519493570e+00,1.553100000000000000e+04
1.695875341182011997e+00,1.553300000000000000e+04
1.695862260501937113e+00,1.553500000000000000e+04
1.695835204807991214e+00,1.553700000000000000e+04
1.695784127366321670e+00,1.553900000000000000e+04
1.695770075135212940e+00,1.554100000000000000e+04
1.695745594330357209e+00,1.554300000000000000e+04
1.695745594330357209e+00,1.554400000000000000e+04
1.695745594330357209e+00,1.554500000000000000e+04
1.695745594330357209e+00,1.554600000000000000e+04
1.695741239235834197e+00,1.554800000000000000e+04
1.695741239235834197e+00,1.554900000000000000e+04
1.695741239235834197e+00,1.555000000000000000e+04
1.695740056036384225e+00,1.555200000000000000e+04
1.695740056036384225e+00,1.555300000000000000e+04
1.695731337803619621e+00,1.555500000000000000e+04
1.695731337803619621e+00,1.555600000000000000e+04
1.695720451265015472e+00,1.555800000000000000e+04
1.695720451265015472e+00,1.555900000000000000e+04
1.695714122097889298e+00,1.556100000000000000e+04
1.695683590287936360e+00,1.556300000000000000e+04
1.695673910730985501e+00,1.556500000000000000e+04
1.695638745128756009e+00,1.556700000000000000e+04
1.695638745128756009e+00,1.556800000000000000e+04
1.695629094996921715e+00,1.557000000000000000e+04
1.695629094996921715e+00,1.557100000000000000e+04
1.695617685381145101e+00,1.557300000000000000e+04
1.695611357888614279e+00,1.557500000000000000e+04
1.695611357888614279e+00,1.557600000000000000e+04
1.695607509107845301e+00,1.557800000000000000e+04
1.695607509107845301e+00,1.557900000000000000e+04
1.695606368119391139e+00,1.558100000000000000e+04
1.695606368119391139e+00,1.558200000000000000e+04
1.695602049159521840e+00,1.558400000000000000e+04
1.695602049159521840e+00,1.558500000000000000e+04
1.695598146194367439e+00,1.558700000000000000e+04
1.695598146194367439e+00,1.558800000000000000e+04
1.695598146194367439e+00,1.558900000000000000e+04
1.695598146194367439e+00,1.559000000000000000e+04
1.695598146194367439e+00,1.559100000000000000e+04
1.695587836858629238e+00,1.559300000000000000e+04
1.695587836858629238e+00,1.559400000000000000e+04
1.695552696642319557e+00,1.559600000000000000e+04
1.695552696642319557e+00,1.559700000000000000e+04
1.695537644817307399e+00,1.559900000000000000e+04
1.695532904605477453e+00,1.560100000000000000e+04
1.695519351730925273e+00,1.560300000000000000e+04
1.695519351730925273e+00,1.560400000000000000e+04
1.695514526196528093e+00,1.560600000000000000e+04
1.695499718344845252e+00,1.560800000000000000e+04
1.695499718344845252e+00,1.560900000000000000e+04
1.695472018326648955e+00,1.561100000000000000e+04
1.695459638277228454e+00,1.561300000000000000e+04
1.695459638277228454e+00,1.561400000000000000e+04
1.695459638277228454e+00,1.561500000000000000e+04
1.695430104257331871e+00,1.561700000000000000e+04
1.695430104257331871e+00,1.561800000000000000e+04
1.695430104257331871e+00,1.561900000000000000e+04
1.695390442666280917e+00,1.562100000000000000e+04
1.695390442666280917e+00,1.562200000000000000e+04
1.695341759184836761e+00,1.562400000000000000e+04
1.695341759184836761e+00,1.562500000000000000e+04
1.695341759184836761e+00,1.562600000000000000e+04
1.695341592850241330e+00,1.562800000000000000e+04
1.695335283097937795e+00,1.563000000000000000e+04
1.695335283097937795e+00,1.563100000000000000e+04
1.695332969060016293e+00,1.563300000000000000e+04
1.695332969060016293e+00,1.563400000000000000e+04
1.695332969060016293e+00,1.563500000000000000e+04
1.695332969060016293e+00,1.563600000000000000e+04
1.695332969060016293e+00,1.563700000000000000e+04
1.695332969060016293e+00,1.563800000000000000e+04
1.695321434863443999e+00,1.564000000000000000e+04
1.695283090675435034e+00,1.564200000000000000e+04
1.695283090675435034e+00,1.564300000000000000e+04
1.695282011340355943e+00,1.564500000000000000e+04
1.695282011340355943e+00,1.564600000000000000e+04
1.695282011340355943e+00,1.564700000000000000e+04
1.695282011340355943e+00,1.564800000000000000e+04
1.695282011340355943e+00,1.564900000000000000e+04
1.695282011340355943e+00,1.565000000000000000e+04
1.695217527169593952e+00,1.565200000000000000e+04
1.695217527169593952e+00,1.565300000000000000e+04
1.695217340587880539e+00,1.565500000000000000e+04
1.695215395909248635e+00,1.565700000000000000e+04
1.695205103529726642e+00,1.565900000000000000e+04
1.695198736364549763e+00,1.566100000000000000e+04
1.695192442420875301e+00,1.566300000000000000e+04
1.695192442420875301e+00,1.566400000000000000e+04
1.695192442420875301e+00,1.566500000000000000e+04
1.695180676089597549e+00,1.566700000000000000e+04
1.695180676089597549e+00,1.566800000000000000e+04
1.695178952320696153e+00,1.567000000000000000e+04
1.695178952320696153e+00,1.567100000000000000e+04
1.695176094086723095e+00,1.567300000000000000e+04
1.695176094086723095e+00,1.567400000000000000e+04
1.695162708947553831e+00,1.567600000000000000e+04
1.695121941051403347e+00,1.567800000000000000e+04
1.695121941051403347e+00,1.567900000000000000e+04
1.695121941051403347e+00,1.568000000000000000e+04
1.695121168861587257e+00,1.568200000000000000e+04
1.695121168861587257e+00,1.568300000000000000e+04
1.695103440681790197e+00,1.568500000000000000e+04
1.695103440681790197e+00,1.568600000000000000e+04
1.695095742277687778e+00,1.568800000000000000e+04
1.695093512042702866e+00,1.569000000000000000e+04
1.695093512042702866e+00,1.569100000000000000e+04
1.695093512042702866e+00,1.569200000000000000e+04
1.695079526212895704e+00,1.569400000000000000e+04
1.695079526212895704e+00,1.569500000000000000e+04
1.695079526212895704e+00,1.569600000000000000e+04
1.695077291081446447e+00,1.569800000000000000e+04
1.695077291081446447e+00,1.569900000000000000e+04
1.695077291081446447e+00,1.570000000000000000e+04
1.695077291081446447e+00,1.570100000000000000e+04
1.695073376022012246e+00,1.570300000000000000e+04
1.695073376022012246e+00,1.570400000000000000e+04
1.695066324658186074e+00,1.570600000000000000e+04
1.695035833832001515e+00,1.570800000000000000e+04
1.695035833832001515e+00,1.570900000000000000e+04
1.695024853597107084e+00,1.571100000000000000e+04
1.694994369794629030e+00,1.571300000000000000e+04
1.694967177940093661e+00,1.571500000000000000e+04
1.694967177940093661e+00,1.571600000000000000e+04
1.694954569978258219e+00,1.571800000000000000e+04
1.694919058019995761e+00,1.572000000000000000e+04
1.694893287973362916e+00,1.572200000000000000e+04
1.694840271763582429e+00,1.572400000000000000e+04
1.694840271763582429e+00,1.572500000000000000e+04
1.694840271763582429e+00,1.572600000000000000e+04
1.694840271763582429e+00,1.572700000000000000e+04
1.694836562313746242e+00,1.572900000000000000e+04
1.694834242420200310e+00,1.573100000000000000e+04
1.694820808130269807e+00,1.573300000000000000e+04
1.694820808130269807e+00,1.573400000000000000e+04
1.694816959728361327e+00,1.573600000000000000e+04
1.694708946595812282e+00,1.573800000000000000e+04
1.694708946595812282e+00,1.573900000000000000e+04
1.694708946595812282e+00,1.574000000000000000e+04
1.694708946595812282e+00,1.574100000000000000e+04
1.694705631283077940e+00,1.574300000000000000e+04
1.694703133244938709e+00,1.574500000000000000e+04
1.694703133244938709e+00,1.574600000000000000e+04
1.694697724113801263e+00,1.574800000000000000e+04
1.694697724113801263e+00,1.574900000000000000e+04
1.694697724113801263e+00,1.575000000000000000e+04
1.694697724113801263e+00,1.575100000000000000e+04
1.694697724113801263e+00,1.575200000000000000e+04
1.694447961101271716e+00,1.575400000000000000e+04
1.694425499496201581e+00,1.575600000000000000e+04
1.694425499496201581e+00,1.575700000000000000e+04
1.694425499496201581e+00,1.575800000000000000e+04
1.694425499496201581e+00,1.575900000000000000e+04
1.694409979693312973e+00,1.576100000000000000e+04
1.694409979693312973e+00,1.576200000000000000e+04
1.694393728460265036e+00,1.576400000000000000e+04
1.694393728460265036e+00,1.576500000000000000e+04
1.694318685669072844e+00,1.576700000000000000e+04
1.694318685669072844e+00,1.576800000000000000e+04
1.694312290520470388e+00,1.577000000000000000e+04
1.694312290520470388e+00,1.577100000000000000e+04
1.694312290520470388e+00,1.577200000000000000e+04
1.694312290520470388e+00,1.577300000000000000e+04
1.694312290520470388e+00,1.577400000000000000e+04
1.694312290520470388e+00,1.577500000000000000e+04
1.694050056329143406e+00,1.577700000000000000e+04
1.694050056329143406e+00,1.577800000000000000e+04
1.694045724892805138e+00,1.578000000000000000e+04
1.694045724892805138e+00,1.578100000000000000e+04
1.694037107172175594e+00,1.578300000000000000e+04
1.694037107172175594e+00,1.578400000000000000e+04
1.693976315841594360e+00,1.578600000000000000e+04
1.693976315841594360e+00,1.578700000000000000e+04
1.693933008885468050e+00,1.578900000000000000e+04
1.693933008885468050e+00,1.579000000000000000e+04
1.693922514805122015e+00,1.579200000000000000e+04
1.693922514805122015e+00,1.579300000000000000e+04
1.693922514805122015e+00,1.579400000000000000e+04
1.693922514805122015e+00,1.579500000000000000e+04
1.693922514805122015e+00,1.579600000000000000e+04
1.693922514805122015e+00,1.579700000000000000e+04
1.693922514805122015e+00,1.579800000000000000e+04
1.693922514805122015e+00,1.579900000000000000e+04
1.693922514805122015e+00,1.580000000000000000e+04
1.693912730149251367e+00,1.580200000000000000e+04
1.693902600835894168e+00,1.580400000000000000e+04
1.693900305036918574e+00,1.580600000000000000e+04
1.693900305036918574e+00,1.580700000000000000e+04
1.693893532242837896e+00,1.580900000000000000e+04
1.693880220737872699e+00,1.581100000000000000e+04
1.693840281120884805e+00,1.581300000000000000e+04
1.693840281120884805e+00,1.581400000000000000e+04
1.693831120897727027e+00,1.581600000000000000e+04
1.693831120897727027e+00,1.581700000000000000e+04
1.693810294291537621e+00,1.581900000000000000e+04
1.693810294291537621e+00,1.582000000000000000e+04
1.693803397659094045e+00,1.582200000000000000e+04
1.693763474331046792e+00,1.582400000000000000e+04
1.693763474331046792e+00,1.582500000000000000e+04
1.693730406986866166e+00,1.582700000000000000e+04
1.693730406986866166e+00,1.582800000000000000e+04
1.693708559875623187e+00,1.583000000000000000e+04
1.693708559875623187e+00,1.583100000000000000e+04
1.693693684390182863e+00,1.583300000000000000e+04
1.693684005077769505e+00,1.583500000000000000e+04
1.693684005077769505e+00,1.583600000000000000e+04
1.693684005077769505e+00,1.583700000000000000e+04
1.693678724303764538e+00,1.583900000000000000e+04
1.693678724303764538e+00,1.584000000000000000e+04
1.693678724303764538e+00,1.584100000000000000e+04
1.693673855799922467e+00,1.584300000000000000e+04
1.693655962529108772e+00,1.584500000000000000e+04
1.693655083460094080e+00,1.584700000000000000e+04
1.693637484438110574e+00,1.584900000000000000e+04
1.693623735366208471e+00,1.585100000000000000e+04
1.693623735366208471e+00,1.585200000000000000e+04
1.693615619264240868e+00,1.585400000000000000e+04
1.693615619264240868e+00,1.585500000000000000e+04
1.693597311203048683e+00,1.585700000000000000e+04
1.693589091285160775e+00,1.585900000000000000e+04
1.693583751595208353e+00,1.586100000000000000e+04
1.693583751595208353e+00,1.586200000000000000e+04
1.693583490697507576e+00,1.586400000000000000e+04
1.693555751960264422e+00,1.586600000000000000e+04
1.693555751960264422e+00,1.586700000000000000e+04
1.693524472544098991e+00,1.586900000000000000e+04
1.693515857917886613e+00,1.587100000000000000e+04
1.693509611303251727e+00,1.587300000000000000e+04
1.693501497686523916e+00,1.587500000000000000e+04
1.693497903758942380e+00,1.587700000000000000e+04
1.693497903758942380e+00,1.587800000000000000e+04
1.693485798328592029e+00,1.588000000000000000e+04
1.693484250262374369e+00,1.588200000000000000e+04
1.693482439872312284e+00,1.588400000000000000e+04
1.693482439872312284e+00,1.588500000000000000e+04
1.693482439872312284e+00,1.588600000000000000e+04
1.693482439872312284e+00,1.588700000000000000e+04
1.693482439872312284e+00,1.588800000000000000e+04
1.693482439872312284e+00,1.588900000000000000e+04
1.693482439872312284e+00,1.589000000000000000e+04
1.693482439872312284e+00,1.589100000000000000e+04
1.693482439872312284e+00,1.589200000000000000e+04
1.693460575350646646e+00,1.589400000000000000e+04
1.693460575350646646e+00,1.589500000000000000e+04
1.693442790852629498e+00,1.589700000000000000e+04
1.693442790852629498e+00,1.589800000000000000e+04
1.693442790852629498e+00,1.589900000000000000e+04
1.693442790852629498e+00,1.590000000000000000e+04
1.693436975666619437e+00,1.590200000000000000e+04
1.693436975666619437e+00,1.590300000000000000e+04
1.693416080290859993e+00,1.590500000000000000e+04
1.693402352190888971e+00,1.590700000000000000e+04
1.693402352190888971e+00,1.590800000000000000e+04
1.693402352190888971e+00,1.590900000000000000e+04
1.693402352190888971e+00,1.591000000000000000e+04
1.693401288251466630e+00,1.591200000000000000e+04
1.693398872961278112e+00,1.591400000000000000e+04
1.693389821456621425e+00,1.591600000000000000e+04
1.693389821456621425e+00,1.591700000000000000e+04
1.693389821456621425e+00,1.591800000000000000e+04
1.693389821456621425e+00,1.591900000000000000e+04
1.693388723300653487e+00,1.592100000000000000e+04
1.693388723300653487e+00,1.592200000000000000e+04
1.693377988101226528e+00,1.592400000000000000e+04
1.693377988101226528e+00,1.592500000000000000e+04
1.693367150598853232e+00,1.592700000000000000e+04
1.693367150598853232e+00,1.592800000000000000e+04
1.693367150598853232e+00,1.592900000000000000e+04
1.693361758382590843e+00,1.593100000000000000e+04
1.693361758382590843e+00,1.593200000000000000e+04
1.693361758382590843e+00,1.593300000000000000e+04
1.693345918119824711e+00,1.593500000000000000e+04
1.693345918119824711e+00,1.593600000000000000e+04
1.693345918119824711e+00,1.593700000000000000e+04
1.693327682653047228e+00,1.593900000000000000e+04
1.693325385075238332e+00,1.594100000000000000e+04
1.693325319682158270e+00,1.594300000000000000e+04
1.693325319682158270e+00,1.594400000000000000e+04
1.693155511490092469e+00,1.594600000000000000e+04
1.693155511490092469e+00,1.594700000000000000e+04
1.693155511490092469e+00,1.594800000000000000e+04
1.693155511490092469e+00,1.594900000000000000e+04
1.693155511490092469e+00,1.595000000000000000e+04
1.693155511490092469e+00,1.595100000000000000e+04
1.693151446798608184e+00,1.595300000000000000e+04
1.693146827560846335e+00,1.595500000000000000e+04
1.693146827560846335e+00,1.595600000000000000e+04
1.693140162956868755e+00,1.595800000000000000e+04
1.693133251706511633e+00,1.596000000000000000e+04
1.693122602312626457e+00,1.596200000000000000e+04
1.693089743588803930e+00,1.596400000000000000e+04
1.693089743588803930e+00,1.596500000000000000e+04
1.693081823271408881e+00,1.596700000000000000e+04
1.693081823271408881e+00,1.596800000000000000e+04
1.693072685114064502e+00,1.597000000000000000e+04
1.693070528207690995e+00,1.597200000000000000e+04
1.693060097108417095e+00,1.597400000000000000e+04
1.693033531582625484e+00,1.597600000000000000e+04
1.693023892637333994e+00,1.597800000000000000e+04
1.693023892637333994e+00,1.597900000000000000e+04
1.693023525322419287e+00,1.598100000000000000e+04
1.693016458809613045e+00,1.598300000000000000e+04
1.693016458809613045e+00,1.598400000000000000e+04
1.693016458809613045e+00,1.598500000000000000e+04
1.692990030426396730e+00,1.598700000000000000e+04
1.692970276595841650e+00,1.598900000000000000e+04
1.692970276595841650e+00,1.599000000000000000e+04
1.692970276595841650e+00,1.599100000000000000e+04
1.692970276595841650e+00,1.599200000000000000e+04
1.692962844105591280e+00,1.599400000000000000e+04
1.692962844105591280e+00,1.599500000000000000e+04
1.692962844105591280e+00,1.599600000000000000e+04
1.692957192359308305e+00,1.599800000000000000e+04
1.692957192359308305e+00,1.599900000000000000e+04
1.692947074273462027e+00,1.600100000000000000e+04
1.692909423986905804e+00,1.600300000000000000e+04
1.692897043670709811e+00,1.600500000000000000e+04
1.692897043670709811e+00,1.600600000000000000e+04
1.692897043670709811e+00,1.600700000000000000e+04
1.692897043670709811e+00,1.600800000000000000e+04
1.692893073466630094e+00,1.601000000000000000e+04
1.692893073466630094e+00,1.601100000000000000e+04
1.692887160535689661e+00,1.601300000000000000e+04
1.692843319776804911e+00,1.601500000000000000e+04
1.692840761147194062e+00,1.601700000000000000e+04
1.692813764203332516e+00,1.601900000000000000e+04
1.692798276704668536e+00,1.602100000000000000e+04
1.692759391630875188e+00,1.602300000000000000e+04
1.692748122575502556e+00,1.602500000000000000e+04
1.692748122575502556e+00,1.602600000000000000e+04
1.692748122575502556e+00,1.602700000000000000e+04
1.692748122575502556e+00,1.602800000000000000e+04
1.692499132364749137e+00,1.603000000000000000e+04
1.692499132364749137e+00,1.603100000000000000e+04
1.692492523824082884e+00,1.603300000000000000e+04
1.692492523824082884e+00,1.603400000000000000e+04
1.692492523824082884e+00,1.603500000000000000e+04
1.692492523824082884e+00,1.603600000000000000e+04
1.692482428097759284e+00,1.603800000000000000e+04
1.692480445735331074e+00,1.604000000000000000e+04
1.692469053703375748e+00,1.604200000000000000e+04
1.692452267376400421e+00,1.604400000000000000e+04
1.692452267376400421e+00,1.604500000000000000e+04
1.692445682426970688e+00,1.604700000000000000e+04
1.692427048178299032e+00,1.604900000000000000e+04
1.692423089544459192e+00,1.605100000000000000e+04
1.692423089544459192e+00,1.605200000000000000e+04
1.692420969356908111e+00,1.605400000000000000e+04
1.692420969356908111e+00,1.605500000000000000e+04
1.692411821073493972e+00,1.605700000000000000e+04
1.692411821073493972e+00,1.605800000000000000e+04
1.692411821073493972e+00,1.605900000000000000e+04
1.692411821073493972e+00,1.606000000000000000e+04
1.692409425140563251e+00,1.606200000000000000e+04
1.692335907124767447e+00,1.606400000000000000e+04
1.692335907124767447e+00,1.606500000000000000e+04
1.692335907124767447e+00,1.606600000000000000e+04
1.692335907124767447e+00,1.606700000000000000e+04
1.692326524716442293e+00,1.606900000000000000e+04
1.692315270585497577e+00,1.607100000000000000e+04
1.692315215807278284e+00,1.607300000000000000e+04
1.692315215807278284e+00,1.607400000000000000e+04
1.692287468698572495e+00,1.607600000000000000e+04
1.692287468698572495e+00,1.607700000000000000e+04
1.692287468698572495e+00,1.607800000000000000e+04
1.692287468698572495e+00,1.607900000000000000e+04
1.692287468698572495e+00,1.608000000000000000e+04
1.692260276150145071e+00,1.608200000000000000e+04
1.692250595469603880e+00,1.608400000000000000e+04
1.692250595469603880e+00,1.608500000000000000e+04
1.692250595469603880e+00,1.608600000000000000e+04
1.692250595469603880e+00,1.608700000000000000e+04
1.692250595469603880e+00,1.608800000000000000e+04
1.692213505199832824e+00,1.609000000000000000e+04
1.692210281993408394e+00,1.609200000000000000e+04
1.692190555631488458e+00,1.609400000000000000e+04
1.692190555631488458e+00,1.609500000000000000e+04
1.692183664217456363e+00,1.609700000000000000e+04
1.692183664217456363e+00,1.609800000000000000e+04
1.692158422943849994e+00,1.610000000000000000e+04
1.692158422943849994e+00,1.610100000000000000e+04
1.692134048784832867e+00,1.610300000000000000e+04
1.692134048784832867e+00,1.610400000000000000e+04
1.692134048784832867e+00,1.610500000000000000e+04
1.692109699012234181e+00,1.610700000000000000e+04
1.692107481588519091e+00,1.610900000000000000e+04
1.692106439567282017e+00,1.611100000000000000e+04
1.692106439567282017e+00,1.611200000000000000e+04
1.692106439567282017e+00,1.611300000000000000e+04
1.692106439567282017e+00,1.611400000000000000e+04
1.692092589628461541e+00,1.611600000000000000e+04
1.692067486345657734e+00,1.611800000000000000e+04
1.692063373795508863e+00,1.612000000000000000e+04
1.692063373795508863e+00,1.612100000000000000e+04
1.692056029448837817e+00,1.612300000000000000e+04
1.692056029448837817e+00,1.612400000000000000e+04
1.692045407092340081e+00,1.612600000000000000e+04
1.692011515648891296e+00,1.612800000000000000e+04
1.692005113157744933e+00,1.613000000000000000e+04
1.692005113157744933e+00,1.613100000000000000e+04
1.691996012363389923e+00,1.613300000000000000e+04
1.691996012363389923e+00,1.613400000000000000e+04
1.691996012363389923e+00,1.613500000000000000e+04
1.691978233731840309e+00,1.613700000000000000e+04
1.691978233731840309e+00,1.613800000000000000e+04
1.691978233731840309e+00,1.613900000000000000e+04
1.691978233731840309e+00,1.614000000000000000e+04
1.691972314891170504e+00,1.614200000000000000e+04
1.691972314891170504e+00,1.614300000000000000e+04
1.691967802117346098e+00,1.614500000000000000e+04
1.691963319956733658e+00,1.614700000000000000e+04
1.691957840732841500e+00,1.614900000000000000e+04
1.691940897420570744e+00,1.615100000000000000e+04
1.691940897420570744e+00,1.615200000000000000e+04
1.691940897420570744e+00,1.615300000000000000e+04
1.691929642828490232e+00,1.615500000000000000e+04
1.691929642828490232e+00,1.615600000000000000e+04
1.691844860733809908e+00,1.615800000000000000e+04
1.691844860733809908e+00,1.615900000000000000e+04
1.691839410064256644e+00,1.616100000000000000e+04
1.691839410064256644e+00,1.616200000000000000e+04
1.691825690845605745e+00,1.616400000000000000e+04
1.691825690845605745e+00,1.616500000000000000e+04
1.691798870057392268e+00,1.616700000000000000e+04
1.691795809717185017e+00,1.616900000000000000e+04
1.691795809717185017e+00,1.617000000000000000e+04
1.691795809717185017e+00,1.617100000000000000e+04
1.691788751677115066e+00,1.617300000000000000e+04
1.691780105281900148e+00,1.617500000000000000e+04
1.691780105281900148e+00,1.617600000000000000e+04
1.691747133407571102e+00,1.617800000000000000e+04
1.691746383868234505e+00,1.618000000000000000e+04
1.691746383868234505e+00,1.618100000000000000e+04
1.691699621475585724e+00,1.618300000000000000e+04
1.691699621475585724e+00,1.618400000000000000e+04
1.691699621475585724e+00,1.618500000000000000e+04
1.691699621475585724e+00,1.618600000000000000e+04
1.691699621475585724e+00,1.618700000000000000e+04
1.691696412466441757e+00,1.618900000000000000e+04
1.691693206970171781e+00,1.619100000000000000e+04
1.691692992613780477e+00,1.619300000000000000e+04
1.691692455088976477e+00,1.619500000000000000e+04
1.691692455088976477e+00,1.619600000000000000e+04
1.691692455088976477e+00,1.619700000000000000e+04
1.691692455088976477e+00,1.619800000000000000e+04
1.691692455088976477e+00,1.619900000000000000e+04
1.691692455088976477e+00,1.620000000000000000e+04
1.691692455088976477e+00,1.620100000000000000e+04
1.691692455088976477e+00,1.620200000000000000e+04
1.691685371271049787e+00,1.620400000000000000e+04
1.691680733481920607e+00,1.620600000000000000e+04
1.691680733481920607e+00,1.620700000000000000e+04
1.691680733481920607e+00,1.620800000000000000e+04
1.691680733481920607e+00,1.620900000000000000e+04
1.691679679309687989e+00,1.621100000000000000e+04
1.691679679309687989e+00,1.621200000000000000e+04
1.691667287344409187e+00,1.621400000000000000e+04
1.691659669101297281e+00,1.621600000000000000e+04
1.691659669101297281e+00,1.621700000000000000e+04
1.691659669101297281e+00,1.621800000000000000e+04
1.691648625342639933e+00,1.622000000000000000e+04
1.691641890280706439e+00,1.622200000000000000e+04
1.691639000839908258e+00,1.622400000000000000e+04
1.691634908268878856e+00,1.622600000000000000e+04
1.691634908268878856e+00,1.622700000000000000e+04
1.691634908268878856e+00,1.622800000000000000e+04
1.691634908268878856e+00,1.622900000000000000e+04
1.691508484293714698e+00,1.623100000000000000e+04
1.691463103158865167e+00,1.623300000000000000e+04
1.691463103158865167e+00,1.623400000000000000e+04
1.691463103158865167e+00,1.623500000000000000e+04
1.691463103158865167e+00,1.623600000000000000e+04
1.691463103158865167e+00,1.623700000000000000e+04
1.691458839990473084e+00,1.623900000000000000e+04
1.691458839990473084e+00,1.624000000000000000e+04
1.691458618775691036e+00,1.624200000000000000e+04
1.691455253455168561e+00,1.624400000000000000e+04
1.691442151446484576e+00,1.624600000000000000e+04
1.691442151446484576e+00,1.624700000000000000e+04
1.691442151446484576e+00,1.624800000000000000e+04
1.691422251917295894e+00,1.625000000000000000e+04
1.691410276586880368e+00,1.625200000000000000e+04
1.691391282530543272e+00,1.625400000000000000e+04
1.691355890177279386e+00,1.625600000000000000e+04
1.691343843038906725e+00,1.625800000000000000e+04
1.691338456720029582e+00,1.626000000000000000e+04
1.691290236738319130e+00,1.626200000000000000e+04
1.691288592226933396e+00,1.626400000000000000e+04
1.691276547899497107e+00,1.626600000000000000e+04
1.691266390979023093e+00,1.626800000000000000e+04
1.691266390979023093e+00,1.626900000000000000e+04
1.691266390979023093e+00,1.627000000000000000e+04
1.691266390979023093e+00,1.627100000000000000e+04
1.691266390979023093e+00,1.627200000000000000e+04
1.691266390979023093e+00,1.627300000000000000e+04
1.691266390979023093e+00,1.627400000000000000e+04
1.691258079278019633e+00,1.627600000000000000e+04
1.691235158551616546e+00,1.627800000000000000e+04
1.691235158551616546e+00,1.627900000000000000e+04
1.691209501951167704e+00,1.628100000000000000e+04
1.691183148033824635e+00,1.628300000000000000e+04
1.691183148033824635e+00,1.628400000000000000e+04
1.691183148033824635e+00,1.628500000000000000e+04
1.691183148033824635e+00,1.628600000000000000e+04
1.691166659998787791e+00,1.628800000000000000e+04
1.691165878149026192e+00,1.629000000000000000e+04
1.691165878149026192e+00,1.629100000000000000e+04
1.691155179323299285e+00,1.629300000000000000e+04
1.691155179323299285e+00,1.629400000000000000e+04
1.691149249033566893e+00,1.629600000000000000e+04
1.691135313047212874e+00,1.629800000000000000e+04
1.691124380476110467e+00,1.630000000000000000e+04
1.691106505700246343e+00,1.630200000000000000e+04
1.691106505700246343e+00,1.630300000000000000e+04
1.691085260720705197e+00,1.630500000000000000e+04
1.691082369521628159e+00,1.630700000000000000e+04
1.691073896231622076e+00,1.630900000000000000e+04
1.691073896231622076e+00,1.631000000000000000e+04
1.691070754246338126e+00,1.631200000000000000e+04
1.691010902630885715e+00,1.631400000000000000e+04
1.690972900652180311e+00,1.631600000000000000e+04
1.690972900652180311e+00,1.631700000000000000e+04
1.690972900652180311e+00,1.631800000000000000e+04
1.690964012382321524e+00,1.632000000000000000e+04
1.690964012382321524e+00,1.632100000000000000e+04
1.690964012382321524e+00,1.632200000000000000e+04
1.690964012382321524e+00,1.632300000000000000e+04
1.690938686497325483e+00,1.632500000000000000e+04
1.690938686497325483e+00,1.632600000000000000e+04
1.690927492021117029e+00,1.632800000000000000e+04
1.690888537469615205e+00,1.633000000000000000e+04
1.690886137949289214e+00,1.633200000000000000e+04
1.690872177539688437e+00,1.633400000000000000e+04
1.690871527749299608e+00,1.633600000000000000e+04
1.690871053913693522e+00,1.633800000000000000e+04
1.690867558613961430e+00,1.634000000000000000e+04
1.690867558613961430e+00,1.634100000000000000e+04
1.690867558613961430e+00,1.634200000000000000e+04
1.690845340121872820e+00,1.634400000000000000e+04
1.690845340121872820e+00,1.634500000000000000e+04
1.690843019246897727e+00,1.634700000000000000e+04
1.690843019246897727e+00,1.634800000000000000e+04
1.690843019246897727e+00,1.634900000000000000e+04
1.690843019246897727e+00,1.635000000000000000e+04
1.690843019246897727e+00,1.635100000000000000e+04
1.690832513923333780e+00,1.635300000000000000e+04
1.690807197901389447e+00,1.635500000000000000e+04
1.690807197901389447e+00,1.635600000000000000e+04
1.690807197901389447e+00,1.635700000000000000e+04
1.690807197901389447e+00,1.635800000000000000e+04
1.690807197901389447e+00,1.635900000000000000e+04
1.690807197901389447e+00,1.636000000000000000e+04
1.690807197901389447e+00,1.636100000000000000e+04
1.690780324486667707e+00,1.636300000000000000e+04
1.690780324486667707e+00,1.636400000000000000e+04
1.690780324486667707e+00,1.636500000000000000e+04
1.690780324486667707e+00,1.636600000000000000e+04
1.690780324486667707e+00,1.636700000000000000e+04
1.690757394293559868e+00,1.636900000000000000e+04
1.690757394293559868e+00,1.637000000000000000e+04
1.690748340331273525e+00,1.637200000000000000e+04
1.690748340331273525e+00,1.637300000000000000e+04
1.690748340331273525e+00,1.637400000000000000e+04
1.690748340331273525e+00,1.637500000000000000e+04
1.690748340331273525e+00,1.637600000000000000e+04
1.690746412611816130e+00,1.637800000000000000e+04
1.690746412611816130e+00,1.637900000000000000e+04
1.690735374755626186e+00,1.638100000000000000e+04
1.690735374755626186e+00,1.638200000000000000e+04
1.690704743442690727e+00,1.638400000000000000e+04
1.690704743442690727e+00,1.638500000000000000e+04
1.690595812893058048e+00,1.638700000000000000e+04
1.690595812893058048e+00,1.638800000000000000e+04
1.690595812893058048e+00,1.638900000000000000e+04
1.690595812893058048e+00,1.639000000000000000e+04
1.690595812893058048e+00,1.639100000000000000e+04
1.690592892752346810e+00,1.639300000000000000e+04
1.690592892752346810e+00,1.639400000000000000e+04
1.690591938932560767e+00,1.639600000000000000e+04
1.690591938932560767e+00,1.639700000000000000e+04
1.690591938932560767e+00,1.639800000000000000e+04
1.690591938932560767e+00,1.639900000000000000e+04
1.690591938932560767e+00,1.640000000000000000e+04
1.690583125518124952e+00,1.640200000000000000e+04
1.690583083388890628e+00,1.640400000000000000e+04
1.690583083388890628e+00,1.640500000000000000e+04
1.690576395861300707e+00,1.640700000000000000e+04
1.690576395861300707e+00,1.640800000000000000e+04
1.690571649791634767e+00,1.641000000000000000e+04
1.690571649791634767e+00,1.641100000000000000e+04
1.690569174586179058e+00,1.641300000000000000e+04
1.690547902501437827e+00,1.641500000000000000e+04
1.690547902501437827e+00,1.641600000000000000e+04
1.690535921474525471e+00,1.641800000000000000e+04
1.690535921474525471e+00,1.641900000000000000e+04
1.690508710153984850e+00,1.642100000000000000e+04
1.690508710153984850e+00,1.642200000000000000e+04
1.690508710153984850e+00,1.642300000000000000e+04
1.690508710153984850e+00,1.642400000000000000e+04
1.690508710153984850e+00,1.642500000000000000e+04
1.690508710153984850e+00,1.642600000000000000e+04
1.690463354824654818e+00,1.642800000000000000e+04
1.690447140223372946e+00,1.643000000000000000e+04
1.690438267019024332e+00,1.643200000000000000e+04
1.690438267019024332e+00,1.643300000000000000e+04
1.690425764121226138e+00,1.643500000000000000e+04
1.690425764121226138e+00,1.643600000000000000e+04
1.690418855032297163e+00,1.643800000000000000e+04
1.690403858732058007e+00,1.644000000000000000e+04
1.690394237410651090e+00,1.644200000000000000e+04
1.690384681726787353e+00,1.644400000000000000e+04
1.690123891131365852e+00,1.644600000000000000e+04
1.690123891131365852e+00,1.644700000000000000e+04
1.690123891131365852e+00,1.644800000000000000e+04
1.690106671512605185e+00,1.645000000000000000e+04
1.690106671512605185e+00,1.645100000000000000e+04
1.690092520224186101e+00,1.645300000000000000e+04
1.690056918043986389e+00,1.645500000000000000e+04
1.690056918043986389e+00,1.645600000000000000e+04
1.690056918043986389e+00,1.645700000000000000e+04
1.690056918043986389e+00,1.645800000000000000e+04
1.690056918043986389e+00,1.645900000000000000e+04
1.690054735912347894e+00,1.646100000000000000e+04
1.690028357854522323e+00,1.646300000000000000e+04
1.690028357854522323e+00,1.646400000000000000e+04
1.690028357854522323e+00,1.646500000000000000e+04
1.690028357854522323e+00,1.646600000000000000e+04
1.690028357854522323e+00,1.646700000000000000e+04
1.690026606864565073e+00,1.646900000000000000e+04
1.690012676621669430e+00,1.647100000000000000e+04
1.690000455506820431e+00,1.647300000000000000e+04
1.689995940227506654e+00,1.647500000000000000e+04
1.689985821411456257e+00,1.647700000000000000e+04
1.689985821411456257e+00,1.647800000000000000e+04
1.689978928698234295e+00,1.648000000000000000e+04
1.689978928698234295e+00,1.648100000000000000e+04
1.689916770991695349e+00,1.648300000000000000e+04
1.689912918215694226e+00,1.648500000000000000e+04
1.689900422125335533e+00,1.648700000000000000e+04
1.689815676826772473e+00,1.648900000000000000e+04
1.689756225289617886e+00,1.649100000000000000e+04
1.689756225289617886e+00,1.649200000000000000e+04
1.689756225289617886e+00,1.649300000000000000e+04
