1.699073350620929901e+00,3.000000000000000000e+00
1.699020530819609354e+00,5.000000000000000000e+00
1.699003655971518256e+00,7.000000000000000000e+00
1.698975924299365836e+00,9.000000000000000000e+00
1.698979133650559303e+00,1.100000000000000000e+01
1.698970947348505067e+00,1.300000000000000000e+01
1.698953979882059206e+00,1.500000000000000000e+01
1.698948165631202656e+00,1.700000000000000000e+01
1.698945810548243784e+00,1.900000000000000000e+01
1.699005226171633742e+00,2.100000000000000000e+01
1.699016347883193445e+00,2.300000000000000000e+01
1.699031549940563490e+00,2.500000000000000000e+01
1.699031425053903588e+00,2.700000000000000000e+01
1.699018021313750459e+00,2.900000000000000000e+01
1.699033119768349032e+00,3.100000000000000000e+01
1.699028713821084891e+00,3.300000000000000000e+01
1.699049068452532341e+00,3.500000000000000000e+01
1.699051403656511861e+00,3.700000000000000000e+01
1.699045687126486737e+00,3.900000000000000000e+01
1.699032862010354972e+00,4.100000000000000000e+01
1.699088864711292945e+00,4.300000000000000000e+01
1.699068187069989522e+00,4.500000000000000000e+01
1.699076708118567813e+00,4.700000000000000000e+01
1.699070086318466677e+00,4.900000000000000000e+01
1.699038874118065312e+00,5.100000000000000000e+01
1.699052682846218021e+00,5.300000000000000000e+01
1.699054877355714144e+00,5.500000000000000000e+01
1.699052560360895248e+00,5.700000000000000000e+01
1.698966114104690117e+00,5.900000000000000000e+01
1.698959640698983087e+00,6.100000000000000000e+01
1.698988940699948325e+00,6.300000000000000000e+01
1.699042284281045312e+00,6.500000000000000000e+01
1.699032074046637142e+00,6.700000000000000000e+01
1.699028233689593437e+00,6.900000000000000000e+01
1.699013758369367411e+00,7.100000000000000000e+01
1.699089879566112682e+00,7.300000000000000000e+01
1.699076786364145608e+00,7.500000000000000000e+01
1.699084529506973862e+00,7.700000000000000000e+01
1.699058518722046607e+00,7.900000000000000000e+01
1.699077800191613585e+00,8.100000000000000000e+01
1.699114062612900211e+00,8.300000000000000000e+01
1.699125191368832999e+00,8.500000000000000000e+01
1.699125580336645847e+00,8.700000000000000000e+01
1.699306541826221650e+00,8.900000000000000000e+01
1.699285334250667301e+00,9.100000000000000000e+01
1.699274312701265721e+00,9.300000000000000000e+01
1.699281186317364245e+00,9.500000000000000000e+01
1.699284391569787500e+00,9.700000000000000000e+01
1.699275870207250128e+00,9.900000000000000000e+01
1.699296625086193613e+00,1.010000000000000000e+02
1.699307688995186583e+00,1.030000000000000000e+02
1.699303334441455871e+00,1.050000000000000000e+02
1.699315812566347450e+00,1.070000000000000000e+02
1.699304705360100920e+00,1.090000000000000000e+02
1.699312863051673173e+00,1.110000000000000000e+02
1.699318362271885929e+00,1.130000000000000000e+02
1.699271504817489342e+00,1.150000000000000000e+02
1.699265891117676119e+00,1.170000000000000000e+02
1.699330376876056592e+00,1.190000000000000000e+02
1.699321372078607562e+00,1.210000000000000000e+02
1.699324099115224085e+00,1.230000000000000000e+02
1.699362949923344912e+00,1.250000000000000000e+02
1.699360114593665649e+00,1.270000000000000000e+02
1.699372795326090646e+00,1.290000000000000000e+02
1.699334770867033662e+00,1.310000000000000000e+02
1.699295921469871073e+00,1.330000000000000000e+02
1.699297259703917984e+00,1.350000000000000000e+02
1.699313869872257410e+00,1.370000000000000000e+02
1.699318723123496966e+00,1.390000000000000000e+02
1.699318022289231900e+00,1.410000000000000000e+02
1.699280848986752135e+00,1.430000000000000000e+02
1.699285788178224843e+00,1.450000000000000000e+02
1.699283151021627747e+00,1.470000000000000000e+02
1.699303505456453589e+00,1.490000000000000000e+02
1.699276913248152443e+00,1.510000000000000000e+02
1.699280623120581479e+00,1.530000000000000000e+02
1.699269590047191469e+00,1.550000000000000000e+02
1.699260727738583387e+00,1.570000000000000000e+02
1.699277575260379924e+00,1.590000000000000000e+02
1.699277905678396206e+00,1.610000000000000000e+02
1.699284712390639829e+00,1.630000000000000000e+02
1.699348310727767153e+00,1.650000000000000000e+02
1.699362784460752618e+00,1.670000000000000000e+02
1.699360098650965822e+00,1.690000000000000000e+02
1.699349913451289718e+00,1.710000000000000000e+02
1.699347330156276481e+00,1.730000000000000000e+02
1.699311480374402050e+00,1.750000000000000000e+02
1.699282100195016687e+00,1.770000000000000000e+02
1.699290618332309766e+00,1.790000000000000000e+02
1.699288701179870964e+00,1.810000000000000000e+02
1.699294521943380598e+00,1.830000000000000000e+02
1.699262980013416247e+00,1.850000000000000000e+02
1.699280855224538422e+00,1.870000000000000000e+02
1.699257653940098756e+00,1.890000000000000000e+02
1.699245681950372733e+00,1.910000000000000000e+02
1.699243075484420551e+00,1.930000000000000000e+02
1.699234238199459401e+00,1.950000000000000000e+02
1.699226435649292766e+00,1.970000000000000000e+02
1.699212314018888392e+00,1.990000000000000000e+02
1.699304403459700241e+00,2.010000000000000000e+02
1.699290166146421033e+00,2.030000000000000000e+02
1.699298873912038044e+00,2.050000000000000000e+02
1.699323275734507588e+00,2.070000000000000000e+02
1.699313124773580430e+00,2.090000000000000000e+02
1.699314649421534984e+00,2.110000000000000000e+02
1.699304993213907045e+00,2.130000000000000000e+02
1.699287112441821401e+00,2.150000000000000000e+02
1.699300641273825407e+00,2.170000000000000000e+02
1.699318715227856158e+00,2.190000000000000000e+02
1.699321751044327922e+00,2.210000000000000000e+02
1.699285498023445973e+00,2.230000000000000000e+02
1.699276790548221117e+00,2.250000000000000000e+02
1.699277159459792408e+00,2.270000000000000000e+02
1.699286190380459471e+00,2.290000000000000000e+02
1.699289545817544100e+00,2.310000000000000000e+02
1.699274007382196805e+00,2.330000000000000000e+02
1.699220305860571711e+00,2.350000000000000000e+02
1.699213295299960125e+00,2.370000000000000000e+02
1.699210568338655136e+00,2.390000000000000000e+02
1.699206535384733874e+00,2.410000000000000000e+02
1.699198992526081087e+00,2.430000000000000000e+02
1.699202191887274394e+00,2.450000000000000000e+02
1.699206086659936332e+00,2.470000000000000000e+02
1.699206259267759922e+00,2.490000000000000000e+02
1.699216425137309638e+00,2.510000000000000000e+02
1.699215719657503953e+00,2.530000000000000000e+02
1.699218265791415217e+00,2.550000000000000000e+02
1.699220389437323231e+00,2.570000000000000000e+02
1.699225244555595538e+00,2.590000000000000000e+02
1.699273316656814137e+00,2.610000000000000000e+02
1.699255393817445281e+00,2.630000000000000000e+02
1.699212263397674283e+00,2.650000000000000000e+02
1.699211913878301727e+00,2.670000000000000000e+02
1.699190055083708684e+00,2.690000000000000000e+02
1.699179726136222701e+00,2.710000000000000000e+02
1.699180794362696645e+00,2.730000000000000000e+02
1.699176425491249365e+00,2.750000000000000000e+02
1.699175083167627776e+00,2.770000000000000000e+02
1.699206782624802958e+00,2.790000000000000000e+02
1.699216894139544021e+00,2.810000000000000000e+02
1.699248389762906486e+00,2.830000000000000000e+02
1.699248313861511095e+00,2.850000000000000000e+02
1.699251301682157322e+00,2.870000000000000000e+02
1.699265329555106563e+00,2.890000000000000000e+02
1.699344166477899654e+00,2.910000000000000000e+02
1.699339898985207542e+00,2.930000000000000000e+02
1.699333913837636434e+00,2.950000000000000000e+02
1.699336902360490953e+00,2.970000000000000000e+02
1.699329208893125553e+00,2.990000000000000000e+02
1.699380158838680099e+00,3.010000000000000000e+02
1.699356985818152976e+00,3.030000000000000000e+02
1.699373920884407418e+00,3.050000000000000000e+02
1.699387234673791047e+00,3.070000000000000000e+02
1.699408859769175217e+00,3.090000000000000000e+02
1.699408373252298654e+00,3.110000000000000000e+02
1.699468399326737655e+00,3.130000000000000000e+02
1.699468771252171662e+00,3.150000000000000000e+02
1.699768486465134343e+00,3.170000000000000000e+02
1.699721723641813842e+00,3.190000000000000000e+02
1.699713497423795294e+00,3.210000000000000000e+02
1.699725748040121109e+00,3.230000000000000000e+02
1.699677716628992252e+00,3.250000000000000000e+02
1.699651759713685317e+00,3.270000000000000000e+02
1.699657858530701615e+00,3.290000000000000000e+02
1.699607476902446068e+00,3.310000000000000000e+02
1.699619180631510185e+00,3.330000000000000000e+02
1.699597485255512463e+00,3.350000000000000000e+02
1.699605193164026362e+00,3.370000000000000000e+02
1.699520351565824594e+00,3.390000000000000000e+02
1.699528256215942612e+00,3.410000000000000000e+02
1.699541714192448483e+00,3.430000000000000000e+02
1.699528699900520579e+00,3.450000000000000000e+02
1.699580223787788169e+00,3.470000000000000000e+02
1.699569923514700820e+00,3.490000000000000000e+02
1.699550589223909114e+00,3.510000000000000000e+02
1.699581330907449006e+00,3.530000000000000000e+02
1.699571418018401836e+00,3.550000000000000000e+02
1.699569250722012370e+00,3.570000000000000000e+02
1.699565224350634063e+00,3.590000000000000000e+02
1.699575525787927921e+00,3.610000000000000000e+02
1.699584144533931029e+00,3.630000000000000000e+02
1.699564315317276586e+00,3.650000000000000000e+02
1.699566515655957621e+00,3.670000000000000000e+02
1.699577087628076244e+00,3.690000000000000000e+02
1.699564987461674059e+00,3.710000000000000000e+02
1.699537214423887388e+00,3.730000000000000000e+02
1.699530122065624704e+00,3.750000000000000000e+02
1.699537173636466170e+00,3.770000000000000000e+02
1.699542227205469880e+00,3.790000000000000000e+02
1.699547063551089421e+00,3.810000000000000000e+02
1.699532958909388158e+00,3.830000000000000000e+02
1.699529972756427698e+00,3.850000000000000000e+02
1.699506126516268756e+00,3.870000000000000000e+02
1.699508513919763431e+00,3.890000000000000000e+02
1.699497599657121549e+00,3.910000000000000000e+02
1.699528234424138917e+00,3.930000000000000000e+02
1.699501288018400613e+00,3.950000000000000000e+02
1.699514629508105834e+00,3.970000000000000000e+02
1.699452556564593264e+00,3.990000000000000000e+02
1.699429549867291556e+00,4.010000000000000000e+02
1.699439281888453390e+00,4.030000000000000000e+02
1.699470773443054528e+00,4.050000000000000000e+02
1.699465129344372105e+00,4.070000000000000000e+02
1.699486015100334590e+00,4.090000000000000000e+02
1.699486505109889745e+00,4.110000000000000000e+02
1.699473416337757836e+00,4.130000000000000000e+02
1.699476586274659473e+00,4.150000000000000000e+02
1.699496339450827342e+00,4.170000000000000000e+02
1.699496507476069063e+00,4.190000000000000000e+02
1.699440466952329976e+00,4.210000000000000000e+02
1.699437516165783091e+00,4.230000000000000000e+02
1.699445624944981859e+00,4.250000000000000000e+02
1.699452452423610094e+00,4.270000000000000000e+02
1.699405601082554673e+00,4.290000000000000000e+02
1.699411948137683925e+00,4.310000000000000000e+02
1.699409599628335821e+00,4.330000000000000000e+02
1.699428551544927002e+00,4.350000000000000000e+02
1.699450614870213760e+00,4.370000000000000000e+02
1.699519720079250451e+00,4.390000000000000000e+02
1.699532779986489661e+00,4.410000000000000000e+02
1.699541246721575805e+00,4.430000000000000000e+02
1.699549871999440187e+00,4.450000000000000000e+02
1.699536369377472766e+00,4.470000000000000000e+02
1.699520270388510834e+00,4.490000000000000000e+02
1.699515637252526856e+00,4.510000000000000000e+02
1.699521890225375698e+00,4.530000000000000000e+02
1.699521000696007533e+00,4.550000000000000000e+02
1.699507508106900877e+00,4.570000000000000000e+02
1.699496854589331862e+00,4.590000000000000000e+02
1.699490750610424206e+00,4.610000000000000000e+02
1.699496539141250651e+00,4.630000000000000000e+02
1.699497865308325695e+00,4.650000000000000000e+02
1.699523572708396824e+00,4.670000000000000000e+02
1.699878862775752175e+00,4.690000000000000000e+02
1.699869783908018572e+00,4.710000000000000000e+02
1.699871486643743212e+00,4.730000000000000000e+02
1.699860463321146931e+00,4.750000000000000000e+02
1.699863758669719394e+00,4.770000000000000000e+02
1.699875411351229104e+00,4.790000000000000000e+02
1.699866685588302229e+00,4.810000000000000000e+02
1.699860430485695018e+00,4.830000000000000000e+02
1.699818507604328399e+00,4.850000000000000000e+02
1.699799564264901530e+00,4.870000000000000000e+02
1.699791121282348660e+00,4.890000000000000000e+02
1.699778176708615307e+00,4.910000000000000000e+02
1.699743064709028584e+00,4.930000000000000000e+02
1.699743735744167150e+00,4.950000000000000000e+02
1.699732126009976696e+00,4.970000000000000000e+02
1.699735335251981283e+00,4.990000000000000000e+02
1.699772157434626285e+00,5.010000000000000000e+02
1.699772264696830515e+00,5.030000000000000000e+02
1.699758659009523720e+00,5.050000000000000000e+02
1.699705572989398839e+00,5.070000000000000000e+02
1.699708256359992786e+00,5.090000000000000000e+02
1.699740894097068855e+00,5.110000000000000000e+02
1.699718864989392397e+00,5.130000000000000000e+02
1.699713947162339478e+00,5.150000000000000000e+02
1.699732149711969731e+00,5.170000000000000000e+02
1.699741510439511716e+00,5.190000000000000000e+02
1.699745014631338869e+00,5.210000000000000000e+02
1.699741681452264341e+00,5.230000000000000000e+02
1.699734491906439215e+00,5.250000000000000000e+02
1.699721035556775117e+00,5.270000000000000000e+02
1.699728841682452085e+00,5.290000000000000000e+02
1.699735671402759607e+00,5.310000000000000000e+02
1.699762996389074132e+00,5.330000000000000000e+02
1.699773322174366053e+00,5.350000000000000000e+02
1.699778825373936542e+00,5.370000000000000000e+02
1.699788642837618102e+00,5.390000000000000000e+02
1.699753103384169961e+00,5.410000000000000000e+02
1.699763411133583091e+00,5.430000000000000000e+02
1.699743629457700411e+00,5.450000000000000000e+02
1.699774285817144737e+00,5.470000000000000000e+02
1.699775539174766426e+00,5.490000000000000000e+02
1.699820393912060412e+00,5.510000000000000000e+02
1.699806521524500180e+00,5.530000000000000000e+02
1.699801931190064286e+00,5.550000000000000000e+02
1.699786375376131753e+00,5.570000000000000000e+02
1.699749647162128952e+00,5.590000000000000000e+02
1.699814364524752319e+00,5.610000000000000000e+02
1.699845515144022379e+00,5.630000000000000000e+02
1.699840943194453002e+00,5.650000000000000000e+02
1.699845132169371720e+00,5.670000000000000000e+02
1.699813987406017413e+00,5.690000000000000000e+02
1.699803661005771405e+00,5.710000000000000000e+02
1.699807604155696872e+00,5.730000000000000000e+02
1.699791485459122731e+00,5.750000000000000000e+02
1.699803560663936342e+00,5.770000000000000000e+02
1.699818648299385559e+00,5.790000000000000000e+02
1.699868207863630909e+00,5.810000000000000000e+02
1.699824567188686908e+00,5.830000000000000000e+02
1.699821401855931891e+00,5.850000000000000000e+02
1.699834469811194015e+00,5.870000000000000000e+02
1.699856841707688249e+00,5.890000000000000000e+02
1.699859455791262519e+00,5.910000000000000000e+02
1.699873193433625529e+00,5.930000000000000000e+02
1.699863430509003903e+00,5.950000000000000000e+02
1.699890622975289256e+00,5.970000000000000000e+02
1.699893235792123036e+00,5.990000000000000000e+02
1.699902840062442966e+00,6.010000000000000000e+02
1.699907632262876334e+00,6.030000000000000000e+02
1.699955903503814980e+00,6.050000000000000000e+02
1.700020528102503592e+00,6.070000000000000000e+02
1.700021987975504079e+00,6.090000000000000000e+02
1.700016371998286369e+00,6.110000000000000000e+02
1.700029200000774621e+00,6.130000000000000000e+02
1.700015963181484624e+00,6.150000000000000000e+02
1.700019607528838517e+00,6.170000000000000000e+02
1.700025590726821134e+00,6.190000000000000000e+02
1.699997823843354183e+00,6.210000000000000000e+02
1.699994497986487163e+00,6.230000000000000000e+02
1.700007571649090998e+00,6.250000000000000000e+02
1.699997634192451423e+00,6.270000000000000000e+02
1.699990071084515497e+00,6.290000000000000000e+02
1.699987853807879867e+00,6.310000000000000000e+02
1.700000042171964765e+00,6.330000000000000000e+02
1.699983961480755035e+00,6.350000000000000000e+02
1.700028165004170422e+00,6.370000000000000000e+02
1.700015157530902377e+00,6.390000000000000000e+02
1.700001895942838459e+00,6.410000000000000000e+02
1.700012459067572035e+00,6.430000000000000000e+02
1.700010875518298548e+00,6.450000000000000000e+02
1.700013058335499316e+00,6.470000000000000000e+02
1.700058169105519434e+00,6.490000000000000000e+02
1.700091278166462994e+00,6.510000000000000000e+02
1.700082119186446139e+00,6.530000000000000000e+02
1.700060907275728672e+00,6.550000000000000000e+02
1.700050601092759628e+00,6.570000000000000000e+02
1.700038995695967614e+00,6.590000000000000000e+02
1.700052019265200887e+00,6.610000000000000000e+02
1.700075144322504839e+00,6.630000000000000000e+02
1.700069232928483220e+00,6.650000000000000000e+02
1.700068432791671080e+00,6.670000000000000000e+02
1.700066903024044729e+00,6.690000000000000000e+02
1.700056059080336190e+00,6.710000000000000000e+02
1.700084491379799445e+00,6.730000000000000000e+02
1.700081281948125689e+00,6.750000000000000000e+02
1.700065646790525520e+00,6.770000000000000000e+02
1.700043168385888315e+00,6.790000000000000000e+02
1.700047719195166174e+00,6.810000000000000000e+02
1.700033973981264435e+00,6.830000000000000000e+02
1.700033483044066207e+00,6.850000000000000000e+02
1.700037896747005561e+00,6.870000000000000000e+02
1.700011375214104170e+00,6.890000000000000000e+02
1.700018369248453176e+00,6.910000000000000000e+02
1.700020588681697697e+00,6.930000000000000000e+02
1.700030225034193210e+00,6.950000000000000000e+02
1.700011628194182833e+00,6.970000000000000000e+02
1.700007989672408737e+00,6.990000000000000000e+02
1.699990474596702494e+00,7.010000000000000000e+02
1.699980839411360245e+00,7.030000000000000000e+02
1.700007267763301799e+00,7.050000000000000000e+02
1.699969033171563337e+00,7.070000000000000000e+02
1.699964238474918732e+00,7.090000000000000000e+02
1.699987621303775898e+00,7.110000000000000000e+02
1.699990151292643192e+00,7.130000000000000000e+02
1.699974920935545475e+00,7.150000000000000000e+02
1.699930961557980069e+00,7.170000000000000000e+02
1.699939995690194161e+00,7.190000000000000000e+02
1.699949893772123577e+00,7.210000000000000000e+02
1.699967163222929400e+00,7.230000000000000000e+02
1.700013850538421689e+00,7.250000000000000000e+02
1.700016209125791988e+00,7.270000000000000000e+02
1.699960242536231680e+00,7.290000000000000000e+02
1.699984084402280882e+00,7.310000000000000000e+02
1.699972596222200982e+00,7.330000000000000000e+02
1.699984358562908193e+00,7.350000000000000000e+02
1.699965959036170204e+00,7.370000000000000000e+02
1.699983860864910934e+00,7.390000000000000000e+02
1.700014796562016928e+00,7.410000000000000000e+02
1.700018219078034631e+00,7.430000000000000000e+02
1.700039566836304195e+00,7.450000000000000000e+02
1.700080320688383440e+00,7.470000000000000000e+02
1.700072107681219524e+00,7.490000000000000000e+02
1.700065207761426889e+00,7.510000000000000000e+02
1.700075457078606078e+00,7.530000000000000000e+02
1.700059170143598974e+00,7.550000000000000000e+02
1.700055235396395359e+00,7.570000000000000000e+02
1.700058171290777409e+00,7.590000000000000000e+02
1.700046313285360933e+00,7.610000000000000000e+02
1.700013318227807435e+00,7.630000000000000000e+02
1.700008726421658789e+00,7.650000000000000000e+02
1.700009630571903241e+00,7.670000000000000000e+02
1.700007493692675675e+00,7.690000000000000000e+02
1.700002569588259682e+00,7.710000000000000000e+02
1.700013670393695220e+00,7.730000000000000000e+02
1.700000494714791088e+00,7.750000000000000000e+02
1.700006778914139760e+00,7.770000000000000000e+02
1.700022451986435090e+00,7.790000000000000000e+02
1.700018239555893595e+00,7.810000000000000000e+02
1.700020468754072089e+00,7.830000000000000000e+02
1.700004213905465855e+00,7.850000000000000000e+02
1.700052478484748386e+00,7.870000000000000000e+02
1.700056881817909149e+00,7.890000000000000000e+02
1.700067639745947323e+00,7.910000000000000000e+02
1.700154174838759635e+00,7.930000000000000000e+02
1.700168986152521100e+00,7.950000000000000000e+02
1.700171385424850579e+00,7.970000000000000000e+02
1.700129641918913803e+00,7.990000000000000000e+02
1.700145751844524433e+00,8.010000000000000000e+02
1.700147278054535471e+00,8.030000000000000000e+02
1.700116551761417627e+00,8.050000000000000000e+02
1.700153824222482735e+00,8.070000000000000000e+02
1.700135411489810400e+00,8.090000000000000000e+02
1.700108219943861521e+00,8.110000000000000000e+02
1.700099917342816402e+00,8.130000000000000000e+02
1.700103870598278277e+00,8.150000000000000000e+02
1.700107326793269591e+00,8.170000000000000000e+02
1.700075812629642247e+00,8.190000000000000000e+02
1.700085972884893382e+00,8.210000000000000000e+02
1.700095611140170604e+00,8.230000000000000000e+02
1.700116286144240263e+00,8.250000000000000000e+02
1.700130268598739169e+00,8.270000000000000000e+02
1.700120371154908216e+00,8.290000000000000000e+02
1.700114266671317154e+00,8.310000000000000000e+02
1.700078743136785864e+00,8.330000000000000000e+02
1.700075805708531451e+00,8.350000000000000000e+02
1.700078574131610676e+00,8.370000000000000000e+02
1.700074348387968337e+00,8.390000000000000000e+02
1.700063016161687424e+00,8.410000000000000000e+02
1.700065545880142581e+00,8.430000000000000000e+02
1.700061510518271035e+00,8.450000000000000000e+02
1.700048919668348368e+00,8.470000000000000000e+02
1.699973203621827356e+00,8.490000000000000000e+02
1.699985158367290028e+00,8.510000000000000000e+02
1.699952002975009924e+00,8.530000000000000000e+02
1.699951808197839753e+00,8.550000000000000000e+02
1.699688672794914979e+00,8.570000000000000000e+02
1.699704401192734693e+00,8.590000000000000000e+02
1.699698101875915635e+00,8.610000000000000000e+02
1.699687830104948061e+00,8.630000000000000000e+02
1.699648737125160736e+00,8.650000000000000000e+02
1.699640453787716332e+00,8.670000000000000000e+02
1.699620559198878889e+00,8.690000000000000000e+02
1.699616672400375395e+00,8.710000000000000000e+02
1.699633419889951869e+00,8.730000000000000000e+02
1.699628575817901499e+00,8.750000000000000000e+02
1.699631840638065494e+00,8.770000000000000000e+02
1.699623549036113790e+00,8.790000000000000000e+02
1.699620042312899315e+00,8.810000000000000000e+02
1.699619667469382644e+00,8.830000000000000000e+02
1.699581602338369191e+00,8.850000000000000000e+02
1.699585843156191878e+00,8.870000000000000000e+02
1.699576196611709111e+00,8.890000000000000000e+02
1.699570691564472602e+00,8.910000000000000000e+02
1.699596396101022089e+00,8.930000000000000000e+02
1.699605261867326078e+00,8.950000000000000000e+02
1.699599134455900495e+00,8.970000000000000000e+02
1.699588036670909519e+00,8.990000000000000000e+02
1.699593375536693207e+00,9.010000000000000000e+02
1.699596969276590874e+00,9.030000000000000000e+02
1.699599694555491869e+00,9.050000000000000000e+02
1.699604039882241846e+00,9.070000000000000000e+02
1.699590555706682160e+00,9.090000000000000000e+02
1.699599295236813745e+00,9.110000000000000000e+02
1.699603256491798442e+00,9.130000000000000000e+02
1.699589755508540412e+00,9.150000000000000000e+02
1.699633334497250070e+00,9.170000000000000000e+02
1.699760239477305701e+00,9.190000000000000000e+02
1.699772241851794208e+00,9.210000000000000000e+02
1.699776723357871555e+00,9.230000000000000000e+02
1.699776753464740775e+00,9.250000000000000000e+02
1.699770150668262314e+00,9.270000000000000000e+02
1.699779854277602809e+00,9.290000000000000000e+02
1.699823131316450908e+00,9.310000000000000000e+02
1.700041764514495179e+00,9.330000000000000000e+02
1.700097675919327367e+00,9.350000000000000000e+02
1.700108548331678682e+00,9.370000000000000000e+02
1.700152699103925746e+00,9.390000000000000000e+02
1.700165502162622078e+00,9.410000000000000000e+02
1.700160131454637069e+00,9.430000000000000000e+02
1.700146835595097716e+00,9.450000000000000000e+02
1.700120005205990603e+00,9.470000000000000000e+02
1.700114649749790319e+00,9.490000000000000000e+02
1.700101848151738260e+00,9.510000000000000000e+02
1.700112566682525861e+00,9.530000000000000000e+02
1.700122358089041219e+00,9.550000000000000000e+02
1.700116921030048633e+00,9.570000000000000000e+02
1.700379926996602453e+00,9.590000000000000000e+02
1.700331428744174422e+00,9.610000000000000000e+02
1.700330921092609193e+00,9.630000000000000000e+02
1.700374420966815459e+00,9.650000000000000000e+02
1.700388649384127371e+00,9.670000000000000000e+02
1.700391830151551709e+00,9.690000000000000000e+02
1.700356124162099247e+00,9.710000000000000000e+02
1.700351573072401701e+00,9.730000000000000000e+02
1.700351352779689407e+00,9.750000000000000000e+02
1.700361431084642216e+00,9.770000000000000000e+02
1.700361535961048665e+00,9.790000000000000000e+02
1.700388050840934362e+00,9.810000000000000000e+02
1.700351203960404067e+00,9.830000000000000000e+02
1.700370486466879605e+00,9.850000000000000000e+02
1.700373034575013431e+00,9.870000000000000000e+02
1.700391597559222312e+00,9.890000000000000000e+02
1.700353768628532602e+00,9.910000000000000000e+02
1.700346224485427493e+00,9.930000000000000000e+02
1.700346567783508789e+00,9.950000000000000000e+02
1.700335776662517340e+00,9.970000000000000000e+02
1.700347157333851777e+00,9.990000000000000000e+02
1.700330755207782207e+00,1.001000000000000000e+03
1.700331462669556482e+00,1.003000000000000000e+03
1.700368308100933312e+00,1.005000000000000000e+03
1.700370879361644105e+00,1.007000000000000000e+03
1.700381841202782907e+00,1.009000000000000000e+03
1.700384598613632559e+00,1.011000000000000000e+03
1.700395453005550728e+00,1.013000000000000000e+03
1.700406248850469204e+00,1.015000000000000000e+03
1.700394884937961537e+00,1.017000000000000000e+03
1.700401957983603163e+00,1.019000000000000000e+03
1.700348598914296572e+00,1.021000000000000000e+03
1.700130168285532761e+00,1.023000000000000000e+03
1.700136491671865313e+00,1.025000000000000000e+03
1.700136907905490213e+00,1.027000000000000000e+03
1.700120731525191831e+00,1.029000000000000000e+03
1.700089267035767238e+00,1.031000000000000000e+03
1.700093863619556611e+00,1.033000000000000000e+03
1.700094945871117424e+00,1.035000000000000000e+03
1.700091350335561025e+00,1.037000000000000000e+03
1.700106405850048574e+00,1.039000000000000000e+03
1.700094110986578810e+00,1.041000000000000000e+03
1.700131657138503893e+00,1.043000000000000000e+03
1.700133983849733577e+00,1.045000000000000000e+03
1.700147418217266670e+00,1.047000000000000000e+03
1.700166491028026305e+00,1.049000000000000000e+03
1.700141430625343952e+00,1.051000000000000000e+03
1.700107506980517380e+00,1.053000000000000000e+03
1.700129553146822792e+00,1.055000000000000000e+03
1.700129100276215777e+00,1.057000000000000000e+03
1.700182162654631846e+00,1.059000000000000000e+03
1.700168663567026561e+00,1.061000000000000000e+03
1.700167159419574192e+00,1.063000000000000000e+03
1.700158226686319551e+00,1.065000000000000000e+03
1.700155198916569521e+00,1.067000000000000000e+03
1.700171469288022541e+00,1.069000000000000000e+03
1.700180647156475544e+00,1.071000000000000000e+03
1.700256738814363899e+00,1.073000000000000000e+03
1.700273010787152206e+00,1.075000000000000000e+03
1.700274269543845085e+00,1.077000000000000000e+03
1.700273398374211764e+00,1.079000000000000000e+03
1.700276650012961577e+00,1.081000000000000000e+03
1.700275868060986406e+00,1.083000000000000000e+03
1.700264993615637987e+00,1.085000000000000000e+03
1.700282995373472827e+00,1.087000000000000000e+03
1.700299706759858198e+00,1.089000000000000000e+03
1.700313866063190238e+00,1.091000000000000000e+03
1.700257805670698730e+00,1.093000000000000000e+03
1.700247251381816982e+00,1.095000000000000000e+03
1.700229975962120443e+00,1.097000000000000000e+03
1.700252460261303833e+00,1.099000000000000000e+03
1.700248076308307654e+00,1.101000000000000000e+03
1.700244961029905744e+00,1.103000000000000000e+03
1.700244166298463533e+00,1.105000000000000000e+03
1.700252928450147749e+00,1.107000000000000000e+03
1.700271160326212838e+00,1.109000000000000000e+03
1.700251616680305444e+00,1.111000000000000000e+03
1.700288432834531571e+00,1.113000000000000000e+03
1.700285725822965555e+00,1.115000000000000000e+03
1.700267411053333122e+00,1.117000000000000000e+03
1.700240586316429159e+00,1.119000000000000000e+03
1.700278134171632871e+00,1.121000000000000000e+03
1.700267035951703143e+00,1.123000000000000000e+03
1.700271817733692847e+00,1.125000000000000000e+03
1.700270149267876230e+00,1.127000000000000000e+03
1.700291770079630727e+00,1.129000000000000000e+03
1.700228749217080670e+00,1.131000000000000000e+03
1.700238866037928398e+00,1.133000000000000000e+03
1.700235109188116045e+00,1.135000000000000000e+03
1.700201727774630633e+00,1.137000000000000000e+03
1.700204715595567961e+00,1.139000000000000000e+03
1.700203049605613304e+00,1.141000000000000000e+03
1.700200379105148318e+00,1.143000000000000000e+03
1.700205130140202581e+00,1.145000000000000000e+03
1.700219694541466486e+00,1.147000000000000000e+03
1.700239603772309094e+00,1.149000000000000000e+03
1.700226360788508639e+00,1.151000000000000000e+03
1.700228738505469517e+00,1.153000000000000000e+03
1.700219569204200143e+00,1.155000000000000000e+03
1.700231146899302326e+00,1.157000000000000000e+03
1.700253305551194805e+00,1.159000000000000000e+03
1.700244128639102348e+00,1.161000000000000000e+03
1.700249740636627038e+00,1.163000000000000000e+03
1.700287647986104655e+00,1.165000000000000000e+03
1.700300891470325926e+00,1.167000000000000000e+03
1.700297134426921097e+00,1.169000000000000000e+03
1.700294752250711694e+00,1.171000000000000000e+03
1.700274880020598678e+00,1.173000000000000000e+03
1.700277532705803507e+00,1.175000000000000000e+03
1.700272984851493474e+00,1.177000000000000000e+03
1.700292532759085651e+00,1.179000000000000000e+03
1.700294840898171511e+00,1.181000000000000000e+03
1.700294177487512659e+00,1.183000000000000000e+03
1.700305742905714901e+00,1.185000000000000000e+03
1.700315292919885923e+00,1.187000000000000000e+03
1.700291894016360938e+00,1.189000000000000000e+03
1.700281852321106957e+00,1.191000000000000000e+03
1.700299749159255525e+00,1.193000000000000000e+03
1.700258959837791073e+00,1.195000000000000000e+03
1.700290103344807013e+00,1.197000000000000000e+03
1.700268281709225837e+00,1.199000000000000000e+03
1.700252711541067940e+00,1.201000000000000000e+03
1.700257403404488610e+00,1.203000000000000000e+03
1.700261996102495621e+00,1.205000000000000000e+03
1.700274298248151794e+00,1.207000000000000000e+03
1.700267593912468733e+00,1.209000000000000000e+03
1.700261951951444361e+00,1.211000000000000000e+03
1.700243326097140795e+00,1.213000000000000000e+03
1.700223550780140647e+00,1.215000000000000000e+03
1.700218570792608075e+00,1.217000000000000000e+03
1.700228716254494010e+00,1.219000000000000000e+03
1.700217137854494354e+00,1.221000000000000000e+03
1.700207173019147477e+00,1.223000000000000000e+03
1.700206018034575495e+00,1.225000000000000000e+03
1.700172876419393297e+00,1.227000000000000000e+03
1.700094071609056234e+00,1.229000000000000000e+03
1.700072684077690521e+00,1.231000000000000000e+03
1.700080979806600556e+00,1.233000000000000000e+03
1.700074182573823700e+00,1.235000000000000000e+03
1.700092799318946302e+00,1.237000000000000000e+03
1.700098524842435399e+00,1.239000000000000000e+03
1.700075704180822544e+00,1.241000000000000000e+03
1.700075740157936277e+00,1.243000000000000000e+03
1.700077075128476611e+00,1.245000000000000000e+03
1.700065363288436826e+00,1.247000000000000000e+03
1.700065196012688018e+00,1.249000000000000000e+03
1.700078320858492642e+00,1.251000000000000000e+03
1.700085135163882821e+00,1.253000000000000000e+03
1.700082588781087534e+00,1.255000000000000000e+03
1.700168845021723163e+00,1.257000000000000000e+03
1.700180374569042030e+00,1.259000000000000000e+03
1.700184415671967209e+00,1.261000000000000000e+03
1.700171383147447424e+00,1.263000000000000000e+03
1.700183552082132454e+00,1.265000000000000000e+03
1.700192032716002277e+00,1.267000000000000000e+03
1.700143706250724529e+00,1.269000000000000000e+03
1.700139949102604353e+00,1.271000000000000000e+03
1.700147768767272138e+00,1.273000000000000000e+03
1.700136676082022680e+00,1.275000000000000000e+03
1.700119249723028858e+00,1.277000000000000000e+03
1.700100938073695334e+00,1.279000000000000000e+03
1.700080005378352910e+00,1.281000000000000000e+03
1.700065170287670568e+00,1.283000000000000000e+03
1.700069191634301591e+00,1.285000000000000000e+03
1.700079135813717945e+00,1.287000000000000000e+03
1.700042343860262539e+00,1.289000000000000000e+03
1.700055411785196258e+00,1.291000000000000000e+03
1.700051058408480698e+00,1.293000000000000000e+03
1.700070611896736361e+00,1.295000000000000000e+03
1.700073550038922354e+00,1.297000000000000000e+03
1.700096783859548433e+00,1.299000000000000000e+03
1.700108965198272148e+00,1.301000000000000000e+03
1.700157000139775221e+00,1.303000000000000000e+03
1.700158218390456000e+00,1.305000000000000000e+03
1.700172318054275600e+00,1.307000000000000000e+03
1.700228371512056746e+00,1.309000000000000000e+03
1.700225826076484203e+00,1.311000000000000000e+03
1.700223664506394838e+00,1.313000000000000000e+03
1.700242767017239309e+00,1.315000000000000000e+03
1.700227531364336908e+00,1.317000000000000000e+03
1.700222780162948588e+00,1.319000000000000000e+03
1.700240604713054271e+00,1.321000000000000000e+03
1.700255931472529403e+00,1.323000000000000000e+03
1.700292808802973177e+00,1.325000000000000000e+03
1.700293287485640237e+00,1.327000000000000000e+03
1.700246566583676788e+00,1.329000000000000000e+03
1.700253210249821789e+00,1.331000000000000000e+03
1.700264047797517719e+00,1.333000000000000000e+03
1.700259422420845601e+00,1.335000000000000000e+03
1.700272716674874562e+00,1.337000000000000000e+03
1.700272763111147611e+00,1.339000000000000000e+03
1.700267428559205651e+00,1.341000000000000000e+03
1.700251033340749229e+00,1.343000000000000000e+03
1.700186467133901091e+00,1.345000000000000000e+03
1.700171624964399220e+00,1.347000000000000000e+03
1.700194766395417556e+00,1.349000000000000000e+03
1.700200108231846974e+00,1.351000000000000000e+03
1.700199904855257627e+00,1.353000000000000000e+03
1.700211481823616477e+00,1.355000000000000000e+03
1.700191564082759621e+00,1.357000000000000000e+03
1.700184896495542386e+00,1.359000000000000000e+03
1.700177959555950080e+00,1.361000000000000000e+03
1.700201809296906008e+00,1.363000000000000000e+03
1.700208790348889165e+00,1.365000000000000000e+03
1.700219310296818165e+00,1.367000000000000000e+03
1.700183444831381729e+00,1.369000000000000000e+03
1.700171731752996074e+00,1.371000000000000000e+03
1.700165737699625090e+00,1.373000000000000000e+03
1.700179013281843732e+00,1.375000000000000000e+03
1.700192176062209626e+00,1.377000000000000000e+03
1.700190918851941291e+00,1.379000000000000000e+03
1.700198057527447348e+00,1.381000000000000000e+03
1.700185960116036510e+00,1.383000000000000000e+03
1.700182175595063905e+00,1.385000000000000000e+03
1.700223879085436485e+00,1.387000000000000000e+03
1.700227927996317945e+00,1.389000000000000000e+03
1.700263489005267470e+00,1.391000000000000000e+03
1.700230519599279067e+00,1.393000000000000000e+03
1.700229750101704740e+00,1.395000000000000000e+03
1.700248724734453987e+00,1.397000000000000000e+03
1.700249304759527957e+00,1.399000000000000000e+03
1.700215866894253969e+00,1.401000000000000000e+03
1.700217021236353210e+00,1.403000000000000000e+03
1.700213512536361993e+00,1.405000000000000000e+03
1.700212688274538309e+00,1.407000000000000000e+03
1.700205113787926381e+00,1.409000000000000000e+03
1.700205294526742517e+00,1.411000000000000000e+03
1.700151613149156749e+00,1.413000000000000000e+03
1.700124364272591837e+00,1.415000000000000000e+03
1.700118978263798653e+00,1.417000000000000000e+03
1.700108291429138774e+00,1.419000000000000000e+03
1.700083263326663596e+00,1.421000000000000000e+03
1.700136639095701341e+00,1.423000000000000000e+03
1.700167766110467271e+00,1.425000000000000000e+03
1.700172976333909958e+00,1.427000000000000000e+03
1.700168984215822965e+00,1.429000000000000000e+03
1.700165572439986450e+00,1.431000000000000000e+03
1.700180203422733349e+00,1.433000000000000000e+03
1.700153297591537882e+00,1.435000000000000000e+03
1.700161751943399135e+00,1.437000000000000000e+03
1.700170809362591129e+00,1.439000000000000000e+03
1.700203391530896946e+00,1.441000000000000000e+03
1.700209672006861794e+00,1.443000000000000000e+03
1.700214353421319657e+00,1.445000000000000000e+03
1.700195394355842327e+00,1.447000000000000000e+03
1.700178668350676991e+00,1.449000000000000000e+03
1.700178112417653820e+00,1.451000000000000000e+03
1.700209117906213541e+00,1.453000000000000000e+03
1.700234791388234523e+00,1.455000000000000000e+03
1.699971243616249517e+00,1.457000000000000000e+03
1.699960513185508892e+00,1.459000000000000000e+03
1.699949785479976105e+00,1.461000000000000000e+03
1.699950796833245015e+00,1.463000000000000000e+03
1.699701378777755290e+00,1.465000000000000000e+03
1.699686630122429376e+00,1.467000000000000000e+03
1.699674657988714310e+00,1.469000000000000000e+03
1.699680886382678446e+00,1.471000000000000000e+03
1.699685193417750817e+00,1.473000000000000000e+03
1.699680937124657731e+00,1.475000000000000000e+03
1.699678607149652354e+00,1.477000000000000000e+03
1.699675977971989882e+00,1.479000000000000000e+03
1.699671971260398706e+00,1.481000000000000000e+03
1.699664907902709077e+00,1.483000000000000000e+03
1.699671322469439083e+00,1.485000000000000000e+03
1.699656752308711161e+00,1.487000000000000000e+03
1.699636750290819176e+00,1.489000000000000000e+03
1.699631466904296895e+00,1.491000000000000000e+03
1.699667854825030577e+00,1.493000000000000000e+03
1.699677631512834797e+00,1.495000000000000000e+03
1.699722555834333404e+00,1.497000000000000000e+03
1.699721033269431469e+00,1.499000000000000000e+03
1.699726241181630293e+00,1.501000000000000000e+03
1.699726900410627239e+00,1.503000000000000000e+03
1.699714770451564050e+00,1.505000000000000000e+03
1.699697604774913939e+00,1.507000000000000000e+03
1.699960877911453450e+00,1.509000000000000000e+03
1.699955953239268069e+00,1.511000000000000000e+03
1.699950314650056526e+00,1.513000000000000000e+03
1.699971885108921388e+00,1.515000000000000000e+03
1.699980910671860412e+00,1.517000000000000000e+03
1.699973419594074331e+00,1.519000000000000000e+03
1.699975656024967918e+00,1.521000000000000000e+03
1.699976395113754979e+00,1.523000000000000000e+03
1.699972008351734454e+00,1.525000000000000000e+03
1.699966023096657786e+00,1.527000000000000000e+03
1.699967277322300907e+00,1.529000000000000000e+03
1.699966794030161266e+00,1.531000000000000000e+03
1.699952721533051658e+00,1.533000000000000000e+03
1.699954247483117076e+00,1.535000000000000000e+03
1.699916416844773792e+00,1.537000000000000000e+03
1.699906626287481126e+00,1.539000000000000000e+03
1.699907277079964585e+00,1.541000000000000000e+03
1.699895731169290380e+00,1.543000000000000000e+03
1.699901568994026002e+00,1.545000000000000000e+03
1.699988156116744031e+00,1.547000000000000000e+03
1.699990309258759824e+00,1.549000000000000000e+03
1.699985614300128622e+00,1.551000000000000000e+03
1.699985679163276586e+00,1.553000000000000000e+03
1.699951174469681581e+00,1.555000000000000000e+03
1.699952353748365175e+00,1.557000000000000000e+03
1.699950428641861633e+00,1.559000000000000000e+03
1.699994005203174119e+00,1.561000000000000000e+03
1.699950317167494118e+00,1.563000000000000000e+03
1.699946668929680937e+00,1.565000000000000000e+03
1.699962111517590246e+00,1.567000000000000000e+03
1.699962594148708206e+00,1.569000000000000000e+03
1.699953962484525460e+00,1.571000000000000000e+03
1.699956690479956345e+00,1.573000000000000000e+03
1.699944528902067820e+00,1.575000000000000000e+03
1.699875272629133960e+00,1.577000000000000000e+03
1.699705324899922099e+00,1.579000000000000000e+03
1.699662111890593685e+00,1.581000000000000000e+03
1.699655436876321701e+00,1.583000000000000000e+03
1.699668251312938860e+00,1.585000000000000000e+03
1.699671357213381029e+00,1.587000000000000000e+03
1.699664412886928933e+00,1.589000000000000000e+03
1.699658780868619212e+00,1.591000000000000000e+03
1.699673187287011666e+00,1.593000000000000000e+03
1.699670491296701114e+00,1.595000000000000000e+03
1.699660863978283976e+00,1.597000000000000000e+03
1.699620946021954015e+00,1.599000000000000000e+03
1.699608627096460989e+00,1.601000000000000000e+03
1.699628408468424778e+00,1.603000000000000000e+03
1.699637135343953220e+00,1.605000000000000000e+03
1.699644723158319159e+00,1.607000000000000000e+03
1.699635261674655062e+00,1.609000000000000000e+03
1.699637789483961825e+00,1.611000000000000000e+03
1.699671706382812841e+00,1.613000000000000000e+03
1.699657783811300060e+00,1.615000000000000000e+03
1.699660947049629112e+00,1.617000000000000000e+03
1.699665686630521977e+00,1.619000000000000000e+03
1.699654361538523561e+00,1.621000000000000000e+03
1.699650487545561806e+00,1.623000000000000000e+03
1.699657847220380935e+00,1.625000000000000000e+03
1.699646541988116821e+00,1.627000000000000000e+03
1.699636315016071153e+00,1.629000000000000000e+03
1.699681928999764446e+00,1.631000000000000000e+03
1.699648765334141443e+00,1.633000000000000000e+03
1.699645507862101557e+00,1.635000000000000000e+03
1.699863741708834919e+00,1.637000000000000000e+03
1.699907284242687000e+00,1.639000000000000000e+03
1.699867671185093299e+00,1.641000000000000000e+03
1.699845461137449387e+00,1.643000000000000000e+03
1.699871545907061909e+00,1.645000000000000000e+03
1.699840993108915788e+00,1.647000000000000000e+03
1.699818188403972252e+00,1.649000000000000000e+03
1.699821120311790112e+00,1.651000000000000000e+03
1.699791487066633744e+00,1.653000000000000000e+03
1.699813009656496732e+00,1.655000000000000000e+03
1.699831658169245641e+00,1.657000000000000000e+03
1.699806609727701368e+00,1.659000000000000000e+03
1.699987215044147071e+00,1.661000000000000000e+03
1.700246947701604006e+00,1.663000000000000000e+03
1.700255243103830693e+00,1.665000000000000000e+03
1.700251808196955761e+00,1.667000000000000000e+03
1.700251619826095961e+00,1.669000000000000000e+03
1.700258296497090260e+00,1.671000000000000000e+03
1.700247997102661612e+00,1.673000000000000000e+03
1.700254488326642166e+00,1.675000000000000000e+03
1.700207719870833634e+00,1.677000000000000000e+03
1.700208332054353066e+00,1.679000000000000000e+03
1.700218258388118242e+00,1.681000000000000000e+03
1.700215978532620298e+00,1.683000000000000000e+03
1.700232697347152211e+00,1.685000000000000000e+03
1.700227381066468313e+00,1.687000000000000000e+03
1.700231801067355608e+00,1.689000000000000000e+03
1.700228943734890530e+00,1.691000000000000000e+03
1.700215846595933611e+00,1.693000000000000000e+03
1.700209786638141374e+00,1.695000000000000000e+03
1.700216467367896556e+00,1.697000000000000000e+03
1.700227568661871302e+00,1.699000000000000000e+03
1.700189306844261727e+00,1.701000000000000000e+03
1.700215840356063879e+00,1.703000000000000000e+03
1.700227936050944910e+00,1.705000000000000000e+03
1.700228042862252931e+00,1.707000000000000000e+03
1.700225058751334339e+00,1.709000000000000000e+03
1.700199489893577498e+00,1.711000000000000000e+03
1.700180547089045646e+00,1.713000000000000000e+03
1.700176535861450455e+00,1.715000000000000000e+03
1.700214542830947195e+00,1.717000000000000000e+03
1.700227344564377630e+00,1.719000000000000000e+03
1.700227257390674707e+00,1.721000000000000000e+03
1.700237052584543385e+00,1.723000000000000000e+03
1.700234038071335663e+00,1.725000000000000000e+03
1.700223233682127244e+00,1.727000000000000000e+03
1.700192642938209486e+00,1.729000000000000000e+03
1.700184500319163572e+00,1.731000000000000000e+03
1.700131114497233753e+00,1.733000000000000000e+03
1.700144473967082126e+00,1.735000000000000000e+03
1.700127467634321876e+00,1.737000000000000000e+03
1.700116535768852133e+00,1.739000000000000000e+03
1.700121345972351428e+00,1.741000000000000000e+03
1.700121257012158216e+00,1.743000000000000000e+03
1.700181298358701465e+00,1.745000000000000000e+03
1.700164646404879631e+00,1.747000000000000000e+03
1.700168046583811376e+00,1.749000000000000000e+03
1.700184787743529657e+00,1.751000000000000000e+03
1.700148881757523878e+00,1.753000000000000000e+03
1.700149962584756480e+00,1.755000000000000000e+03
1.700176889802429869e+00,1.757000000000000000e+03
1.700179107561574643e+00,1.759000000000000000e+03
1.700188140335482156e+00,1.761000000000000000e+03
1.700148094917052877e+00,1.763000000000000000e+03
1.700154652627026142e+00,1.765000000000000000e+03
1.700046985596012084e+00,1.767000000000000000e+03
1.700082574434457205e+00,1.769000000000000000e+03
1.700049975251750611e+00,1.771000000000000000e+03
1.700051069349561184e+00,1.773000000000000000e+03
1.700068906985766848e+00,1.775000000000000000e+03
1.700069781821283765e+00,1.777000000000000000e+03
1.700059905742201227e+00,1.779000000000000000e+03
1.700029276312449822e+00,1.781000000000000000e+03
1.700034875480122443e+00,1.783000000000000000e+03
1.700073127111772608e+00,1.785000000000000000e+03
1.700072777174682193e+00,1.787000000000000000e+03
1.700081319495929222e+00,1.789000000000000000e+03
1.700115756420720992e+00,1.791000000000000000e+03
1.700132521578131772e+00,1.793000000000000000e+03
1.700125015063344458e+00,1.795000000000000000e+03
1.700120352981546290e+00,1.797000000000000000e+03
1.700113011620753456e+00,1.799000000000000000e+03
1.700375555753757428e+00,1.801000000000000000e+03
1.700332304738723543e+00,1.803000000000000000e+03
1.700331323016382790e+00,1.805000000000000000e+03
1.700262021522015887e+00,1.807000000000000000e+03
1.700267139864119814e+00,1.809000000000000000e+03
1.700301585235630242e+00,1.811000000000000000e+03
1.700405693338027824e+00,1.813000000000000000e+03
1.700401034298067993e+00,1.815000000000000000e+03
1.700405020496588593e+00,1.817000000000000000e+03
1.700415504655245602e+00,1.819000000000000000e+03
1.700416235562068445e+00,1.821000000000000000e+03
1.700437024477791104e+00,1.823000000000000000e+03
1.700431203421714610e+00,1.825000000000000000e+03
1.700466431134504131e+00,1.827000000000000000e+03
1.700465708067190329e+00,1.829000000000000000e+03
1.700468282395084740e+00,1.831000000000000000e+03
1.700465642925585330e+00,1.833000000000000000e+03
1.700469913557640211e+00,1.835000000000000000e+03
1.700478648760919143e+00,1.837000000000000000e+03
1.700476111388509848e+00,1.839000000000000000e+03
1.700463159508766919e+00,1.841000000000000000e+03
1.700458888631366738e+00,1.843000000000000000e+03
1.700467103954135029e+00,1.845000000000000000e+03
1.700479664375712296e+00,1.847000000000000000e+03
1.700522852060406098e+00,1.849000000000000000e+03
1.700433626045339874e+00,1.851000000000000000e+03
1.700429475741907170e+00,1.853000000000000000e+03
1.700448739475000304e+00,1.855000000000000000e+03
1.700443486390209369e+00,1.857000000000000000e+03
1.700448745115556992e+00,1.859000000000000000e+03
1.700474808931087933e+00,1.861000000000000000e+03
1.700483172196681769e+00,1.863000000000000000e+03
1.700498035556537335e+00,1.865000000000000000e+03
1.700496784424800900e+00,1.867000000000000000e+03
1.700514642178820868e+00,1.869000000000000000e+03
1.700469557149773658e+00,1.871000000000000000e+03
1.700479009725003987e+00,1.873000000000000000e+03
1.700453934468563189e+00,1.875000000000000000e+03
1.700466143214663495e+00,1.877000000000000000e+03
1.700457276738998047e+00,1.879000000000000000e+03
1.700467984071833305e+00,1.881000000000000000e+03
1.700728322972964168e+00,1.883000000000000000e+03
1.700727155124265311e+00,1.885000000000000000e+03
1.700701547048656836e+00,1.887000000000000000e+03
1.700700763771182844e+00,1.889000000000000000e+03
1.700725127561187211e+00,1.891000000000000000e+03
1.700713521189007205e+00,1.893000000000000000e+03
1.700709352047965472e+00,1.895000000000000000e+03
1.700731431050906517e+00,1.897000000000000000e+03
1.700720088966815258e+00,1.899000000000000000e+03
1.700719433160392979e+00,1.901000000000000000e+03
1.700632811313058657e+00,1.903000000000000000e+03
1.700655960149097590e+00,1.905000000000000000e+03
1.700655800600795686e+00,1.907000000000000000e+03
1.700649424097878892e+00,1.909000000000000000e+03
1.700640709861159117e+00,1.911000000000000000e+03
1.700644946280999825e+00,1.913000000000000000e+03
1.700628213021916357e+00,1.915000000000000000e+03
1.700580211249945517e+00,1.917000000000000000e+03
1.700580873426826622e+00,1.919000000000000000e+03
1.700577453948864726e+00,1.921000000000000000e+03
1.700565863417899504e+00,1.923000000000000000e+03
1.700602883594264814e+00,1.925000000000000000e+03
1.700607702923851994e+00,1.927000000000000000e+03
1.700573318550386182e+00,1.929000000000000000e+03
1.700568062733138541e+00,1.931000000000000000e+03
1.700544371684998390e+00,1.933000000000000000e+03
1.700531582981097634e+00,1.935000000000000000e+03
1.700541604949481256e+00,1.937000000000000000e+03
1.700494152060233022e+00,1.939000000000000000e+03
1.700504351830009364e+00,1.941000000000000000e+03
1.700492202520080598e+00,1.943000000000000000e+03
1.700502353813323264e+00,1.945000000000000000e+03
1.700487436372835726e+00,1.947000000000000000e+03
1.700481020993760195e+00,1.949000000000000000e+03
1.700498897517112695e+00,1.951000000000000000e+03
1.700504316071256072e+00,1.953000000000000000e+03
1.700504128751907151e+00,1.955000000000000000e+03
1.700468285512554356e+00,1.957000000000000000e+03
1.700495329511994891e+00,1.959000000000000000e+03
1.700472190039964415e+00,1.961000000000000000e+03
1.700484270993848801e+00,1.963000000000000000e+03
1.700504166312879484e+00,1.965000000000000000e+03
1.700474530808218976e+00,1.967000000000000000e+03
1.700485589075068305e+00,1.969000000000000000e+03
1.700488818792453394e+00,1.971000000000000000e+03
1.700504383879780201e+00,1.973000000000000000e+03
1.700499121141866077e+00,1.975000000000000000e+03
1.700480507815210984e+00,1.977000000000000000e+03
1.700471425270564385e+00,1.979000000000000000e+03
1.700477429766137139e+00,1.981000000000000000e+03
1.700462411566896259e+00,1.983000000000000000e+03
1.700475546357474554e+00,1.985000000000000000e+03
1.700469883599374565e+00,1.987000000000000000e+03
1.700468899708579951e+00,1.989000000000000000e+03
1.700486746100932089e+00,1.991000000000000000e+03
1.700483516426282593e+00,1.993000000000000000e+03
1.700471950132728560e+00,1.995000000000000000e+03
1.700467214730558618e+00,1.997000000000000000e+03
1.700478768487321712e+00,1.999000000000000000e+03
1.700465355345502472e+00,2.001000000000000000e+03
