,Iteration,Time,Fitness,FEvals,Population Size,Mutation Rate,max_iters
0,0,0.020743500000000026,5.0,100.0,100,0.01,4096
1,1,0.08859620000000001,3.0,202.0,100,0.01,4096
2,2,0.1156581000000001,3.0,303.0,100,0.01,4096
3,3,0.13829460000000005,3.0,404.0,100,0.01,4096
4,4,0.16075050000000002,2.0,506.0,100,0.01,4096
5,5,0.18718279999999998,2.0,607.0,100,0.01,4096
6,6,0.22069230000000006,1.0,709.0,100,0.01,4096
7,7,0.24813909999999995,1.0,810.0,100,0.01,4096
8,8,0.27050550000000007,1.0,911.0,100,0.01,4096
9,9,0.2932395000000001,1.0,1012.0,100,0.01,4096
10,10,0.3160341,1.0,1113.0,100,0.01,4096
11,11,0.3384244999999999,1.0,1214.0,100,0.01,4096
12,12,0.3603284,1.0,1315.0,100,0.01,4096
13,13,0.38241400000000003,1.0,1416.0,100,0.01,4096
14,14,0.4042022999999999,1.0,1517.0,100,0.01,4096
15,15,0.4259953999999999,1.0,1618.0,100,0.01,4096
16,16,0.44863049999999993,0.0,1720.0,100,0.01,4096
