,Iteration,Fitness,FEvals,Time,State,schedule_type,schedule_init_temp,schedule_decay,schedule_min_temp,schedule_current_value,Temperature,max_iters
0,0,5.0,0,0.0004374000000000322,"[7, 5, 4, 0, 7, 1, 7, 2]",geometric,8,0.99,0.001,7.999964831942081,8,4096
1,32,7.0,63,0.05590099999999998,"[5, 6, 2, 0, 4, 5, 3, 6]",geometric,8,0.99,0.001,7.99550667175125,8,4096
2,64,8.0,125,0.07725460000000006,"[5, 5, 5, 4, 2, 1, 3, 5]",geometric,8,0.99,0.001,7.993790933369424,8,4096
3,96,6.0,181,0.09504230000000002,"[5, 5, 3, 6, 7, 1, 1, 1]",geometric,8,0.99,0.001,7.992361992237817,8,4096
4,128,6.0,241,0.11500559999999993,"[2, 0, 0, 7, 4, 4, 6, 1]",geometric,8,0.99,0.001,7.990758582611195,8,4096
5,160,4.0,293,0.13430989999999987,"[2, 2, 7, 5, 3, 6, 4, 1]",geometric,8,0.99,0.001,7.9892084083778245,8,4096
6,192,3.0,342,0.15379140000000002,"[5, 7, 1, 6, 0, 2, 6, 1]",geometric,8,0.99,0.001,7.9876443095075835,8,4096
7,224,8.0,395,0.17550329999999992,"[0, 4, 7, 6, 3, 3, 3, 7]",geometric,8,0.99,0.001,7.985901500727692,8,4096
8,256,5.0,440,0.20644839999999998,"[6, 7, 7, 2, 3, 1, 7, 4]",geometric,8,0.99,0.001,7.98341820248236,8,4096
9,288,2.0,484,0.23794760000000004,"[1, 5, 4, 2, 7, 5, 3, 0]",geometric,8,0.99,0.001,7.980891231606295,8,4096
10,320,3.0,527,0.2599658,"[5, 1, 6, 2, 7, 3, 3, 0]",geometric,8,0.99,0.001,7.979125333147673,8,4096
11,352,2.0,566,0.28657,"[5, 1, 6, 0, 6, 4, 7, 3]",geometric,8,0.99,0.001,7.976992150678185,8,4096
12,384,2.0,605,0.3136261,"[4, 1, 5, 0, 6, 4, 7, 3]",geometric,8,0.99,0.001,7.974823318794903,8,4096
13,416,2.0,645,0.3450755999999999,"[7, 1, 4, 0, 6, 4, 2, 5]",geometric,8,0.99,0.001,7.972303050613183,8,4096
14,448,2.0,681,0.36983980000000005,"[6, 1, 6, 0, 6, 4, 7, 5]",geometric,8,0.99,0.001,7.970319082752637,8,4096
15,480,2.0,720,0.3952076,"[5, 1, 6, 0, 6, 4, 7, 2]",geometric,8,0.99,0.001,7.968287269790654,8,4096
16,512,2.0,756,0.4210471,"[5, 3, 6, 0, 6, 1, 7, 2]",geometric,8,0.99,0.001,7.9662182088972395,8,4096
17,544,0.0,786,0.44384730000000006,"[5, 3, 6, 0, 7, 1, 4, 2]",geometric,8,0.99,0.001,7.964392961778595,8,4096
18,576,0.0,786,0.44384730000000006,"[5, 3, 6, 0, 7, 1, 4, 2]",geometric,8,0.99,0.001,7.964392961778595,8,4096
19,608,0.0,786,0.44384730000000006,"[5, 3, 6, 0, 7, 1, 4, 2]",geometric,8,0.99,0.001,7.964392961778595,8,4096
20,640,0.0,786,0.44384730000000006,"[5, 3, 6, 0, 7, 1, 4, 2]",geometric,8,0.99,0.001,7.964392961778595,8,4096
21,672,0.0,786,0.44384730000000006,"[5, 3, 6, 0, 7, 1, 4, 2]",geometric,8,0.99,0.001,7.964392961778595,8,4096
22,704,0.0,786,0.44384730000000006,"[5, 3, 6, 0, 7, 1, 4, 2]",geometric,8,0.99,0.001,7.964392961778595,8,4096
23,736,0.0,786,0.44384730000000006,"[5, 3, 6, 0, 7, 1, 4, 2]",geometric,8,0.99,0.001,7.964392961778595,8,4096
24,768,0.0,786,0.44384730000000006,"[5, 3, 6, 0, 7, 1, 4, 2]",geometric,8,0.99,0.001,7.964392961778595,8,4096
25,800,0.0,786,0.44384730000000006,"[5, 3, 6, 0, 7, 1, 4, 2]",geometric,8,0.99,0.001,7.964392961778595,8,4096
26,832,0.0,786,0.44384730000000006,"[5, 3, 6, 0, 7, 1, 4, 2]",geometric,8,0.99,0.001,7.964392961778595,8,4096
27,864,0.0,786,0.44384730000000006,"[5, 3, 6, 0, 7, 1, 4, 2]",geometric,8,0.99,0.001,7.964392961778595,8,4096
28,896,0.0,786,0.44384730000000006,"[5, 3, 6, 0, 7, 1, 4, 2]",geometric,8,0.99,0.001,7.964392961778595,8,4096
29,928,0.0,786,0.44384730000000006,"[5, 3, 6, 0, 7, 1, 4, 2]",geometric,8,0.99,0.001,7.964392961778595,8,4096
30,960,0.0,786,0.44384730000000006,"[5, 3, 6, 0, 7, 1, 4, 2]",geometric,8,0.99,0.001,7.964392961778595,8,4096
31,992,0.0,786,0.44384730000000006,"[5, 3, 6, 0, 7, 1, 4, 2]",geometric,8,0.99,0.001,7.964392961778595,8,4096
32,1024,0.0,786,0.44384730000000006,"[5, 3, 6, 0, 7, 1, 4, 2]",geometric,8,0.99,0.001,7.964392961778595,8,4096
33,1056,0.0,786,0.44384730000000006,"[5, 3, 6, 0, 7, 1, 4, 2]",geometric,8,0.99,0.001,7.964392961778595,8,4096
34,1088,0.0,786,0.44384730000000006,"[5, 3, 6, 0, 7, 1, 4, 2]",geometric,8,0.99,0.001,7.964392961778595,8,4096
35,1120,0.0,786,0.44384730000000006,"[5, 3, 6, 0, 7, 1, 4, 2]",geometric,8,0.99,0.001,7.964392961778595,8,4096
36,1152,0.0,786,0.44384730000000006,"[5, 3, 6, 0, 7, 1, 4, 2]",geometric,8,0.99,0.001,7.964392961778595,8,4096
37,1184,0.0,786,0.44384730000000006,"[5, 3, 6, 0, 7, 1, 4, 2]",geometric,8,0.99,0.001,7.964392961778595,8,4096
38,1216,0.0,786,0.44384730000000006,"[5, 3, 6, 0, 7, 1, 4, 2]",geometric,8,0.99,0.001,7.964392961778595,8,4096
39,1248,0.0,786,0.44384730000000006,"[5, 3, 6, 0, 7, 1, 4, 2]",geometric,8,0.99,0.001,7.964392961778595,8,4096
40,1280,0.0,786,0.44384730000000006,"[5, 3, 6, 0, 7, 1, 4, 2]",geometric,8,0.99,0.001,7.964392961778595,8,4096
41,1312,0.0,786,0.44384730000000006,"[5, 3, 6, 0, 7, 1, 4, 2]",geometric,8,0.99,0.001,7.964392961778595,8,4096
42,1344,0.0,786,0.44384730000000006,"[5, 3, 6, 0, 7, 1, 4, 2]",geometric,8,0.99,0.001,7.964392961778595,8,4096
43,1376,0.0,786,0.44384730000000006,"[5, 3, 6, 0, 7, 1, 4, 2]",geometric,8,0.99,0.001,7.964392961778595,8,4096
44,1408,0.0,786,0.44384730000000006,"[5, 3, 6, 0, 7, 1, 4, 2]",geometric,8,0.99,0.001,7.964392961778595,8,4096
45,1440,0.0,786,0.44384730000000006,"[5, 3, 6, 0, 7, 1, 4, 2]",geometric,8,0.99,0.001,7.964392961778595,8,4096
46,1472,0.0,786,0.44384730000000006,"[5, 3, 6, 0, 7, 1, 4, 2]",geometric,8,0.99,0.001,7.964392961778595,8,4096
47,1504,0.0,786,0.44384730000000006,"[5, 3, 6, 0, 7, 1, 4, 2]",geometric,8,0.99,0.001,7.964392961778595,8,4096
48,1536,0.0,786,0.44384730000000006,"[5, 3, 6, 0, 7, 1, 4, 2]",geometric,8,0.99,0.001,7.964392961778595,8,4096
49,1568,0.0,786,0.44384730000000006,"[5, 3, 6, 0, 7, 1, 4, 2]",geometric,8,0.99,0.001,7.964392961778595,8,4096
50,1600,0.0,786,0.44384730000000006,"[5, 3, 6, 0, 7, 1, 4, 2]",geometric,8,0.99,0.001,7.964392961778595,8,4096
51,1632,0.0,786,0.44384730000000006,"[5, 3, 6, 0, 7, 1, 4, 2]",geometric,8,0.99,0.001,7.964392961778595,8,4096
52,1664,0.0,786,0.44384730000000006,"[5, 3, 6, 0, 7, 1, 4, 2]",geometric,8,0.99,0.001,7.964392961778595,8,4096
53,1696,0.0,786,0.44384730000000006,"[5, 3, 6, 0, 7, 1, 4, 2]",geometric,8,0.99,0.001,7.964392961778595,8,4096
54,1728,0.0,786,0.44384730000000006,"[5, 3, 6, 0, 7, 1, 4, 2]",geometric,8,0.99,0.001,7.964392961778595,8,4096
55,1760,0.0,786,0.44384730000000006,"[5, 3, 6, 0, 7, 1, 4, 2]",geometric,8,0.99,0.001,7.964392961778595,8,4096
56,1792,0.0,786,0.44384730000000006,"[5, 3, 6, 0, 7, 1, 4, 2]",geometric,8,0.99,0.001,7.964392961778595,8,4096
57,1824,0.0,786,0.44384730000000006,"[5, 3, 6, 0, 7, 1, 4, 2]",geometric,8,0.99,0.001,7.964392961778595,8,4096
58,1856,0.0,786,0.44384730000000006,"[5, 3, 6, 0, 7, 1, 4, 2]",geometric,8,0.99,0.001,7.964392961778595,8,4096
59,1888,0.0,786,0.44384730000000006,"[5, 3, 6, 0, 7, 1, 4, 2]",geometric,8,0.99,0.001,7.964392961778595,8,4096
60,1920,0.0,786,0.44384730000000006,"[5, 3, 6, 0, 7, 1, 4, 2]",geometric,8,0.99,0.001,7.964392961778595,8,4096
61,1952,0.0,786,0.44384730000000006,"[5, 3, 6, 0, 7, 1, 4, 2]",geometric,8,0.99,0.001,7.964392961778595,8,4096
62,1984,0.0,786,0.44384730000000006,"[5, 3, 6, 0, 7, 1, 4, 2]",geometric,8,0.99,0.001,7.964392961778595,8,4096
63,2016,0.0,786,0.44384730000000006,"[5, 3, 6, 0, 7, 1, 4, 2]",geometric,8,0.99,0.001,7.964392961778595,8,4096
64,2048,0.0,786,0.44384730000000006,"[5, 3, 6, 0, 7, 1, 4, 2]",geometric,8,0.99,0.001,7.964392961778595,8,4096
65,2080,0.0,786,0.44384730000000006,"[5, 3, 6, 0, 7, 1, 4, 2]",geometric,8,0.99,0.001,7.964392961778595,8,4096
66,2112,0.0,786,0.44384730000000006,"[5, 3, 6, 0, 7, 1, 4, 2]",geometric,8,0.99,0.001,7.964392961778595,8,4096
67,2144,0.0,786,0.44384730000000006,"[5, 3, 6, 0, 7, 1, 4, 2]",geometric,8,0.99,0.001,7.964392961778595,8,4096
68,2176,0.0,786,0.44384730000000006,"[5, 3, 6, 0, 7, 1, 4, 2]",geometric,8,0.99,0.001,7.964392961778595,8,4096
69,2208,0.0,786,0.44384730000000006,"[5, 3, 6, 0, 7, 1, 4, 2]",geometric,8,0.99,0.001,7.964392961778595,8,4096
70,2240,0.0,786,0.44384730000000006,"[5, 3, 6, 0, 7, 1, 4, 2]",geometric,8,0.99,0.001,7.964392961778595,8,4096
71,2272,0.0,786,0.44384730000000006,"[5, 3, 6, 0, 7, 1, 4, 2]",geometric,8,0.99,0.001,7.964392961778595,8,4096
72,2304,0.0,786,0.44384730000000006,"[5, 3, 6, 0, 7, 1, 4, 2]",geometric,8,0.99,0.001,7.964392961778595,8,4096
73,2336,0.0,786,0.44384730000000006,"[5, 3, 6, 0, 7, 1, 4, 2]",geometric,8,0.99,0.001,7.964392961778595,8,4096
74,2368,0.0,786,0.44384730000000006,"[5, 3, 6, 0, 7, 1, 4, 2]",geometric,8,0.99,0.001,7.964392961778595,8,4096
75,2400,0.0,786,0.44384730000000006,"[5, 3, 6, 0, 7, 1, 4, 2]",geometric,8,0.99,0.001,7.964392961778595,8,4096
76,2432,0.0,786,0.44384730000000006,"[5, 3, 6, 0, 7, 1, 4, 2]",geometric,8,0.99,0.001,7.964392961778595,8,4096
77,2464,0.0,786,0.44384730000000006,"[5, 3, 6, 0, 7, 1, 4, 2]",geometric,8,0.99,0.001,7.964392961778595,8,4096
78,2496,0.0,786,0.44384730000000006,"[5, 3, 6, 0, 7, 1, 4, 2]",geometric,8,0.99,0.001,7.964392961778595,8,4096
79,2528,0.0,786,0.44384730000000006,"[5, 3, 6, 0, 7, 1, 4, 2]",geometric,8,0.99,0.001,7.964392961778595,8,4096
80,2560,0.0,786,0.44384730000000006,"[5, 3, 6, 0, 7, 1, 4, 2]",geometric,8,0.99,0.001,7.964392961778595,8,4096
81,2592,0.0,786,0.44384730000000006,"[5, 3, 6, 0, 7, 1, 4, 2]",geometric,8,0.99,0.001,7.964392961778595,8,4096
82,2624,0.0,786,0.44384730000000006,"[5, 3, 6, 0, 7, 1, 4, 2]",geometric,8,0.99,0.001,7.964392961778595,8,4096
83,2656,0.0,786,0.44384730000000006,"[5, 3, 6, 0, 7, 1, 4, 2]",geometric,8,0.99,0.001,7.964392961778595,8,4096
84,2688,0.0,786,0.44384730000000006,"[5, 3, 6, 0, 7, 1, 4, 2]",geometric,8,0.99,0.001,7.964392961778595,8,4096
85,2720,0.0,786,0.44384730000000006,"[5, 3, 6, 0, 7, 1, 4, 2]",geometric,8,0.99,0.001,7.964392961778595,8,4096
86,2752,0.0,786,0.44384730000000006,"[5, 3, 6, 0, 7, 1, 4, 2]",geometric,8,0.99,0.001,7.964392961778595,8,4096
87,2784,0.0,786,0.44384730000000006,"[5, 3, 6, 0, 7, 1, 4, 2]",geometric,8,0.99,0.001,7.964392961778595,8,4096
88,2816,0.0,786,0.44384730000000006,"[5, 3, 6, 0, 7, 1, 4, 2]",geometric,8,0.99,0.001,7.964392961778595,8,4096
89,2848,0.0,786,0.44384730000000006,"[5, 3, 6, 0, 7, 1, 4, 2]",geometric,8,0.99,0.001,7.964392961778595,8,4096
90,2880,0.0,786,0.44384730000000006,"[5, 3, 6, 0, 7, 1, 4, 2]",geometric,8,0.99,0.001,7.964392961778595,8,4096
91,2912,0.0,786,0.44384730000000006,"[5, 3, 6, 0, 7, 1, 4, 2]",geometric,8,0.99,0.001,7.964392961778595,8,4096
92,2944,0.0,786,0.44384730000000006,"[5, 3, 6, 0, 7, 1, 4, 2]",geometric,8,0.99,0.001,7.964392961778595,8,4096
93,2976,0.0,786,0.44384730000000006,"[5, 3, 6, 0, 7, 1, 4, 2]",geometric,8,0.99,0.001,7.964392961778595,8,4096
94,3008,0.0,786,0.44384730000000006,"[5, 3, 6, 0, 7, 1, 4, 2]",geometric,8,0.99,0.001,7.964392961778595,8,4096
95,3040,0.0,786,0.44384730000000006,"[5, 3, 6, 0, 7, 1, 4, 2]",geometric,8,0.99,0.001,7.964392961778595,8,4096
96,3072,0.0,786,0.44384730000000006,"[5, 3, 6, 0, 7, 1, 4, 2]",geometric,8,0.99,0.001,7.964392961778595,8,4096
97,3104,0.0,786,0.44384730000000006,"[5, 3, 6, 0, 7, 1, 4, 2]",geometric,8,0.99,0.001,7.964392961778595,8,4096
98,3136,0.0,786,0.44384730000000006,"[5, 3, 6, 0, 7, 1, 4, 2]",geometric,8,0.99,0.001,7.964392961778595,8,4096
99,3168,0.0,786,0.44384730000000006,"[5, 3, 6, 0, 7, 1, 4, 2]",geometric,8,0.99,0.001,7.964392961778595,8,4096
100,3200,0.0,786,0.44384730000000006,"[5, 3, 6, 0, 7, 1, 4, 2]",geometric,8,0.99,0.001,7.964392961778595,8,4096
101,3232,0.0,786,0.44384730000000006,"[5, 3, 6, 0, 7, 1, 4, 2]",geometric,8,0.99,0.001,7.964392961778595,8,4096
102,3264,0.0,786,0.44384730000000006,"[5, 3, 6, 0, 7, 1, 4, 2]",geometric,8,0.99,0.001,7.964392961778595,8,4096
103,3296,0.0,786,0.44384730000000006,"[5, 3, 6, 0, 7, 1, 4, 2]",geometric,8,0.99,0.001,7.964392961778595,8,4096
104,3328,0.0,786,0.44384730000000006,"[5, 3, 6, 0, 7, 1, 4, 2]",geometric,8,0.99,0.001,7.964392961778595,8,4096
105,3360,0.0,786,0.44384730000000006,"[5, 3, 6, 0, 7, 1, 4, 2]",geometric,8,0.99,0.001,7.964392961778595,8,4096
106,3392,0.0,786,0.44384730000000006,"[5, 3, 6, 0, 7, 1, 4, 2]",geometric,8,0.99,0.001,7.964392961778595,8,4096
107,3424,0.0,786,0.44384730000000006,"[5, 3, 6, 0, 7, 1, 4, 2]",geometric,8,0.99,0.001,7.964392961778595,8,4096
108,3456,0.0,786,0.44384730000000006,"[5, 3, 6, 0, 7, 1, 4, 2]",geometric,8,0.99,0.001,7.964392961778595,8,4096
109,3488,0.0,786,0.44384730000000006,"[5, 3, 6, 0, 7, 1, 4, 2]",geometric,8,0.99,0.001,7.964392961778595,8,4096
110,3520,0.0,786,0.44384730000000006,"[5, 3, 6, 0, 7, 1, 4, 2]",geometric,8,0.99,0.001,7.964392961778595,8,4096
111,3552,0.0,786,0.44384730000000006,"[5, 3, 6, 0, 7, 1, 4, 2]",geometric,8,0.99,0.001,7.964392961778595,8,4096
112,3584,0.0,786,0.44384730000000006,"[5, 3, 6, 0, 7, 1, 4, 2]",geometric,8,0.99,0.001,7.964392961778595,8,4096
113,3616,0.0,786,0.44384730000000006,"[5, 3, 6, 0, 7, 1, 4, 2]",geometric,8,0.99,0.001,7.964392961778595,8,4096
114,3648,0.0,786,0.44384730000000006,"[5, 3, 6, 0, 7, 1, 4, 2]",geometric,8,0.99,0.001,7.964392961778595,8,4096
115,3680,0.0,786,0.44384730000000006,"[5, 3, 6, 0, 7, 1, 4, 2]",geometric,8,0.99,0.001,7.964392961778595,8,4096
116,3712,0.0,786,0.44384730000000006,"[5, 3, 6, 0, 7, 1, 4, 2]",geometric,8,0.99,0.001,7.964392961778595,8,4096
117,3744,0.0,786,0.44384730000000006,"[5, 3, 6, 0, 7, 1, 4, 2]",geometric,8,0.99,0.001,7.964392961778595,8,4096
118,3776,0.0,786,0.44384730000000006,"[5, 3, 6, 0, 7, 1, 4, 2]",geometric,8,0.99,0.001,7.964392961778595,8,4096
119,3808,0.0,786,0.44384730000000006,"[5, 3, 6, 0, 7, 1, 4, 2]",geometric,8,0.99,0.001,7.964392961778595,8,4096
120,3840,0.0,786,0.44384730000000006,"[5, 3, 6, 0, 7, 1, 4, 2]",geometric,8,0.99,0.001,7.964392961778595,8,4096
121,3872,0.0,786,0.44384730000000006,"[5, 3, 6, 0, 7, 1, 4, 2]",geometric,8,0.99,0.001,7.964392961778595,8,4096
122,3904,0.0,786,0.44384730000000006,"[5, 3, 6, 0, 7, 1, 4, 2]",geometric,8,0.99,0.001,7.964392961778595,8,4096
123,3936,0.0,786,0.44384730000000006,"[5, 3, 6, 0, 7, 1, 4, 2]",geometric,8,0.99,0.001,7.964392961778595,8,4096
124,3968,0.0,786,0.44384730000000006,"[5, 3, 6, 0, 7, 1, 4, 2]",geometric,8,0.99,0.001,7.964392961778595,8,4096
125,4000,0.0,786,0.44384730000000006,"[5, 3, 6, 0, 7, 1, 4, 2]",geometric,8,0.99,0.001,7.964392961778595,8,4096
126,4032,0.0,786,0.44384730000000006,"[5, 3, 6, 0, 7, 1, 4, 2]",geometric,8,0.99,0.001,7.964392961778595,8,4096
127,4064,0.0,786,0.44384730000000006,"[5, 3, 6, 0, 7, 1, 4, 2]",geometric,8,0.99,0.001,7.964392961778595,8,4096
