,Iteration,Fitness,FEvals,Time,State,use_fast_mimic,Population Size,Keep Percent,max_iters,fast_mimic
0,0,22.0,100,0.05367449999999985,"[23, 8, 7, 7, 18, 18, 20, 8, 9, 6, 22, 23, 1, 6, 22, 18, 2, 9, 8, 11, 1, 23, 19, 14]",True,100,0.5,4096,True
1,32,8.0,3337,6.3963252,"[19.0, 5.0, 3.0, 14.0, 16.0, 22.0, 12.0, 15.0, 23.0, 0.0, 4.0, 20.0, 9.0, 0.0, 2.0, 17.0, 21.0, 11.0, 10.0, 1.0, 18.0, 7.0, 18.0, 13.0]",True,100,0.5,4096,True
2,64,7.0,6570,13.7261112,"[19.0, 5.0, 3.0, 14.0, 16.0, 22.0, 12.0, 15.0, 23.0, 0.0, 4.0, 20.0, 9.0, 0.0, 2.0, 17.0, 21.0, 0.0, 10.0, 1.0, 18.0, 7.0, 18.0, 13.0]",True,100,0.5,4096,True
3,96,7.0,9802,21.062447,"[19.0, 5.0, 3.0, 14.0, 16.0, 22.0, 12.0, 15.0, 23.0, 0.0, 4.0, 20.0, 9.0, 0.0, 2.0, 17.0, 21.0, 0.0, 10.0, 1.0, 18.0, 7.0, 18.0, 13.0]",True,100,0.5,4096,True
4,128,7.0,13034,29.394055,"[19.0, 5.0, 3.0, 14.0, 16.0, 22.0, 12.0, 15.0, 23.0, 0.0, 4.0, 20.0, 9.0, 0.0, 2.0, 17.0, 21.0, 0.0, 10.0, 1.0, 18.0, 7.0, 18.0, 13.0]",True,100,0.5,4096,True
5,160,7.0,13539,30.790795799999998,"[19.0, 5.0, 3.0, 14.0, 16.0, 22.0, 12.0, 15.0, 23.0, 0.0, 4.0, 20.0, 9.0, 0.0, 2.0, 17.0, 21.0, 0.0, 10.0, 1.0, 18.0, 7.0, 18.0, 13.0]",True,100,0.5,4096,True
6,192,7.0,13539,30.790795799999998,"[19.0, 5.0, 3.0, 14.0, 16.0, 22.0, 12.0, 15.0, 23.0, 0.0, 4.0, 20.0, 9.0, 0.0, 2.0, 17.0, 21.0, 0.0, 10.0, 1.0, 18.0, 7.0, 18.0, 13.0]",True,100,0.5,4096,True
7,224,7.0,13539,30.790795799999998,"[19.0, 5.0, 3.0, 14.0, 16.0, 22.0, 12.0, 15.0, 23.0, 0.0, 4.0, 20.0, 9.0, 0.0, 2.0, 17.0, 21.0, 0.0, 10.0, 1.0, 18.0, 7.0, 18.0, 13.0]",True,100,0.5,4096,True
8,256,7.0,13539,30.790795799999998,"[19.0, 5.0, 3.0, 14.0, 16.0, 22.0, 12.0, 15.0, 23.0, 0.0, 4.0, 20.0, 9.0, 0.0, 2.0, 17.0, 21.0, 0.0, 10.0, 1.0, 18.0, 7.0, 18.0, 13.0]",True,100,0.5,4096,True
9,288,7.0,13539,30.790795799999998,"[19.0, 5.0, 3.0, 14.0, 16.0, 22.0, 12.0, 15.0, 23.0, 0.0, 4.0, 20.0, 9.0, 0.0, 2.0, 17.0, 21.0, 0.0, 10.0, 1.0, 18.0, 7.0, 18.0, 13.0]",True,100,0.5,4096,True
10,320,7.0,13539,30.790795799999998,"[19.0, 5.0, 3.0, 14.0, 16.0, 22.0, 12.0, 15.0, 23.0, 0.0, 4.0, 20.0, 9.0, 0.0, 2.0, 17.0, 21.0, 0.0, 10.0, 1.0, 18.0, 7.0, 18.0, 13.0]",True,100,0.5,4096,True
11,352,7.0,13539,30.790795799999998,"[19.0, 5.0, 3.0, 14.0, 16.0, 22.0, 12.0, 15.0, 23.0, 0.0, 4.0, 20.0, 9.0, 0.0, 2.0, 17.0, 21.0, 0.0, 10.0, 1.0, 18.0, 7.0, 18.0, 13.0]",True,100,0.5,4096,True
12,384,7.0,13539,30.790795799999998,"[19.0, 5.0, 3.0, 14.0, 16.0, 22.0, 12.0, 15.0, 23.0, 0.0, 4.0, 20.0, 9.0, 0.0, 2.0, 17.0, 21.0, 0.0, 10.0, 1.0, 18.0, 7.0, 18.0, 13.0]",True,100,0.5,4096,True
13,416,7.0,13539,30.790795799999998,"[19.0, 5.0, 3.0, 14.0, 16.0, 22.0, 12.0, 15.0, 23.0, 0.0, 4.0, 20.0, 9.0, 0.0, 2.0, 17.0, 21.0, 0.0, 10.0, 1.0, 18.0, 7.0, 18.0, 13.0]",True,100,0.5,4096,True
14,448,7.0,13539,30.790795799999998,"[19.0, 5.0, 3.0, 14.0, 16.0, 22.0, 12.0, 15.0, 23.0, 0.0, 4.0, 20.0, 9.0, 0.0, 2.0, 17.0, 21.0, 0.0, 10.0, 1.0, 18.0, 7.0, 18.0, 13.0]",True,100,0.5,4096,True
15,480,7.0,13539,30.790795799999998,"[19.0, 5.0, 3.0, 14.0, 16.0, 22.0, 12.0, 15.0, 23.0, 0.0, 4.0, 20.0, 9.0, 0.0, 2.0, 17.0, 21.0, 0.0, 10.0, 1.0, 18.0, 7.0, 18.0, 13.0]",True,100,0.5,4096,True
16,512,7.0,13539,30.790795799999998,"[19.0, 5.0, 3.0, 14.0, 16.0, 22.0, 12.0, 15.0, 23.0, 0.0, 4.0, 20.0, 9.0, 0.0, 2.0, 17.0, 21.0, 0.0, 10.0, 1.0, 18.0, 7.0, 18.0, 13.0]",True,100,0.5,4096,True
17,544,7.0,13539,30.790795799999998,"[19.0, 5.0, 3.0, 14.0, 16.0, 22.0, 12.0, 15.0, 23.0, 0.0, 4.0, 20.0, 9.0, 0.0, 2.0, 17.0, 21.0, 0.0, 10.0, 1.0, 18.0, 7.0, 18.0, 13.0]",True,100,0.5,4096,True
18,576,7.0,13539,30.790795799999998,"[19.0, 5.0, 3.0, 14.0, 16.0, 22.0, 12.0, 15.0, 23.0, 0.0, 4.0, 20.0, 9.0, 0.0, 2.0, 17.0, 21.0, 0.0, 10.0, 1.0, 18.0, 7.0, 18.0, 13.0]",True,100,0.5,4096,True
19,608,7.0,13539,30.790795799999998,"[19.0, 5.0, 3.0, 14.0, 16.0, 22.0, 12.0, 15.0, 23.0, 0.0, 4.0, 20.0, 9.0, 0.0, 2.0, 17.0, 21.0, 0.0, 10.0, 1.0, 18.0, 7.0, 18.0, 13.0]",True,100,0.5,4096,True
20,640,7.0,13539,30.790795799999998,"[19.0, 5.0, 3.0, 14.0, 16.0, 22.0, 12.0, 15.0, 23.0, 0.0, 4.0, 20.0, 9.0, 0.0, 2.0, 17.0, 21.0, 0.0, 10.0, 1.0, 18.0, 7.0, 18.0, 13.0]",True,100,0.5,4096,True
21,672,7.0,13539,30.790795799999998,"[19.0, 5.0, 3.0, 14.0, 16.0, 22.0, 12.0, 15.0, 23.0, 0.0, 4.0, 20.0, 9.0, 0.0, 2.0, 17.0, 21.0, 0.0, 10.0, 1.0, 18.0, 7.0, 18.0, 13.0]",True,100,0.5,4096,True
22,704,7.0,13539,30.790795799999998,"[19.0, 5.0, 3.0, 14.0, 16.0, 22.0, 12.0, 15.0, 23.0, 0.0, 4.0, 20.0, 9.0, 0.0, 2.0, 17.0, 21.0, 0.0, 10.0, 1.0, 18.0, 7.0, 18.0, 13.0]",True,100,0.5,4096,True
23,736,7.0,13539,30.790795799999998,"[19.0, 5.0, 3.0, 14.0, 16.0, 22.0, 12.0, 15.0, 23.0, 0.0, 4.0, 20.0, 9.0, 0.0, 2.0, 17.0, 21.0, 0.0, 10.0, 1.0, 18.0, 7.0, 18.0, 13.0]",True,100,0.5,4096,True
24,768,7.0,13539,30.790795799999998,"[19.0, 5.0, 3.0, 14.0, 16.0, 22.0, 12.0, 15.0, 23.0, 0.0, 4.0, 20.0, 9.0, 0.0, 2.0, 17.0, 21.0, 0.0, 10.0, 1.0, 18.0, 7.0, 18.0, 13.0]",True,100,0.5,4096,True
25,800,7.0,13539,30.790795799999998,"[19.0, 5.0, 3.0, 14.0, 16.0, 22.0, 12.0, 15.0, 23.0, 0.0, 4.0, 20.0, 9.0, 0.0, 2.0, 17.0, 21.0, 0.0, 10.0, 1.0, 18.0, 7.0, 18.0, 13.0]",True,100,0.5,4096,True
26,832,7.0,13539,30.790795799999998,"[19.0, 5.0, 3.0, 14.0, 16.0, 22.0, 12.0, 15.0, 23.0, 0.0, 4.0, 20.0, 9.0, 0.0, 2.0, 17.0, 21.0, 0.0, 10.0, 1.0, 18.0, 7.0, 18.0, 13.0]",True,100,0.5,4096,True
27,864,7.0,13539,30.790795799999998,"[19.0, 5.0, 3.0, 14.0, 16.0, 22.0, 12.0, 15.0, 23.0, 0.0, 4.0, 20.0, 9.0, 0.0, 2.0, 17.0, 21.0, 0.0, 10.0, 1.0, 18.0, 7.0, 18.0, 13.0]",True,100,0.5,4096,True
28,896,7.0,13539,30.790795799999998,"[19.0, 5.0, 3.0, 14.0, 16.0, 22.0, 12.0, 15.0, 23.0, 0.0, 4.0, 20.0, 9.0, 0.0, 2.0, 17.0, 21.0, 0.0, 10.0, 1.0, 18.0, 7.0, 18.0, 13.0]",True,100,0.5,4096,True
29,928,7.0,13539,30.790795799999998,"[19.0, 5.0, 3.0, 14.0, 16.0, 22.0, 12.0, 15.0, 23.0, 0.0, 4.0, 20.0, 9.0, 0.0, 2.0, 17.0, 21.0, 0.0, 10.0, 1.0, 18.0, 7.0, 18.0, 13.0]",True,100,0.5,4096,True
30,960,7.0,13539,30.790795799999998,"[19.0, 5.0, 3.0, 14.0, 16.0, 22.0, 12.0, 15.0, 23.0, 0.0, 4.0, 20.0, 9.0, 0.0, 2.0, 17.0, 21.0, 0.0, 10.0, 1.0, 18.0, 7.0, 18.0, 13.0]",True,100,0.5,4096,True
31,992,7.0,13539,30.790795799999998,"[19.0, 5.0, 3.0, 14.0, 16.0, 22.0, 12.0, 15.0, 23.0, 0.0, 4.0, 20.0, 9.0, 0.0, 2.0, 17.0, 21.0, 0.0, 10.0, 1.0, 18.0, 7.0, 18.0, 13.0]",True,100,0.5,4096,True
32,1024,7.0,13539,30.790795799999998,"[19.0, 5.0, 3.0, 14.0, 16.0, 22.0, 12.0, 15.0, 23.0, 0.0, 4.0, 20.0, 9.0, 0.0, 2.0, 17.0, 21.0, 0.0, 10.0, 1.0, 18.0, 7.0, 18.0, 13.0]",True,100,0.5,4096,True
33,1056,7.0,13539,30.790795799999998,"[19.0, 5.0, 3.0, 14.0, 16.0, 22.0, 12.0, 15.0, 23.0, 0.0, 4.0, 20.0, 9.0, 0.0, 2.0, 17.0, 21.0, 0.0, 10.0, 1.0, 18.0, 7.0, 18.0, 13.0]",True,100,0.5,4096,True
34,1088,7.0,13539,30.790795799999998,"[19.0, 5.0, 3.0, 14.0, 16.0, 22.0, 12.0, 15.0, 23.0, 0.0, 4.0, 20.0, 9.0, 0.0, 2.0, 17.0, 21.0, 0.0, 10.0, 1.0, 18.0, 7.0, 18.0, 13.0]",True,100,0.5,4096,True
35,1120,7.0,13539,30.790795799999998,"[19.0, 5.0, 3.0, 14.0, 16.0, 22.0, 12.0, 15.0, 23.0, 0.0, 4.0, 20.0, 9.0, 0.0, 2.0, 17.0, 21.0, 0.0, 10.0, 1.0, 18.0, 7.0, 18.0, 13.0]",True,100,0.5,4096,True
36,1152,7.0,13539,30.790795799999998,"[19.0, 5.0, 3.0, 14.0, 16.0, 22.0, 12.0, 15.0, 23.0, 0.0, 4.0, 20.0, 9.0, 0.0, 2.0, 17.0, 21.0, 0.0, 10.0, 1.0, 18.0, 7.0, 18.0, 13.0]",True,100,0.5,4096,True
37,1184,7.0,13539,30.790795799999998,"[19.0, 5.0, 3.0, 14.0, 16.0, 22.0, 12.0, 15.0, 23.0, 0.0, 4.0, 20.0, 9.0, 0.0, 2.0, 17.0, 21.0, 0.0, 10.0, 1.0, 18.0, 7.0, 18.0, 13.0]",True,100,0.5,4096,True
38,1216,7.0,13539,30.790795799999998,"[19.0, 5.0, 3.0, 14.0, 16.0, 22.0, 12.0, 15.0, 23.0, 0.0, 4.0, 20.0, 9.0, 0.0, 2.0, 17.0, 21.0, 0.0, 10.0, 1.0, 18.0, 7.0, 18.0, 13.0]",True,100,0.5,4096,True
39,1248,7.0,13539,30.790795799999998,"[19.0, 5.0, 3.0, 14.0, 16.0, 22.0, 12.0, 15.0, 23.0, 0.0, 4.0, 20.0, 9.0, 0.0, 2.0, 17.0, 21.0, 0.0, 10.0, 1.0, 18.0, 7.0, 18.0, 13.0]",True,100,0.5,4096,True
40,1280,7.0,13539,30.790795799999998,"[19.0, 5.0, 3.0, 14.0, 16.0, 22.0, 12.0, 15.0, 23.0, 0.0, 4.0, 20.0, 9.0, 0.0, 2.0, 17.0, 21.0, 0.0, 10.0, 1.0, 18.0, 7.0, 18.0, 13.0]",True,100,0.5,4096,True
41,1312,7.0,13539,30.790795799999998,"[19.0, 5.0, 3.0, 14.0, 16.0, 22.0, 12.0, 15.0, 23.0, 0.0, 4.0, 20.0, 9.0, 0.0, 2.0, 17.0, 21.0, 0.0, 10.0, 1.0, 18.0, 7.0, 18.0, 13.0]",True,100,0.5,4096,True
42,1344,7.0,13539,30.790795799999998,"[19.0, 5.0, 3.0, 14.0, 16.0, 22.0, 12.0, 15.0, 23.0, 0.0, 4.0, 20.0, 9.0, 0.0, 2.0, 17.0, 21.0, 0.0, 10.0, 1.0, 18.0, 7.0, 18.0, 13.0]",True,100,0.5,4096,True
43,1376,7.0,13539,30.790795799999998,"[19.0, 5.0, 3.0, 14.0, 16.0, 22.0, 12.0, 15.0, 23.0, 0.0, 4.0, 20.0, 9.0, 0.0, 2.0, 17.0, 21.0, 0.0, 10.0, 1.0, 18.0, 7.0, 18.0, 13.0]",True,100,0.5,4096,True
44,1408,7.0,13539,30.790795799999998,"[19.0, 5.0, 3.0, 14.0, 16.0, 22.0, 12.0, 15.0, 23.0, 0.0, 4.0, 20.0, 9.0, 0.0, 2.0, 17.0, 21.0, 0.0, 10.0, 1.0, 18.0, 7.0, 18.0, 13.0]",True,100,0.5,4096,True
45,1440,7.0,13539,30.790795799999998,"[19.0, 5.0, 3.0, 14.0, 16.0, 22.0, 12.0, 15.0, 23.0, 0.0, 4.0, 20.0, 9.0, 0.0, 2.0, 17.0, 21.0, 0.0, 10.0, 1.0, 18.0, 7.0, 18.0, 13.0]",True,100,0.5,4096,True
46,1472,7.0,13539,30.790795799999998,"[19.0, 5.0, 3.0, 14.0, 16.0, 22.0, 12.0, 15.0, 23.0, 0.0, 4.0, 20.0, 9.0, 0.0, 2.0, 17.0, 21.0, 0.0, 10.0, 1.0, 18.0, 7.0, 18.0, 13.0]",True,100,0.5,4096,True
47,1504,7.0,13539,30.790795799999998,"[19.0, 5.0, 3.0, 14.0, 16.0, 22.0, 12.0, 15.0, 23.0, 0.0, 4.0, 20.0, 9.0, 0.0, 2.0, 17.0, 21.0, 0.0, 10.0, 1.0, 18.0, 7.0, 18.0, 13.0]",True,100,0.5,4096,True
48,1536,7.0,13539,30.790795799999998,"[19.0, 5.0, 3.0, 14.0, 16.0, 22.0, 12.0, 15.0, 23.0, 0.0, 4.0, 20.0, 9.0, 0.0, 2.0, 17.0, 21.0, 0.0, 10.0, 1.0, 18.0, 7.0, 18.0, 13.0]",True,100,0.5,4096,True
49,1568,7.0,13539,30.790795799999998,"[19.0, 5.0, 3.0, 14.0, 16.0, 22.0, 12.0, 15.0, 23.0, 0.0, 4.0, 20.0, 9.0, 0.0, 2.0, 17.0, 21.0, 0.0, 10.0, 1.0, 18.0, 7.0, 18.0, 13.0]",True,100,0.5,4096,True
50,1600,7.0,13539,30.790795799999998,"[19.0, 5.0, 3.0, 14.0, 16.0, 22.0, 12.0, 15.0, 23.0, 0.0, 4.0, 20.0, 9.0, 0.0, 2.0, 17.0, 21.0, 0.0, 10.0, 1.0, 18.0, 7.0, 18.0, 13.0]",True,100,0.5,4096,True
51,1632,7.0,13539,30.790795799999998,"[19.0, 5.0, 3.0, 14.0, 16.0, 22.0, 12.0, 15.0, 23.0, 0.0, 4.0, 20.0, 9.0, 0.0, 2.0, 17.0, 21.0, 0.0, 10.0, 1.0, 18.0, 7.0, 18.0, 13.0]",True,100,0.5,4096,True
52,1664,7.0,13539,30.790795799999998,"[19.0, 5.0, 3.0, 14.0, 16.0, 22.0, 12.0, 15.0, 23.0, 0.0, 4.0, 20.0, 9.0, 0.0, 2.0, 17.0, 21.0, 0.0, 10.0, 1.0, 18.0, 7.0, 18.0, 13.0]",True,100,0.5,4096,True
53,1696,7.0,13539,30.790795799999998,"[19.0, 5.0, 3.0, 14.0, 16.0, 22.0, 12.0, 15.0, 23.0, 0.0, 4.0, 20.0, 9.0, 0.0, 2.0, 17.0, 21.0, 0.0, 10.0, 1.0, 18.0, 7.0, 18.0, 13.0]",True,100,0.5,4096,True
54,1728,7.0,13539,30.790795799999998,"[19.0, 5.0, 3.0, 14.0, 16.0, 22.0, 12.0, 15.0, 23.0, 0.0, 4.0, 20.0, 9.0, 0.0, 2.0, 17.0, 21.0, 0.0, 10.0, 1.0, 18.0, 7.0, 18.0, 13.0]",True,100,0.5,4096,True
55,1760,7.0,13539,30.790795799999998,"[19.0, 5.0, 3.0, 14.0, 16.0, 22.0, 12.0, 15.0, 23.0, 0.0, 4.0, 20.0, 9.0, 0.0, 2.0, 17.0, 21.0, 0.0, 10.0, 1.0, 18.0, 7.0, 18.0, 13.0]",True,100,0.5,4096,True
56,1792,7.0,13539,30.790795799999998,"[19.0, 5.0, 3.0, 14.0, 16.0, 22.0, 12.0, 15.0, 23.0, 0.0, 4.0, 20.0, 9.0, 0.0, 2.0, 17.0, 21.0, 0.0, 10.0, 1.0, 18.0, 7.0, 18.0, 13.0]",True,100,0.5,4096,True
57,1824,7.0,13539,30.790795799999998,"[19.0, 5.0, 3.0, 14.0, 16.0, 22.0, 12.0, 15.0, 23.0, 0.0, 4.0, 20.0, 9.0, 0.0, 2.0, 17.0, 21.0, 0.0, 10.0, 1.0, 18.0, 7.0, 18.0, 13.0]",True,100,0.5,4096,True
58,1856,7.0,13539,30.790795799999998,"[19.0, 5.0, 3.0, 14.0, 16.0, 22.0, 12.0, 15.0, 23.0, 0.0, 4.0, 20.0, 9.0, 0.0, 2.0, 17.0, 21.0, 0.0, 10.0, 1.0, 18.0, 7.0, 18.0, 13.0]",True,100,0.5,4096,True
59,1888,7.0,13539,30.790795799999998,"[19.0, 5.0, 3.0, 14.0, 16.0, 22.0, 12.0, 15.0, 23.0, 0.0, 4.0, 20.0, 9.0, 0.0, 2.0, 17.0, 21.0, 0.0, 10.0, 1.0, 18.0, 7.0, 18.0, 13.0]",True,100,0.5,4096,True
60,1920,7.0,13539,30.790795799999998,"[19.0, 5.0, 3.0, 14.0, 16.0, 22.0, 12.0, 15.0, 23.0, 0.0, 4.0, 20.0, 9.0, 0.0, 2.0, 17.0, 21.0, 0.0, 10.0, 1.0, 18.0, 7.0, 18.0, 13.0]",True,100,0.5,4096,True
61,1952,7.0,13539,30.790795799999998,"[19.0, 5.0, 3.0, 14.0, 16.0, 22.0, 12.0, 15.0, 23.0, 0.0, 4.0, 20.0, 9.0, 0.0, 2.0, 17.0, 21.0, 0.0, 10.0, 1.0, 18.0, 7.0, 18.0, 13.0]",True,100,0.5,4096,True
62,1984,7.0,13539,30.790795799999998,"[19.0, 5.0, 3.0, 14.0, 16.0, 22.0, 12.0, 15.0, 23.0, 0.0, 4.0, 20.0, 9.0, 0.0, 2.0, 17.0, 21.0, 0.0, 10.0, 1.0, 18.0, 7.0, 18.0, 13.0]",True,100,0.5,4096,True
63,2016,7.0,13539,30.790795799999998,"[19.0, 5.0, 3.0, 14.0, 16.0, 22.0, 12.0, 15.0, 23.0, 0.0, 4.0, 20.0, 9.0, 0.0, 2.0, 17.0, 21.0, 0.0, 10.0, 1.0, 18.0, 7.0, 18.0, 13.0]",True,100,0.5,4096,True
64,2048,7.0,13539,30.790795799999998,"[19.0, 5.0, 3.0, 14.0, 16.0, 22.0, 12.0, 15.0, 23.0, 0.0, 4.0, 20.0, 9.0, 0.0, 2.0, 17.0, 21.0, 0.0, 10.0, 1.0, 18.0, 7.0, 18.0, 13.0]",True,100,0.5,4096,True
65,2080,7.0,13539,30.790795799999998,"[19.0, 5.0, 3.0, 14.0, 16.0, 22.0, 12.0, 15.0, 23.0, 0.0, 4.0, 20.0, 9.0, 0.0, 2.0, 17.0, 21.0, 0.0, 10.0, 1.0, 18.0, 7.0, 18.0, 13.0]",True,100,0.5,4096,True
66,2112,7.0,13539,30.790795799999998,"[19.0, 5.0, 3.0, 14.0, 16.0, 22.0, 12.0, 15.0, 23.0, 0.0, 4.0, 20.0, 9.0, 0.0, 2.0, 17.0, 21.0, 0.0, 10.0, 1.0, 18.0, 7.0, 18.0, 13.0]",True,100,0.5,4096,True
67,2144,7.0,13539,30.790795799999998,"[19.0, 5.0, 3.0, 14.0, 16.0, 22.0, 12.0, 15.0, 23.0, 0.0, 4.0, 20.0, 9.0, 0.0, 2.0, 17.0, 21.0, 0.0, 10.0, 1.0, 18.0, 7.0, 18.0, 13.0]",True,100,0.5,4096,True
68,2176,7.0,13539,30.790795799999998,"[19.0, 5.0, 3.0, 14.0, 16.0, 22.0, 12.0, 15.0, 23.0, 0.0, 4.0, 20.0, 9.0, 0.0, 2.0, 17.0, 21.0, 0.0, 10.0, 1.0, 18.0, 7.0, 18.0, 13.0]",True,100,0.5,4096,True
69,2208,7.0,13539,30.790795799999998,"[19.0, 5.0, 3.0, 14.0, 16.0, 22.0, 12.0, 15.0, 23.0, 0.0, 4.0, 20.0, 9.0, 0.0, 2.0, 17.0, 21.0, 0.0, 10.0, 1.0, 18.0, 7.0, 18.0, 13.0]",True,100,0.5,4096,True
70,2240,7.0,13539,30.790795799999998,"[19.0, 5.0, 3.0, 14.0, 16.0, 22.0, 12.0, 15.0, 23.0, 0.0, 4.0, 20.0, 9.0, 0.0, 2.0, 17.0, 21.0, 0.0, 10.0, 1.0, 18.0, 7.0, 18.0, 13.0]",True,100,0.5,4096,True
71,2272,7.0,13539,30.790795799999998,"[19.0, 5.0, 3.0, 14.0, 16.0, 22.0, 12.0, 15.0, 23.0, 0.0, 4.0, 20.0, 9.0, 0.0, 2.0, 17.0, 21.0, 0.0, 10.0, 1.0, 18.0, 7.0, 18.0, 13.0]",True,100,0.5,4096,True
72,2304,7.0,13539,30.790795799999998,"[19.0, 5.0, 3.0, 14.0, 16.0, 22.0, 12.0, 15.0, 23.0, 0.0, 4.0, 20.0, 9.0, 0.0, 2.0, 17.0, 21.0, 0.0, 10.0, 1.0, 18.0, 7.0, 18.0, 13.0]",True,100,0.5,4096,True
73,2336,7.0,13539,30.790795799999998,"[19.0, 5.0, 3.0, 14.0, 16.0, 22.0, 12.0, 15.0, 23.0, 0.0, 4.0, 20.0, 9.0, 0.0, 2.0, 17.0, 21.0, 0.0, 10.0, 1.0, 18.0, 7.0, 18.0, 13.0]",True,100,0.5,4096,True
74,2368,7.0,13539,30.790795799999998,"[19.0, 5.0, 3.0, 14.0, 16.0, 22.0, 12.0, 15.0, 23.0, 0.0, 4.0, 20.0, 9.0, 0.0, 2.0, 17.0, 21.0, 0.0, 10.0, 1.0, 18.0, 7.0, 18.0, 13.0]",True,100,0.5,4096,True
75,2400,7.0,13539,30.790795799999998,"[19.0, 5.0, 3.0, 14.0, 16.0, 22.0, 12.0, 15.0, 23.0, 0.0, 4.0, 20.0, 9.0, 0.0, 2.0, 17.0, 21.0, 0.0, 10.0, 1.0, 18.0, 7.0, 18.0, 13.0]",True,100,0.5,4096,True
76,2432,7.0,13539,30.790795799999998,"[19.0, 5.0, 3.0, 14.0, 16.0, 22.0, 12.0, 15.0, 23.0, 0.0, 4.0, 20.0, 9.0, 0.0, 2.0, 17.0, 21.0, 0.0, 10.0, 1.0, 18.0, 7.0, 18.0, 13.0]",True,100,0.5,4096,True
77,2464,7.0,13539,30.790795799999998,"[19.0, 5.0, 3.0, 14.0, 16.0, 22.0, 12.0, 15.0, 23.0, 0.0, 4.0, 20.0, 9.0, 0.0, 2.0, 17.0, 21.0, 0.0, 10.0, 1.0, 18.0, 7.0, 18.0, 13.0]",True,100,0.5,4096,True
78,2496,7.0,13539,30.790795799999998,"[19.0, 5.0, 3.0, 14.0, 16.0, 22.0, 12.0, 15.0, 23.0, 0.0, 4.0, 20.0, 9.0, 0.0, 2.0, 17.0, 21.0, 0.0, 10.0, 1.0, 18.0, 7.0, 18.0, 13.0]",True,100,0.5,4096,True
79,2528,7.0,13539,30.790795799999998,"[19.0, 5.0, 3.0, 14.0, 16.0, 22.0, 12.0, 15.0, 23.0, 0.0, 4.0, 20.0, 9.0, 0.0, 2.0, 17.0, 21.0, 0.0, 10.0, 1.0, 18.0, 7.0, 18.0, 13.0]",True,100,0.5,4096,True
80,2560,7.0,13539,30.790795799999998,"[19.0, 5.0, 3.0, 14.0, 16.0, 22.0, 12.0, 15.0, 23.0, 0.0, 4.0, 20.0, 9.0, 0.0, 2.0, 17.0, 21.0, 0.0, 10.0, 1.0, 18.0, 7.0, 18.0, 13.0]",True,100,0.5,4096,True
81,2592,7.0,13539,30.790795799999998,"[19.0, 5.0, 3.0, 14.0, 16.0, 22.0, 12.0, 15.0, 23.0, 0.0, 4.0, 20.0, 9.0, 0.0, 2.0, 17.0, 21.0, 0.0, 10.0, 1.0, 18.0, 7.0, 18.0, 13.0]",True,100,0.5,4096,True
82,2624,7.0,13539,30.790795799999998,"[19.0, 5.0, 3.0, 14.0, 16.0, 22.0, 12.0, 15.0, 23.0, 0.0, 4.0, 20.0, 9.0, 0.0, 2.0, 17.0, 21.0, 0.0, 10.0, 1.0, 18.0, 7.0, 18.0, 13.0]",True,100,0.5,4096,True
83,2656,7.0,13539,30.790795799999998,"[19.0, 5.0, 3.0, 14.0, 16.0, 22.0, 12.0, 15.0, 23.0, 0.0, 4.0, 20.0, 9.0, 0.0, 2.0, 17.0, 21.0, 0.0, 10.0, 1.0, 18.0, 7.0, 18.0, 13.0]",True,100,0.5,4096,True
84,2688,7.0,13539,30.790795799999998,"[19.0, 5.0, 3.0, 14.0, 16.0, 22.0, 12.0, 15.0, 23.0, 0.0, 4.0, 20.0, 9.0, 0.0, 2.0, 17.0, 21.0, 0.0, 10.0, 1.0, 18.0, 7.0, 18.0, 13.0]",True,100,0.5,4096,True
85,2720,7.0,13539,30.790795799999998,"[19.0, 5.0, 3.0, 14.0, 16.0, 22.0, 12.0, 15.0, 23.0, 0.0, 4.0, 20.0, 9.0, 0.0, 2.0, 17.0, 21.0, 0.0, 10.0, 1.0, 18.0, 7.0, 18.0, 13.0]",True,100,0.5,4096,True
86,2752,7.0,13539,30.790795799999998,"[19.0, 5.0, 3.0, 14.0, 16.0, 22.0, 12.0, 15.0, 23.0, 0.0, 4.0, 20.0, 9.0, 0.0, 2.0, 17.0, 21.0, 0.0, 10.0, 1.0, 18.0, 7.0, 18.0, 13.0]",True,100,0.5,4096,True
87,2784,7.0,13539,30.790795799999998,"[19.0, 5.0, 3.0, 14.0, 16.0, 22.0, 12.0, 15.0, 23.0, 0.0, 4.0, 20.0, 9.0, 0.0, 2.0, 17.0, 21.0, 0.0, 10.0, 1.0, 18.0, 7.0, 18.0, 13.0]",True,100,0.5,4096,True
88,2816,7.0,13539,30.790795799999998,"[19.0, 5.0, 3.0, 14.0, 16.0, 22.0, 12.0, 15.0, 23.0, 0.0, 4.0, 20.0, 9.0, 0.0, 2.0, 17.0, 21.0, 0.0, 10.0, 1.0, 18.0, 7.0, 18.0, 13.0]",True,100,0.5,4096,True
89,2848,7.0,13539,30.790795799999998,"[19.0, 5.0, 3.0, 14.0, 16.0, 22.0, 12.0, 15.0, 23.0, 0.0, 4.0, 20.0, 9.0, 0.0, 2.0, 17.0, 21.0, 0.0, 10.0, 1.0, 18.0, 7.0, 18.0, 13.0]",True,100,0.5,4096,True
90,2880,7.0,13539,30.790795799999998,"[19.0, 5.0, 3.0, 14.0, 16.0, 22.0, 12.0, 15.0, 23.0, 0.0, 4.0, 20.0, 9.0, 0.0, 2.0, 17.0, 21.0, 0.0, 10.0, 1.0, 18.0, 7.0, 18.0, 13.0]",True,100,0.5,4096,True
91,2912,7.0,13539,30.790795799999998,"[19.0, 5.0, 3.0, 14.0, 16.0, 22.0, 12.0, 15.0, 23.0, 0.0, 4.0, 20.0, 9.0, 0.0, 2.0, 17.0, 21.0, 0.0, 10.0, 1.0, 18.0, 7.0, 18.0, 13.0]",True,100,0.5,4096,True
92,2944,7.0,13539,30.790795799999998,"[19.0, 5.0, 3.0, 14.0, 16.0, 22.0, 12.0, 15.0, 23.0, 0.0, 4.0, 20.0, 9.0, 0.0, 2.0, 17.0, 21.0, 0.0, 10.0, 1.0, 18.0, 7.0, 18.0, 13.0]",True,100,0.5,4096,True
93,2976,7.0,13539,30.790795799999998,"[19.0, 5.0, 3.0, 14.0, 16.0, 22.0, 12.0, 15.0, 23.0, 0.0, 4.0, 20.0, 9.0, 0.0, 2.0, 17.0, 21.0, 0.0, 10.0, 1.0, 18.0, 7.0, 18.0, 13.0]",True,100,0.5,4096,True
94,3008,7.0,13539,30.790795799999998,"[19.0, 5.0, 3.0, 14.0, 16.0, 22.0, 12.0, 15.0, 23.0, 0.0, 4.0, 20.0, 9.0, 0.0, 2.0, 17.0, 21.0, 0.0, 10.0, 1.0, 18.0, 7.0, 18.0, 13.0]",True,100,0.5,4096,True
95,3040,7.0,13539,30.790795799999998,"[19.0, 5.0, 3.0, 14.0, 16.0, 22.0, 12.0, 15.0, 23.0, 0.0, 4.0, 20.0, 9.0, 0.0, 2.0, 17.0, 21.0, 0.0, 10.0, 1.0, 18.0, 7.0, 18.0, 13.0]",True,100,0.5,4096,True
96,3072,7.0,13539,30.790795799999998,"[19.0, 5.0, 3.0, 14.0, 16.0, 22.0, 12.0, 15.0, 23.0, 0.0, 4.0, 20.0, 9.0, 0.0, 2.0, 17.0, 21.0, 0.0, 10.0, 1.0, 18.0, 7.0, 18.0, 13.0]",True,100,0.5,4096,True
97,3104,7.0,13539,30.790795799999998,"[19.0, 5.0, 3.0, 14.0, 16.0, 22.0, 12.0, 15.0, 23.0, 0.0, 4.0, 20.0, 9.0, 0.0, 2.0, 17.0, 21.0, 0.0, 10.0, 1.0, 18.0, 7.0, 18.0, 13.0]",True,100,0.5,4096,True
98,3136,7.0,13539,30.790795799999998,"[19.0, 5.0, 3.0, 14.0, 16.0, 22.0, 12.0, 15.0, 23.0, 0.0, 4.0, 20.0, 9.0, 0.0, 2.0, 17.0, 21.0, 0.0, 10.0, 1.0, 18.0, 7.0, 18.0, 13.0]",True,100,0.5,4096,True
99,3168,7.0,13539,30.790795799999998,"[19.0, 5.0, 3.0, 14.0, 16.0, 22.0, 12.0, 15.0, 23.0, 0.0, 4.0, 20.0, 9.0, 0.0, 2.0, 17.0, 21.0, 0.0, 10.0, 1.0, 18.0, 7.0, 18.0, 13.0]",True,100,0.5,4096,True
100,3200,7.0,13539,30.790795799999998,"[19.0, 5.0, 3.0, 14.0, 16.0, 22.0, 12.0, 15.0, 23.0, 0.0, 4.0, 20.0, 9.0, 0.0, 2.0, 17.0, 21.0, 0.0, 10.0, 1.0, 18.0, 7.0, 18.0, 13.0]",True,100,0.5,4096,True
101,3232,7.0,13539,30.790795799999998,"[19.0, 5.0, 3.0, 14.0, 16.0, 22.0, 12.0, 15.0, 23.0, 0.0, 4.0, 20.0, 9.0, 0.0, 2.0, 17.0, 21.0, 0.0, 10.0, 1.0, 18.0, 7.0, 18.0, 13.0]",True,100,0.5,4096,True
102,3264,7.0,13539,30.790795799999998,"[19.0, 5.0, 3.0, 14.0, 16.0, 22.0, 12.0, 15.0, 23.0, 0.0, 4.0, 20.0, 9.0, 0.0, 2.0, 17.0, 21.0, 0.0, 10.0, 1.0, 18.0, 7.0, 18.0, 13.0]",True,100,0.5,4096,True
103,3296,7.0,13539,30.790795799999998,"[19.0, 5.0, 3.0, 14.0, 16.0, 22.0, 12.0, 15.0, 23.0, 0.0, 4.0, 20.0, 9.0, 0.0, 2.0, 17.0, 21.0, 0.0, 10.0, 1.0, 18.0, 7.0, 18.0, 13.0]",True,100,0.5,4096,True
104,3328,7.0,13539,30.790795799999998,"[19.0, 5.0, 3.0, 14.0, 16.0, 22.0, 12.0, 15.0, 23.0, 0.0, 4.0, 20.0, 9.0, 0.0, 2.0, 17.0, 21.0, 0.0, 10.0, 1.0, 18.0, 7.0, 18.0, 13.0]",True,100,0.5,4096,True
105,3360,7.0,13539,30.790795799999998,"[19.0, 5.0, 3.0, 14.0, 16.0, 22.0, 12.0, 15.0, 23.0, 0.0, 4.0, 20.0, 9.0, 0.0, 2.0, 17.0, 21.0, 0.0, 10.0, 1.0, 18.0, 7.0, 18.0, 13.0]",True,100,0.5,4096,True
106,3392,7.0,13539,30.790795799999998,"[19.0, 5.0, 3.0, 14.0, 16.0, 22.0, 12.0, 15.0, 23.0, 0.0, 4.0, 20.0, 9.0, 0.0, 2.0, 17.0, 21.0, 0.0, 10.0, 1.0, 18.0, 7.0, 18.0, 13.0]",True,100,0.5,4096,True
107,3424,7.0,13539,30.790795799999998,"[19.0, 5.0, 3.0, 14.0, 16.0, 22.0, 12.0, 15.0, 23.0, 0.0, 4.0, 20.0, 9.0, 0.0, 2.0, 17.0, 21.0, 0.0, 10.0, 1.0, 18.0, 7.0, 18.0, 13.0]",True,100,0.5,4096,True
108,3456,7.0,13539,30.790795799999998,"[19.0, 5.0, 3.0, 14.0, 16.0, 22.0, 12.0, 15.0, 23.0, 0.0, 4.0, 20.0, 9.0, 0.0, 2.0, 17.0, 21.0, 0.0, 10.0, 1.0, 18.0, 7.0, 18.0, 13.0]",True,100,0.5,4096,True
109,3488,7.0,13539,30.790795799999998,"[19.0, 5.0, 3.0, 14.0, 16.0, 22.0, 12.0, 15.0, 23.0, 0.0, 4.0, 20.0, 9.0, 0.0, 2.0, 17.0, 21.0, 0.0, 10.0, 1.0, 18.0, 7.0, 18.0, 13.0]",True,100,0.5,4096,True
110,3520,7.0,13539,30.790795799999998,"[19.0, 5.0, 3.0, 14.0, 16.0, 22.0, 12.0, 15.0, 23.0, 0.0, 4.0, 20.0, 9.0, 0.0, 2.0, 17.0, 21.0, 0.0, 10.0, 1.0, 18.0, 7.0, 18.0, 13.0]",True,100,0.5,4096,True
111,3552,7.0,13539,30.790795799999998,"[19.0, 5.0, 3.0, 14.0, 16.0, 22.0, 12.0, 15.0, 23.0, 0.0, 4.0, 20.0, 9.0, 0.0, 2.0, 17.0, 21.0, 0.0, 10.0, 1.0, 18.0, 7.0, 18.0, 13.0]",True,100,0.5,4096,True
112,3584,7.0,13539,30.790795799999998,"[19.0, 5.0, 3.0, 14.0, 16.0, 22.0, 12.0, 15.0, 23.0, 0.0, 4.0, 20.0, 9.0, 0.0, 2.0, 17.0, 21.0, 0.0, 10.0, 1.0, 18.0, 7.0, 18.0, 13.0]",True,100,0.5,4096,True
113,3616,7.0,13539,30.790795799999998,"[19.0, 5.0, 3.0, 14.0, 16.0, 22.0, 12.0, 15.0, 23.0, 0.0, 4.0, 20.0, 9.0, 0.0, 2.0, 17.0, 21.0, 0.0, 10.0, 1.0, 18.0, 7.0, 18.0, 13.0]",True,100,0.5,4096,True
114,3648,7.0,13539,30.790795799999998,"[19.0, 5.0, 3.0, 14.0, 16.0, 22.0, 12.0, 15.0, 23.0, 0.0, 4.0, 20.0, 9.0, 0.0, 2.0, 17.0, 21.0, 0.0, 10.0, 1.0, 18.0, 7.0, 18.0, 13.0]",True,100,0.5,4096,True
115,3680,7.0,13539,30.790795799999998,"[19.0, 5.0, 3.0, 14.0, 16.0, 22.0, 12.0, 15.0, 23.0, 0.0, 4.0, 20.0, 9.0, 0.0, 2.0, 17.0, 21.0, 0.0, 10.0, 1.0, 18.0, 7.0, 18.0, 13.0]",True,100,0.5,4096,True
116,3712,7.0,13539,30.790795799999998,"[19.0, 5.0, 3.0, 14.0, 16.0, 22.0, 12.0, 15.0, 23.0, 0.0, 4.0, 20.0, 9.0, 0.0, 2.0, 17.0, 21.0, 0.0, 10.0, 1.0, 18.0, 7.0, 18.0, 13.0]",True,100,0.5,4096,True
117,3744,7.0,13539,30.790795799999998,"[19.0, 5.0, 3.0, 14.0, 16.0, 22.0, 12.0, 15.0, 23.0, 0.0, 4.0, 20.0, 9.0, 0.0, 2.0, 17.0, 21.0, 0.0, 10.0, 1.0, 18.0, 7.0, 18.0, 13.0]",True,100,0.5,4096,True
118,3776,7.0,13539,30.790795799999998,"[19.0, 5.0, 3.0, 14.0, 16.0, 22.0, 12.0, 15.0, 23.0, 0.0, 4.0, 20.0, 9.0, 0.0, 2.0, 17.0, 21.0, 0.0, 10.0, 1.0, 18.0, 7.0, 18.0, 13.0]",True,100,0.5,4096,True
119,3808,7.0,13539,30.790795799999998,"[19.0, 5.0, 3.0, 14.0, 16.0, 22.0, 12.0, 15.0, 23.0, 0.0, 4.0, 20.0, 9.0, 0.0, 2.0, 17.0, 21.0, 0.0, 10.0, 1.0, 18.0, 7.0, 18.0, 13.0]",True,100,0.5,4096,True
120,3840,7.0,13539,30.790795799999998,"[19.0, 5.0, 3.0, 14.0, 16.0, 22.0, 12.0, 15.0, 23.0, 0.0, 4.0, 20.0, 9.0, 0.0, 2.0, 17.0, 21.0, 0.0, 10.0, 1.0, 18.0, 7.0, 18.0, 13.0]",True,100,0.5,4096,True
121,3872,7.0,13539,30.790795799999998,"[19.0, 5.0, 3.0, 14.0, 16.0, 22.0, 12.0, 15.0, 23.0, 0.0, 4.0, 20.0, 9.0, 0.0, 2.0, 17.0, 21.0, 0.0, 10.0, 1.0, 18.0, 7.0, 18.0, 13.0]",True,100,0.5,4096,True
122,3904,7.0,13539,30.790795799999998,"[19.0, 5.0, 3.0, 14.0, 16.0, 22.0, 12.0, 15.0, 23.0, 0.0, 4.0, 20.0, 9.0, 0.0, 2.0, 17.0, 21.0, 0.0, 10.0, 1.0, 18.0, 7.0, 18.0, 13.0]",True,100,0.5,4096,True
123,3936,7.0,13539,30.790795799999998,"[19.0, 5.0, 3.0, 14.0, 16.0, 22.0, 12.0, 15.0, 23.0, 0.0, 4.0, 20.0, 9.0, 0.0, 2.0, 17.0, 21.0, 0.0, 10.0, 1.0, 18.0, 7.0, 18.0, 13.0]",True,100,0.5,4096,True
124,3968,7.0,13539,30.790795799999998,"[19.0, 5.0, 3.0, 14.0, 16.0, 22.0, 12.0, 15.0, 23.0, 0.0, 4.0, 20.0, 9.0, 0.0, 2.0, 17.0, 21.0, 0.0, 10.0, 1.0, 18.0, 7.0, 18.0, 13.0]",True,100,0.5,4096,True
125,4000,7.0,13539,30.790795799999998,"[19.0, 5.0, 3.0, 14.0, 16.0, 22.0, 12.0, 15.0, 23.0, 0.0, 4.0, 20.0, 9.0, 0.0, 2.0, 17.0, 21.0, 0.0, 10.0, 1.0, 18.0, 7.0, 18.0, 13.0]",True,100,0.5,4096,True
126,4032,7.0,13539,30.790795799999998,"[19.0, 5.0, 3.0, 14.0, 16.0, 22.0, 12.0, 15.0, 23.0, 0.0, 4.0, 20.0, 9.0, 0.0, 2.0, 17.0, 21.0, 0.0, 10.0, 1.0, 18.0, 7.0, 18.0, 13.0]",True,100,0.5,4096,True
127,4064,7.0,13539,30.790795799999998,"[19.0, 5.0, 3.0, 14.0, 16.0, 22.0, 12.0, 15.0, 23.0, 0.0, 4.0, 20.0, 9.0, 0.0, 2.0, 17.0, 21.0, 0.0, 10.0, 1.0, 18.0, 7.0, 18.0, 13.0]",True,100,0.5,4096,True
