,Iteration,Fitness,FEvals,Time,State,schedule_type,schedule_init_temp,schedule_decay,schedule_min_temp,schedule_current_value,Temperature,max_iters
0,0,22.0,0,0.0010721000000000203,"[23, 8, 7, 7, 18, 18, 20, 8, 9, 6, 22, 23, 1, 6, 22, 18, 2, 9, 8, 11, 1, 23, 19, 14]",geometric,8,0.99,0.001,7.999913800743849,8,4096
1,32,19.0,60,0.06986250000000016,"[17, 9, 17, 7, 8, 18, 12, 21, 16, 21, 22, 23, 8, 20, 6, 0, 19, 16, 5, 14, 1, 23, 19, 19]",geometric,8,0.99,0.001,7.994384838841257,8,4096
2,64,22.0,123,0.11279830000000013,"[15, 5, 4, 7, 2, 10, 2, 1, 16, 21, 7, 18, 23, 20, 20, 0, 16, 19, 1, 3, 1, 23, 12, 19]",geometric,8,0.99,0.001,7.990935852415523,8,4096
3,96,20.0,180,0.14826620000000013,"[3, 12, 15, 17, 2, 3, 2, 2, 16, 21, 1, 18, 13, 20, 20, 8, 16, 3, 21, 3, 8, 22, 17, 9]",geometric,8,0.99,0.001,7.988087876635476,8,4096
4,128,21.0,237,0.18436439999999998,"[20, 22, 15, 21, 5, 13, 2, 2, 10, 21, 0, 2, 20, 3, 9, 8, 1, 21, 1, 3, 8, 0, 17, 14]",geometric,8,0.99,0.001,7.985190331717698,8,4096
5,160,18.0,299,0.2236952000000001,"[20, 1, 10, 18, 5, 11, 8, 0, 11, 22, 8, 13, 14, 3, 9, 8, 1, 21, 1, 2, 0, 17, 6, 14]",geometric,8,0.99,0.001,7.982034507573451,8,4096
6,192,15.0,350,0.2704025000000001,"[4, 1, 10, 18, 1, 11, 2, 0, 15, 22, 22, 7, 17, 12, 15, 18, 1, 21, 1, 7, 0, 14, 19, 16]",geometric,8,0.99,0.001,7.978288427911954,8,4096
7,224,18.0,402,0.3082478000000002,"[13, 12, 10, 6, 1, 16, 4, 11, 15, 22, 22, 19, 20, 9, 0, 18, 10, 21, 1, 3, 0, 14, 9, 6]",geometric,8,0.99,0.001,7.975254399322809,8,4096
8,256,15.0,450,0.34509180000000006,"[13, 12, 17, 6, 1, 11, 4, 20, 15, 22, 7, 19, 3, 9, 16, 18, 10, 21, 1, 19, 1, 14, 0, 1]",geometric,8,0.99,0.001,7.972301752599253,8,4096
9,288,13.0,497,0.38636400000000015,"[10, 1, 11, 21, 1, 11, 4, 20, 15, 22, 7, 16, 3, 5, 16, 18, 10, 21, 1, 17, 1, 20, 6, 2]",geometric,8,0.99,0.001,7.968995531803055,8,4096
10,320,10.0,537,0.4212574,"[1, 22, 11, 21, 18, 11, 1, 3, 15, 22, 7, 16, 3, 5, 16, 18, 4, 21, 1, 17, 1, 20, 6, 2]",geometric,8,0.99,0.001,7.966201371630701,8,4096
11,352,10.0,577,0.4560479000000002,"[1, 22, 11, 21, 22, 16, 1, 3, 15, 22, 7, 16, 12, 5, 8, 18, 4, 21, 1, 17, 0, 20, 6, 2]",geometric,8,0.99,0.001,7.963416426769899,8,4096
12,384,10.0,611,0.4887693000000002,"[2, 22, 11, 21, 22, 16, 1, 3, 15, 22, 7, 16, 12, 5, 8, 18, 4, 21, 1, 17, 0, 14, 6, 2]",geometric,8,0.99,0.001,7.960797999778717,8,4096
13,416,6.0,648,0.5232084000000001,"[2, 11, 11, 21, 19, 16, 1, 3, 15, 22, 7, 16, 2, 5, 8, 18, 4, 23, 1, 17, 0, 14, 6, 9]",geometric,8,0.99,0.001,7.958043049185829,8,4096
14,448,6.0,685,0.5651960000000003,"[2, 20, 11, 21, 19, 12, 19, 3, 3, 22, 7, 15, 2, 5, 8, 18, 4, 23, 1, 17, 0, 14, 6, 9]",geometric,8,0.99,0.001,7.954685547189383,8,4096
15,480,5.0,723,0.6024974000000003,"[2, 20, 11, 21, 12, 12, 0, 3, 3, 22, 15, 15, 2, 5, 8, 18, 13, 23, 1, 17, 19, 14, 6, 9]",geometric,8,0.99,0.001,7.951703961335218,8,4096
16,512,5.0,758,0.6392381,"[20, 16, 11, 21, 12, 12, 0, 3, 22, 22, 15, 15, 2, 5, 8, 18, 13, 23, 1, 17, 19, 14, 6, 9]",geometric,8,0.99,0.001,7.9487682860011875,8,4096
17,544,4.0,791,0.6755351000000003,"[20, 16, 11, 21, 4, 12, 0, 3, 22, 22, 15, 15, 2, 5, 8, 18, 13, 23, 1, 17, 19, 14, 6, 9]",geometric,8,0.99,0.001,7.945869127689373,8,4096
18,576,4.0,824,0.7135376,"[20, 16, 11, 21, 4, 12, 10, 3, 22, 22, 15, 15, 2, 5, 8, 18, 13, 23, 1, 17, 19, 14, 6, 9]",geometric,8,0.99,0.001,7.942834878698464,8,4096
19,608,4.0,858,0.7518061,"[20, 16, 11, 21, 4, 12, 10, 3, 22, 22, 15, 13, 2, 5, 8, 18, 11, 23, 1, 17, 19, 14, 6, 9]",geometric,8,0.99,0.001,7.939780562227855,8,4096
20,640,2.0,894,0.7923049,"[20, 16, 11, 0, 4, 6, 10, 3, 22, 17, 15, 13, 2, 5, 8, 18, 11, 23, 1, 17, 19, 14, 7, 9]",geometric,8,0.99,0.001,7.936549518408946,8,4096
21,672,2.0,928,0.8329072000000002,"[20, 16, 11, 0, 4, 6, 10, 3, 22, 12, 15, 13, 2, 5, 8, 18, 21, 23, 1, 17, 19, 14, 7, 9]",geometric,8,0.99,0.001,7.93331153713063,8,4096
22,704,2.0,962,0.8744198999999999,"[20, 16, 11, 0, 4, 6, 10, 3, 22, 12, 18, 13, 2, 5, 8, 15, 21, 23, 1, 17, 19, 14, 7, 9]",geometric,8,0.99,0.001,7.930002318423815,8,4096
23,736,2.0,994,0.9158694999999999,"[20, 16, 11, 0, 4, 6, 10, 3, 22, 12, 18, 13, 2, 5, 8, 15, 21, 23, 1, 17, 19, 14, 7, 9]",geometric,8,0.99,0.001,7.926699507012443,8,4096
24,768,2.0,1027,0.9652017000000002,"[20, 16, 11, 0, 4, 6, 10, 3, 22, 12, 18, 13, 2, 5, 8, 3, 21, 23, 1, 17, 19, 14, 7, 9]",geometric,8,0.99,0.001,7.922770382469944,8,4096
25,800,2.0,1060,1.0151989000000001,"[20, 16, 11, 0, 4, 6, 10, 3, 15, 12, 18, 13, 2, 5, 8, 3, 21, 23, 1, 17, 19, 14, 7, 9]",geometric,8,0.99,0.001,7.91879028032428,8,4096
26,832,2.0,1093,1.0630169,"[20, 16, 11, 0, 4, 6, 10, 3, 15, 12, 18, 13, 2, 5, 8, 12, 21, 23, 1, 17, 19, 14, 7, 9]",geometric,8,0.99,0.001,7.914985527308399,8,4096
27,864,2.0,1126,1.1097858999999999,"[20, 16, 11, 0, 4, 6, 10, 3, 15, 12, 18, 13, 2, 5, 8, 6, 21, 23, 1, 17, 19, 14, 7, 9]",geometric,8,0.99,0.001,7.911266008841779,8,4096
28,896,2.0,1159,1.1576065,"[20, 16, 11, 0, 4, 6, 10, 3, 15, 12, 18, 13, 2, 5, 8, 18, 21, 23, 1, 17, 19, 14, 7, 9]",geometric,8,0.99,0.001,7.907464664394918,8,4096
29,928,2.0,1192,1.2125724,"[20, 16, 11, 0, 4, 6, 10, 3, 15, 12, 18, 13, 2, 5, 8, 16, 21, 23, 1, 17, 19, 14, 7, 9]",geometric,8,0.99,0.001,7.903097583608691,8,4096
30,960,2.0,1224,1.2700447000000001,"[20, 16, 11, 0, 4, 6, 10, 3, 15, 12, 18, 13, 2, 5, 8, 16, 21, 23, 1, 17, 19, 14, 7, 9]",geometric,8,0.99,0.001,7.8985339467901525,8,4096
31,992,2.0,1256,1.3214996,"[20, 16, 11, 0, 4, 6, 10, 3, 15, 12, 18, 13, 2, 5, 8, 16, 21, 23, 1, 17, 19, 14, 7, 9]",geometric,8,0.99,0.001,7.894450362617025,8,4096
32,1024,2.0,1283,1.3663381,"[20, 16, 11, 0, 4, 6, 10, 3, 15, 12, 18, 13, 2, 5, 8, 16, 21, 23, 1, 17, 19, 14, 7, 9]",geometric,8,0.99,0.001,7.890893593316685,8,4096
33,1056,2.0,1283,1.3663381,"[20, 16, 11, 0, 4, 6, 10, 3, 15, 12, 18, 13, 2, 5, 8, 16, 21, 23, 1, 17, 19, 14, 7, 9]",geometric,8,0.99,0.001,7.890893593316685,8,4096
34,1088,2.0,1283,1.3663381,"[20, 16, 11, 0, 4, 6, 10, 3, 15, 12, 18, 13, 2, 5, 8, 16, 21, 23, 1, 17, 19, 14, 7, 9]",geometric,8,0.99,0.001,7.890893593316685,8,4096
35,1120,2.0,1283,1.3663381,"[20, 16, 11, 0, 4, 6, 10, 3, 15, 12, 18, 13, 2, 5, 8, 16, 21, 23, 1, 17, 19, 14, 7, 9]",geometric,8,0.99,0.001,7.890893593316685,8,4096
36,1152,2.0,1283,1.3663381,"[20, 16, 11, 0, 4, 6, 10, 3, 15, 12, 18, 13, 2, 5, 8, 16, 21, 23, 1, 17, 19, 14, 7, 9]",geometric,8,0.99,0.001,7.890893593316685,8,4096
37,1184,2.0,1283,1.3663381,"[20, 16, 11, 0, 4, 6, 10, 3, 15, 12, 18, 13, 2, 5, 8, 16, 21, 23, 1, 17, 19, 14, 7, 9]",geometric,8,0.99,0.001,7.890893593316685,8,4096
38,1216,2.0,1283,1.3663381,"[20, 16, 11, 0, 4, 6, 10, 3, 15, 12, 18, 13, 2, 5, 8, 16, 21, 23, 1, 17, 19, 14, 7, 9]",geometric,8,0.99,0.001,7.890893593316685,8,4096
39,1248,2.0,1283,1.3663381,"[20, 16, 11, 0, 4, 6, 10, 3, 15, 12, 18, 13, 2, 5, 8, 16, 21, 23, 1, 17, 19, 14, 7, 9]",geometric,8,0.99,0.001,7.890893593316685,8,4096
40,1280,2.0,1283,1.3663381,"[20, 16, 11, 0, 4, 6, 10, 3, 15, 12, 18, 13, 2, 5, 8, 16, 21, 23, 1, 17, 19, 14, 7, 9]",geometric,8,0.99,0.001,7.890893593316685,8,4096
41,1312,2.0,1283,1.3663381,"[20, 16, 11, 0, 4, 6, 10, 3, 15, 12, 18, 13, 2, 5, 8, 16, 21, 23, 1, 17, 19, 14, 7, 9]",geometric,8,0.99,0.001,7.890893593316685,8,4096
42,1344,2.0,1283,1.3663381,"[20, 16, 11, 0, 4, 6, 10, 3, 15, 12, 18, 13, 2, 5, 8, 16, 21, 23, 1, 17, 19, 14, 7, 9]",geometric,8,0.99,0.001,7.890893593316685,8,4096
43,1376,2.0,1283,1.3663381,"[20, 16, 11, 0, 4, 6, 10, 3, 15, 12, 18, 13, 2, 5, 8, 16, 21, 23, 1, 17, 19, 14, 7, 9]",geometric,8,0.99,0.001,7.890893593316685,8,4096
44,1408,2.0,1283,1.3663381,"[20, 16, 11, 0, 4, 6, 10, 3, 15, 12, 18, 13, 2, 5, 8, 16, 21, 23, 1, 17, 19, 14, 7, 9]",geometric,8,0.99,0.001,7.890893593316685,8,4096
45,1440,2.0,1283,1.3663381,"[20, 16, 11, 0, 4, 6, 10, 3, 15, 12, 18, 13, 2, 5, 8, 16, 21, 23, 1, 17, 19, 14, 7, 9]",geometric,8,0.99,0.001,7.890893593316685,8,4096
46,1472,2.0,1283,1.3663381,"[20, 16, 11, 0, 4, 6, 10, 3, 15, 12, 18, 13, 2, 5, 8, 16, 21, 23, 1, 17, 19, 14, 7, 9]",geometric,8,0.99,0.001,7.890893593316685,8,4096
47,1504,2.0,1283,1.3663381,"[20, 16, 11, 0, 4, 6, 10, 3, 15, 12, 18, 13, 2, 5, 8, 16, 21, 23, 1, 17, 19, 14, 7, 9]",geometric,8,0.99,0.001,7.890893593316685,8,4096
48,1536,2.0,1283,1.3663381,"[20, 16, 11, 0, 4, 6, 10, 3, 15, 12, 18, 13, 2, 5, 8, 16, 21, 23, 1, 17, 19, 14, 7, 9]",geometric,8,0.99,0.001,7.890893593316685,8,4096
49,1568,2.0,1283,1.3663381,"[20, 16, 11, 0, 4, 6, 10, 3, 15, 12, 18, 13, 2, 5, 8, 16, 21, 23, 1, 17, 19, 14, 7, 9]",geometric,8,0.99,0.001,7.890893593316685,8,4096
50,1600,2.0,1283,1.3663381,"[20, 16, 11, 0, 4, 6, 10, 3, 15, 12, 18, 13, 2, 5, 8, 16, 21, 23, 1, 17, 19, 14, 7, 9]",geometric,8,0.99,0.001,7.890893593316685,8,4096
51,1632,2.0,1283,1.3663381,"[20, 16, 11, 0, 4, 6, 10, 3, 15, 12, 18, 13, 2, 5, 8, 16, 21, 23, 1, 17, 19, 14, 7, 9]",geometric,8,0.99,0.001,7.890893593316685,8,4096
52,1664,2.0,1283,1.3663381,"[20, 16, 11, 0, 4, 6, 10, 3, 15, 12, 18, 13, 2, 5, 8, 16, 21, 23, 1, 17, 19, 14, 7, 9]",geometric,8,0.99,0.001,7.890893593316685,8,4096
53,1696,2.0,1283,1.3663381,"[20, 16, 11, 0, 4, 6, 10, 3, 15, 12, 18, 13, 2, 5, 8, 16, 21, 23, 1, 17, 19, 14, 7, 9]",geometric,8,0.99,0.001,7.890893593316685,8,4096
54,1728,2.0,1283,1.3663381,"[20, 16, 11, 0, 4, 6, 10, 3, 15, 12, 18, 13, 2, 5, 8, 16, 21, 23, 1, 17, 19, 14, 7, 9]",geometric,8,0.99,0.001,7.890893593316685,8,4096
55,1760,2.0,1283,1.3663381,"[20, 16, 11, 0, 4, 6, 10, 3, 15, 12, 18, 13, 2, 5, 8, 16, 21, 23, 1, 17, 19, 14, 7, 9]",geometric,8,0.99,0.001,7.890893593316685,8,4096
56,1792,2.0,1283,1.3663381,"[20, 16, 11, 0, 4, 6, 10, 3, 15, 12, 18, 13, 2, 5, 8, 16, 21, 23, 1, 17, 19, 14, 7, 9]",geometric,8,0.99,0.001,7.890893593316685,8,4096
57,1824,2.0,1283,1.3663381,"[20, 16, 11, 0, 4, 6, 10, 3, 15, 12, 18, 13, 2, 5, 8, 16, 21, 23, 1, 17, 19, 14, 7, 9]",geometric,8,0.99,0.001,7.890893593316685,8,4096
58,1856,2.0,1283,1.3663381,"[20, 16, 11, 0, 4, 6, 10, 3, 15, 12, 18, 13, 2, 5, 8, 16, 21, 23, 1, 17, 19, 14, 7, 9]",geometric,8,0.99,0.001,7.890893593316685,8,4096
59,1888,2.0,1283,1.3663381,"[20, 16, 11, 0, 4, 6, 10, 3, 15, 12, 18, 13, 2, 5, 8, 16, 21, 23, 1, 17, 19, 14, 7, 9]",geometric,8,0.99,0.001,7.890893593316685,8,4096
60,1920,2.0,1283,1.3663381,"[20, 16, 11, 0, 4, 6, 10, 3, 15, 12, 18, 13, 2, 5, 8, 16, 21, 23, 1, 17, 19, 14, 7, 9]",geometric,8,0.99,0.001,7.890893593316685,8,4096
61,1952,2.0,1283,1.3663381,"[20, 16, 11, 0, 4, 6, 10, 3, 15, 12, 18, 13, 2, 5, 8, 16, 21, 23, 1, 17, 19, 14, 7, 9]",geometric,8,0.99,0.001,7.890893593316685,8,4096
62,1984,2.0,1283,1.3663381,"[20, 16, 11, 0, 4, 6, 10, 3, 15, 12, 18, 13, 2, 5, 8, 16, 21, 23, 1, 17, 19, 14, 7, 9]",geometric,8,0.99,0.001,7.890893593316685,8,4096
63,2016,2.0,1283,1.3663381,"[20, 16, 11, 0, 4, 6, 10, 3, 15, 12, 18, 13, 2, 5, 8, 16, 21, 23, 1, 17, 19, 14, 7, 9]",geometric,8,0.99,0.001,7.890893593316685,8,4096
64,2048,2.0,1283,1.3663381,"[20, 16, 11, 0, 4, 6, 10, 3, 15, 12, 18, 13, 2, 5, 8, 16, 21, 23, 1, 17, 19, 14, 7, 9]",geometric,8,0.99,0.001,7.890893593316685,8,4096
65,2080,2.0,1283,1.3663381,"[20, 16, 11, 0, 4, 6, 10, 3, 15, 12, 18, 13, 2, 5, 8, 16, 21, 23, 1, 17, 19, 14, 7, 9]",geometric,8,0.99,0.001,7.890893593316685,8,4096
66,2112,2.0,1283,1.3663381,"[20, 16, 11, 0, 4, 6, 10, 3, 15, 12, 18, 13, 2, 5, 8, 16, 21, 23, 1, 17, 19, 14, 7, 9]",geometric,8,0.99,0.001,7.890893593316685,8,4096
67,2144,2.0,1283,1.3663381,"[20, 16, 11, 0, 4, 6, 10, 3, 15, 12, 18, 13, 2, 5, 8, 16, 21, 23, 1, 17, 19, 14, 7, 9]",geometric,8,0.99,0.001,7.890893593316685,8,4096
68,2176,2.0,1283,1.3663381,"[20, 16, 11, 0, 4, 6, 10, 3, 15, 12, 18, 13, 2, 5, 8, 16, 21, 23, 1, 17, 19, 14, 7, 9]",geometric,8,0.99,0.001,7.890893593316685,8,4096
69,2208,2.0,1283,1.3663381,"[20, 16, 11, 0, 4, 6, 10, 3, 15, 12, 18, 13, 2, 5, 8, 16, 21, 23, 1, 17, 19, 14, 7, 9]",geometric,8,0.99,0.001,7.890893593316685,8,4096
70,2240,2.0,1283,1.3663381,"[20, 16, 11, 0, 4, 6, 10, 3, 15, 12, 18, 13, 2, 5, 8, 16, 21, 23, 1, 17, 19, 14, 7, 9]",geometric,8,0.99,0.001,7.890893593316685,8,4096
71,2272,2.0,1283,1.3663381,"[20, 16, 11, 0, 4, 6, 10, 3, 15, 12, 18, 13, 2, 5, 8, 16, 21, 23, 1, 17, 19, 14, 7, 9]",geometric,8,0.99,0.001,7.890893593316685,8,4096
72,2304,2.0,1283,1.3663381,"[20, 16, 11, 0, 4, 6, 10, 3, 15, 12, 18, 13, 2, 5, 8, 16, 21, 23, 1, 17, 19, 14, 7, 9]",geometric,8,0.99,0.001,7.890893593316685,8,4096
73,2336,2.0,1283,1.3663381,"[20, 16, 11, 0, 4, 6, 10, 3, 15, 12, 18, 13, 2, 5, 8, 16, 21, 23, 1, 17, 19, 14, 7, 9]",geometric,8,0.99,0.001,7.890893593316685,8,4096
74,2368,2.0,1283,1.3663381,"[20, 16, 11, 0, 4, 6, 10, 3, 15, 12, 18, 13, 2, 5, 8, 16, 21, 23, 1, 17, 19, 14, 7, 9]",geometric,8,0.99,0.001,7.890893593316685,8,4096
75,2400,2.0,1283,1.3663381,"[20, 16, 11, 0, 4, 6, 10, 3, 15, 12, 18, 13, 2, 5, 8, 16, 21, 23, 1, 17, 19, 14, 7, 9]",geometric,8,0.99,0.001,7.890893593316685,8,4096
76,2432,2.0,1283,1.3663381,"[20, 16, 11, 0, 4, 6, 10, 3, 15, 12, 18, 13, 2, 5, 8, 16, 21, 23, 1, 17, 19, 14, 7, 9]",geometric,8,0.99,0.001,7.890893593316685,8,4096
77,2464,2.0,1283,1.3663381,"[20, 16, 11, 0, 4, 6, 10, 3, 15, 12, 18, 13, 2, 5, 8, 16, 21, 23, 1, 17, 19, 14, 7, 9]",geometric,8,0.99,0.001,7.890893593316685,8,4096
78,2496,2.0,1283,1.3663381,"[20, 16, 11, 0, 4, 6, 10, 3, 15, 12, 18, 13, 2, 5, 8, 16, 21, 23, 1, 17, 19, 14, 7, 9]",geometric,8,0.99,0.001,7.890893593316685,8,4096
79,2528,2.0,1283,1.3663381,"[20, 16, 11, 0, 4, 6, 10, 3, 15, 12, 18, 13, 2, 5, 8, 16, 21, 23, 1, 17, 19, 14, 7, 9]",geometric,8,0.99,0.001,7.890893593316685,8,4096
80,2560,2.0,1283,1.3663381,"[20, 16, 11, 0, 4, 6, 10, 3, 15, 12, 18, 13, 2, 5, 8, 16, 21, 23, 1, 17, 19, 14, 7, 9]",geometric,8,0.99,0.001,7.890893593316685,8,4096
81,2592,2.0,1283,1.3663381,"[20, 16, 11, 0, 4, 6, 10, 3, 15, 12, 18, 13, 2, 5, 8, 16, 21, 23, 1, 17, 19, 14, 7, 9]",geometric,8,0.99,0.001,7.890893593316685,8,4096
82,2624,2.0,1283,1.3663381,"[20, 16, 11, 0, 4, 6, 10, 3, 15, 12, 18, 13, 2, 5, 8, 16, 21, 23, 1, 17, 19, 14, 7, 9]",geometric,8,0.99,0.001,7.890893593316685,8,4096
83,2656,2.0,1283,1.3663381,"[20, 16, 11, 0, 4, 6, 10, 3, 15, 12, 18, 13, 2, 5, 8, 16, 21, 23, 1, 17, 19, 14, 7, 9]",geometric,8,0.99,0.001,7.890893593316685,8,4096
84,2688,2.0,1283,1.3663381,"[20, 16, 11, 0, 4, 6, 10, 3, 15, 12, 18, 13, 2, 5, 8, 16, 21, 23, 1, 17, 19, 14, 7, 9]",geometric,8,0.99,0.001,7.890893593316685,8,4096
85,2720,2.0,1283,1.3663381,"[20, 16, 11, 0, 4, 6, 10, 3, 15, 12, 18, 13, 2, 5, 8, 16, 21, 23, 1, 17, 19, 14, 7, 9]",geometric,8,0.99,0.001,7.890893593316685,8,4096
86,2752,2.0,1283,1.3663381,"[20, 16, 11, 0, 4, 6, 10, 3, 15, 12, 18, 13, 2, 5, 8, 16, 21, 23, 1, 17, 19, 14, 7, 9]",geometric,8,0.99,0.001,7.890893593316685,8,4096
87,2784,2.0,1283,1.3663381,"[20, 16, 11, 0, 4, 6, 10, 3, 15, 12, 18, 13, 2, 5, 8, 16, 21, 23, 1, 17, 19, 14, 7, 9]",geometric,8,0.99,0.001,7.890893593316685,8,4096
88,2816,2.0,1283,1.3663381,"[20, 16, 11, 0, 4, 6, 10, 3, 15, 12, 18, 13, 2, 5, 8, 16, 21, 23, 1, 17, 19, 14, 7, 9]",geometric,8,0.99,0.001,7.890893593316685,8,4096
89,2848,2.0,1283,1.3663381,"[20, 16, 11, 0, 4, 6, 10, 3, 15, 12, 18, 13, 2, 5, 8, 16, 21, 23, 1, 17, 19, 14, 7, 9]",geometric,8,0.99,0.001,7.890893593316685,8,4096
90,2880,2.0,1283,1.3663381,"[20, 16, 11, 0, 4, 6, 10, 3, 15, 12, 18, 13, 2, 5, 8, 16, 21, 23, 1, 17, 19, 14, 7, 9]",geometric,8,0.99,0.001,7.890893593316685,8,4096
91,2912,2.0,1283,1.3663381,"[20, 16, 11, 0, 4, 6, 10, 3, 15, 12, 18, 13, 2, 5, 8, 16, 21, 23, 1, 17, 19, 14, 7, 9]",geometric,8,0.99,0.001,7.890893593316685,8,4096
92,2944,2.0,1283,1.3663381,"[20, 16, 11, 0, 4, 6, 10, 3, 15, 12, 18, 13, 2, 5, 8, 16, 21, 23, 1, 17, 19, 14, 7, 9]",geometric,8,0.99,0.001,7.890893593316685,8,4096
93,2976,2.0,1283,1.3663381,"[20, 16, 11, 0, 4, 6, 10, 3, 15, 12, 18, 13, 2, 5, 8, 16, 21, 23, 1, 17, 19, 14, 7, 9]",geometric,8,0.99,0.001,7.890893593316685,8,4096
94,3008,2.0,1283,1.3663381,"[20, 16, 11, 0, 4, 6, 10, 3, 15, 12, 18, 13, 2, 5, 8, 16, 21, 23, 1, 17, 19, 14, 7, 9]",geometric,8,0.99,0.001,7.890893593316685,8,4096
95,3040,2.0,1283,1.3663381,"[20, 16, 11, 0, 4, 6, 10, 3, 15, 12, 18, 13, 2, 5, 8, 16, 21, 23, 1, 17, 19, 14, 7, 9]",geometric,8,0.99,0.001,7.890893593316685,8,4096
96,3072,2.0,1283,1.3663381,"[20, 16, 11, 0, 4, 6, 10, 3, 15, 12, 18, 13, 2, 5, 8, 16, 21, 23, 1, 17, 19, 14, 7, 9]",geometric,8,0.99,0.001,7.890893593316685,8,4096
97,3104,2.0,1283,1.3663381,"[20, 16, 11, 0, 4, 6, 10, 3, 15, 12, 18, 13, 2, 5, 8, 16, 21, 23, 1, 17, 19, 14, 7, 9]",geometric,8,0.99,0.001,7.890893593316685,8,4096
98,3136,2.0,1283,1.3663381,"[20, 16, 11, 0, 4, 6, 10, 3, 15, 12, 18, 13, 2, 5, 8, 16, 21, 23, 1, 17, 19, 14, 7, 9]",geometric,8,0.99,0.001,7.890893593316685,8,4096
99,3168,2.0,1283,1.3663381,"[20, 16, 11, 0, 4, 6, 10, 3, 15, 12, 18, 13, 2, 5, 8, 16, 21, 23, 1, 17, 19, 14, 7, 9]",geometric,8,0.99,0.001,7.890893593316685,8,4096
100,3200,2.0,1283,1.3663381,"[20, 16, 11, 0, 4, 6, 10, 3, 15, 12, 18, 13, 2, 5, 8, 16, 21, 23, 1, 17, 19, 14, 7, 9]",geometric,8,0.99,0.001,7.890893593316685,8,4096
101,3232,2.0,1283,1.3663381,"[20, 16, 11, 0, 4, 6, 10, 3, 15, 12, 18, 13, 2, 5, 8, 16, 21, 23, 1, 17, 19, 14, 7, 9]",geometric,8,0.99,0.001,7.890893593316685,8,4096
102,3264,2.0,1283,1.3663381,"[20, 16, 11, 0, 4, 6, 10, 3, 15, 12, 18, 13, 2, 5, 8, 16, 21, 23, 1, 17, 19, 14, 7, 9]",geometric,8,0.99,0.001,7.890893593316685,8,4096
103,3296,2.0,1283,1.3663381,"[20, 16, 11, 0, 4, 6, 10, 3, 15, 12, 18, 13, 2, 5, 8, 16, 21, 23, 1, 17, 19, 14, 7, 9]",geometric,8,0.99,0.001,7.890893593316685,8,4096
104,3328,2.0,1283,1.3663381,"[20, 16, 11, 0, 4, 6, 10, 3, 15, 12, 18, 13, 2, 5, 8, 16, 21, 23, 1, 17, 19, 14, 7, 9]",geometric,8,0.99,0.001,7.890893593316685,8,4096
105,3360,2.0,1283,1.3663381,"[20, 16, 11, 0, 4, 6, 10, 3, 15, 12, 18, 13, 2, 5, 8, 16, 21, 23, 1, 17, 19, 14, 7, 9]",geometric,8,0.99,0.001,7.890893593316685,8,4096
106,3392,2.0,1283,1.3663381,"[20, 16, 11, 0, 4, 6, 10, 3, 15, 12, 18, 13, 2, 5, 8, 16, 21, 23, 1, 17, 19, 14, 7, 9]",geometric,8,0.99,0.001,7.890893593316685,8,4096
107,3424,2.0,1283,1.3663381,"[20, 16, 11, 0, 4, 6, 10, 3, 15, 12, 18, 13, 2, 5, 8, 16, 21, 23, 1, 17, 19, 14, 7, 9]",geometric,8,0.99,0.001,7.890893593316685,8,4096
108,3456,2.0,1283,1.3663381,"[20, 16, 11, 0, 4, 6, 10, 3, 15, 12, 18, 13, 2, 5, 8, 16, 21, 23, 1, 17, 19, 14, 7, 9]",geometric,8,0.99,0.001,7.890893593316685,8,4096
109,3488,2.0,1283,1.3663381,"[20, 16, 11, 0, 4, 6, 10, 3, 15, 12, 18, 13, 2, 5, 8, 16, 21, 23, 1, 17, 19, 14, 7, 9]",geometric,8,0.99,0.001,7.890893593316685,8,4096
110,3520,2.0,1283,1.3663381,"[20, 16, 11, 0, 4, 6, 10, 3, 15, 12, 18, 13, 2, 5, 8, 16, 21, 23, 1, 17, 19, 14, 7, 9]",geometric,8,0.99,0.001,7.890893593316685,8,4096
111,3552,2.0,1283,1.3663381,"[20, 16, 11, 0, 4, 6, 10, 3, 15, 12, 18, 13, 2, 5, 8, 16, 21, 23, 1, 17, 19, 14, 7, 9]",geometric,8,0.99,0.001,7.890893593316685,8,4096
112,3584,2.0,1283,1.3663381,"[20, 16, 11, 0, 4, 6, 10, 3, 15, 12, 18, 13, 2, 5, 8, 16, 21, 23, 1, 17, 19, 14, 7, 9]",geometric,8,0.99,0.001,7.890893593316685,8,4096
113,3616,2.0,1283,1.3663381,"[20, 16, 11, 0, 4, 6, 10, 3, 15, 12, 18, 13, 2, 5, 8, 16, 21, 23, 1, 17, 19, 14, 7, 9]",geometric,8,0.99,0.001,7.890893593316685,8,4096
114,3648,2.0,1283,1.3663381,"[20, 16, 11, 0, 4, 6, 10, 3, 15, 12, 18, 13, 2, 5, 8, 16, 21, 23, 1, 17, 19, 14, 7, 9]",geometric,8,0.99,0.001,7.890893593316685,8,4096
115,3680,2.0,1283,1.3663381,"[20, 16, 11, 0, 4, 6, 10, 3, 15, 12, 18, 13, 2, 5, 8, 16, 21, 23, 1, 17, 19, 14, 7, 9]",geometric,8,0.99,0.001,7.890893593316685,8,4096
116,3712,2.0,1283,1.3663381,"[20, 16, 11, 0, 4, 6, 10, 3, 15, 12, 18, 13, 2, 5, 8, 16, 21, 23, 1, 17, 19, 14, 7, 9]",geometric,8,0.99,0.001,7.890893593316685,8,4096
117,3744,2.0,1283,1.3663381,"[20, 16, 11, 0, 4, 6, 10, 3, 15, 12, 18, 13, 2, 5, 8, 16, 21, 23, 1, 17, 19, 14, 7, 9]",geometric,8,0.99,0.001,7.890893593316685,8,4096
118,3776,2.0,1283,1.3663381,"[20, 16, 11, 0, 4, 6, 10, 3, 15, 12, 18, 13, 2, 5, 8, 16, 21, 23, 1, 17, 19, 14, 7, 9]",geometric,8,0.99,0.001,7.890893593316685,8,4096
119,3808,2.0,1283,1.3663381,"[20, 16, 11, 0, 4, 6, 10, 3, 15, 12, 18, 13, 2, 5, 8, 16, 21, 23, 1, 17, 19, 14, 7, 9]",geometric,8,0.99,0.001,7.890893593316685,8,4096
120,3840,2.0,1283,1.3663381,"[20, 16, 11, 0, 4, 6, 10, 3, 15, 12, 18, 13, 2, 5, 8, 16, 21, 23, 1, 17, 19, 14, 7, 9]",geometric,8,0.99,0.001,7.890893593316685,8,4096
121,3872,2.0,1283,1.3663381,"[20, 16, 11, 0, 4, 6, 10, 3, 15, 12, 18, 13, 2, 5, 8, 16, 21, 23, 1, 17, 19, 14, 7, 9]",geometric,8,0.99,0.001,7.890893593316685,8,4096
122,3904,2.0,1283,1.3663381,"[20, 16, 11, 0, 4, 6, 10, 3, 15, 12, 18, 13, 2, 5, 8, 16, 21, 23, 1, 17, 19, 14, 7, 9]",geometric,8,0.99,0.001,7.890893593316685,8,4096
123,3936,2.0,1283,1.3663381,"[20, 16, 11, 0, 4, 6, 10, 3, 15, 12, 18, 13, 2, 5, 8, 16, 21, 23, 1, 17, 19, 14, 7, 9]",geometric,8,0.99,0.001,7.890893593316685,8,4096
124,3968,2.0,1283,1.3663381,"[20, 16, 11, 0, 4, 6, 10, 3, 15, 12, 18, 13, 2, 5, 8, 16, 21, 23, 1, 17, 19, 14, 7, 9]",geometric,8,0.99,0.001,7.890893593316685,8,4096
125,4000,2.0,1283,1.3663381,"[20, 16, 11, 0, 4, 6, 10, 3, 15, 12, 18, 13, 2, 5, 8, 16, 21, 23, 1, 17, 19, 14, 7, 9]",geometric,8,0.99,0.001,7.890893593316685,8,4096
126,4032,2.0,1283,1.3663381,"[20, 16, 11, 0, 4, 6, 10, 3, 15, 12, 18, 13, 2, 5, 8, 16, 21, 23, 1, 17, 19, 14, 7, 9]",geometric,8,0.99,0.001,7.890893593316685,8,4096
127,4064,2.0,1283,1.3663381,"[20, 16, 11, 0, 4, 6, 10, 3, 15, 12, 18, 13, 2, 5, 8, 16, 21, 23, 1, 17, 19, 14, 7, 9]",geometric,8,0.99,0.001,7.890893593316685,8,4096
