,Iteration,Time,Fitness,FEvals,Restarts,max_iters,current_restart
0,0,6.669999999986409e-05,6.0,0.0,10,4096,0
1,1,0.04359219999999997,7.0,2.0,10,4096,0
2,2,0.04362749999999993,8.0,4.0,10,4096,0
3,3,0.04365219999999992,8.0,5.0,10,4096,0
4,4,0.043682599999999905,9.0,7.0,10,4096,0
5,5,0.043714699999999995,10.0,9.0,10,4096,0
6,6,0.04373999999999989,10.0,10.0,10,4096,0
7,7,0.04376559999999996,10.0,11.0,10,4096,0
8,8,0.04379829999999996,11.0,13.0,10,4096,0
9,9,0.043826799999999944,11.0,14.0,10,4096,0
10,10,0.043861599999999834,12.0,16.0,10,4096,0
11,11,0.04389029999999994,12.0,17.0,10,4096,0
12,12,0.04391949999999989,12.0,18.0,10,4096,0
13,13,0.04394889999999996,12.0,19.0,10,4096,0
14,14,0.043979199999999885,12.0,20.0,10,4096,0
15,15,0.04400999999999988,12.0,21.0,10,4096,0
16,16,0.04404839999999988,13.0,23.0,10,4096,0
17,17,0.044088899999999986,14.0,25.0,10,4096,0
18,18,0.04412269999999996,14.0,26.0,10,4096,0
19,19,0.04417789999999999,15.0,28.0,10,4096,0
20,20,0.04424199999999989,15.0,29.0,10,4096,0
21,21,0.04428339999999986,15.0,30.0,10,4096,0
22,22,0.044320899999999996,15.0,31.0,10,4096,0
23,23,0.044369299999999834,15.0,32.0,10,4096,0
24,24,0.04441239999999991,15.0,33.0,10,4096,0
25,25,0.04445219999999983,15.0,34.0,10,4096,0
26,26,0.044492899999999835,15.0,35.0,10,4096,0
27,27,0.044535299999999944,15.0,36.0,10,4096,0
28,28,0.04457699999999987,15.0,37.0,10,4096,0
29,29,0.04462509999999997,16.0,39.0,10,4096,0
