,Iteration,Fitness,FEvals,Time,State,Population Size,Mutation Rate,max_iters
0,0,246.0,200,0.0050987000000000116,"[7, 5, 4, 0, 7, 1, 7, 2, 2, 2]",200,0.01,4096
1,32,392.0,6640,0.41421149999999995,"[4, 7, 7, 0, 7, 6, 0, 7, 7, 7]",200,0.01,4096
2,64,392.0,13072,0.8532830999999999,"[4, 7, 7, 0, 7, 6, 0, 7, 7, 7]",200,0.01,4096
3,96,392.0,19504,1.2611740000000002,"[4, 7, 7, 0, 7, 6, 0, 7, 7, 7]",200,0.01,4096
4,128,392.0,25936,1.6572964000000001,"[4, 7, 7, 0, 7, 6, 0, 7, 7, 7]",200,0.01,4096
5,160,392.0,25936,1.6572964000000001,"[4, 7, 7, 0, 7, 6, 0, 7, 7, 7]",200,0.01,4096
6,192,392.0,25936,1.6572964000000001,"[4, 7, 7, 0, 7, 6, 0, 7, 7, 7]",200,0.01,4096
7,224,392.0,25936,1.6572964000000001,"[4, 7, 7, 0, 7, 6, 0, 7, 7, 7]",200,0.01,4096
8,256,392.0,25936,1.6572964000000001,"[4, 7, 7, 0, 7, 6, 0, 7, 7, 7]",200,0.01,4096
9,288,392.0,25936,1.6572964000000001,"[4, 7, 7, 0, 7, 6, 0, 7, 7, 7]",200,0.01,4096
10,320,392.0,25936,1.6572964000000001,"[4, 7, 7, 0, 7, 6, 0, 7, 7, 7]",200,0.01,4096
11,352,392.0,25936,1.6572964000000001,"[4, 7, 7, 0, 7, 6, 0, 7, 7, 7]",200,0.01,4096
12,384,392.0,25936,1.6572964000000001,"[4, 7, 7, 0, 7, 6, 0, 7, 7, 7]",200,0.01,4096
13,416,392.0,25936,1.6572964000000001,"[4, 7, 7, 0, 7, 6, 0, 7, 7, 7]",200,0.01,4096
14,448,392.0,25936,1.6572964000000001,"[4, 7, 7, 0, 7, 6, 0, 7, 7, 7]",200,0.01,4096
15,480,392.0,25936,1.6572964000000001,"[4, 7, 7, 0, 7, 6, 0, 7, 7, 7]",200,0.01,4096
16,512,392.0,25936,1.6572964000000001,"[4, 7, 7, 0, 7, 6, 0, 7, 7, 7]",200,0.01,4096
17,544,392.0,25936,1.6572964000000001,"[4, 7, 7, 0, 7, 6, 0, 7, 7, 7]",200,0.01,4096
18,576,392.0,25936,1.6572964000000001,"[4, 7, 7, 0, 7, 6, 0, 7, 7, 7]",200,0.01,4096
19,608,392.0,25936,1.6572964000000001,"[4, 7, 7, 0, 7, 6, 0, 7, 7, 7]",200,0.01,4096
20,640,392.0,25936,1.6572964000000001,"[4, 7, 7, 0, 7, 6, 0, 7, 7, 7]",200,0.01,4096
21,672,392.0,25936,1.6572964000000001,"[4, 7, 7, 0, 7, 6, 0, 7, 7, 7]",200,0.01,4096
22,704,392.0,25936,1.6572964000000001,"[4, 7, 7, 0, 7, 6, 0, 7, 7, 7]",200,0.01,4096
23,736,392.0,25936,1.6572964000000001,"[4, 7, 7, 0, 7, 6, 0, 7, 7, 7]",200,0.01,4096
24,768,392.0,25936,1.6572964000000001,"[4, 7, 7, 0, 7, 6, 0, 7, 7, 7]",200,0.01,4096
25,800,392.0,25936,1.6572964000000001,"[4, 7, 7, 0, 7, 6, 0, 7, 7, 7]",200,0.01,4096
26,832,392.0,25936,1.6572964000000001,"[4, 7, 7, 0, 7, 6, 0, 7, 7, 7]",200,0.01,4096
27,864,392.0,25936,1.6572964000000001,"[4, 7, 7, 0, 7, 6, 0, 7, 7, 7]",200,0.01,4096
28,896,392.0,25936,1.6572964000000001,"[4, 7, 7, 0, 7, 6, 0, 7, 7, 7]",200,0.01,4096
29,928,392.0,25936,1.6572964000000001,"[4, 7, 7, 0, 7, 6, 0, 7, 7, 7]",200,0.01,4096
30,960,392.0,25936,1.6572964000000001,"[4, 7, 7, 0, 7, 6, 0, 7, 7, 7]",200,0.01,4096
31,992,392.0,25936,1.6572964000000001,"[4, 7, 7, 0, 7, 6, 0, 7, 7, 7]",200,0.01,4096
32,1024,392.0,25936,1.6572964000000001,"[4, 7, 7, 0, 7, 6, 0, 7, 7, 7]",200,0.01,4096
33,1056,392.0,25936,1.6572964000000001,"[4, 7, 7, 0, 7, 6, 0, 7, 7, 7]",200,0.01,4096
34,1088,392.0,25936,1.6572964000000001,"[4, 7, 7, 0, 7, 6, 0, 7, 7, 7]",200,0.01,4096
35,1120,392.0,25936,1.6572964000000001,"[4, 7, 7, 0, 7, 6, 0, 7, 7, 7]",200,0.01,4096
36,1152,392.0,25936,1.6572964000000001,"[4, 7, 7, 0, 7, 6, 0, 7, 7, 7]",200,0.01,4096
37,1184,392.0,25936,1.6572964000000001,"[4, 7, 7, 0, 7, 6, 0, 7, 7, 7]",200,0.01,4096
38,1216,392.0,25936,1.6572964000000001,"[4, 7, 7, 0, 7, 6, 0, 7, 7, 7]",200,0.01,4096
39,1248,392.0,25936,1.6572964000000001,"[4, 7, 7, 0, 7, 6, 0, 7, 7, 7]",200,0.01,4096
40,1280,392.0,25936,1.6572964000000001,"[4, 7, 7, 0, 7, 6, 0, 7, 7, 7]",200,0.01,4096
41,1312,392.0,25936,1.6572964000000001,"[4, 7, 7, 0, 7, 6, 0, 7, 7, 7]",200,0.01,4096
42,1344,392.0,25936,1.6572964000000001,"[4, 7, 7, 0, 7, 6, 0, 7, 7, 7]",200,0.01,4096
43,1376,392.0,25936,1.6572964000000001,"[4, 7, 7, 0, 7, 6, 0, 7, 7, 7]",200,0.01,4096
44,1408,392.0,25936,1.6572964000000001,"[4, 7, 7, 0, 7, 6, 0, 7, 7, 7]",200,0.01,4096
45,1440,392.0,25936,1.6572964000000001,"[4, 7, 7, 0, 7, 6, 0, 7, 7, 7]",200,0.01,4096
46,1472,392.0,25936,1.6572964000000001,"[4, 7, 7, 0, 7, 6, 0, 7, 7, 7]",200,0.01,4096
47,1504,392.0,25936,1.6572964000000001,"[4, 7, 7, 0, 7, 6, 0, 7, 7, 7]",200,0.01,4096
48,1536,392.0,25936,1.6572964000000001,"[4, 7, 7, 0, 7, 6, 0, 7, 7, 7]",200,0.01,4096
49,1568,392.0,25936,1.6572964000000001,"[4, 7, 7, 0, 7, 6, 0, 7, 7, 7]",200,0.01,4096
50,1600,392.0,25936,1.6572964000000001,"[4, 7, 7, 0, 7, 6, 0, 7, 7, 7]",200,0.01,4096
51,1632,392.0,25936,1.6572964000000001,"[4, 7, 7, 0, 7, 6, 0, 7, 7, 7]",200,0.01,4096
52,1664,392.0,25936,1.6572964000000001,"[4, 7, 7, 0, 7, 6, 0, 7, 7, 7]",200,0.01,4096
53,1696,392.0,25936,1.6572964000000001,"[4, 7, 7, 0, 7, 6, 0, 7, 7, 7]",200,0.01,4096
54,1728,392.0,25936,1.6572964000000001,"[4, 7, 7, 0, 7, 6, 0, 7, 7, 7]",200,0.01,4096
55,1760,392.0,25936,1.6572964000000001,"[4, 7, 7, 0, 7, 6, 0, 7, 7, 7]",200,0.01,4096
56,1792,392.0,25936,1.6572964000000001,"[4, 7, 7, 0, 7, 6, 0, 7, 7, 7]",200,0.01,4096
57,1824,392.0,25936,1.6572964000000001,"[4, 7, 7, 0, 7, 6, 0, 7, 7, 7]",200,0.01,4096
58,1856,392.0,25936,1.6572964000000001,"[4, 7, 7, 0, 7, 6, 0, 7, 7, 7]",200,0.01,4096
59,1888,392.0,25936,1.6572964000000001,"[4, 7, 7, 0, 7, 6, 0, 7, 7, 7]",200,0.01,4096
60,1920,392.0,25936,1.6572964000000001,"[4, 7, 7, 0, 7, 6, 0, 7, 7, 7]",200,0.01,4096
61,1952,392.0,25936,1.6572964000000001,"[4, 7, 7, 0, 7, 6, 0, 7, 7, 7]",200,0.01,4096
62,1984,392.0,25936,1.6572964000000001,"[4, 7, 7, 0, 7, 6, 0, 7, 7, 7]",200,0.01,4096
63,2016,392.0,25936,1.6572964000000001,"[4, 7, 7, 0, 7, 6, 0, 7, 7, 7]",200,0.01,4096
64,2048,392.0,25936,1.6572964000000001,"[4, 7, 7, 0, 7, 6, 0, 7, 7, 7]",200,0.01,4096
65,2080,392.0,25936,1.6572964000000001,"[4, 7, 7, 0, 7, 6, 0, 7, 7, 7]",200,0.01,4096
66,2112,392.0,25936,1.6572964000000001,"[4, 7, 7, 0, 7, 6, 0, 7, 7, 7]",200,0.01,4096
67,2144,392.0,25936,1.6572964000000001,"[4, 7, 7, 0, 7, 6, 0, 7, 7, 7]",200,0.01,4096
68,2176,392.0,25936,1.6572964000000001,"[4, 7, 7, 0, 7, 6, 0, 7, 7, 7]",200,0.01,4096
69,2208,392.0,25936,1.6572964000000001,"[4, 7, 7, 0, 7, 6, 0, 7, 7, 7]",200,0.01,4096
70,2240,392.0,25936,1.6572964000000001,"[4, 7, 7, 0, 7, 6, 0, 7, 7, 7]",200,0.01,4096
71,2272,392.0,25936,1.6572964000000001,"[4, 7, 7, 0, 7, 6, 0, 7, 7, 7]",200,0.01,4096
72,2304,392.0,25936,1.6572964000000001,"[4, 7, 7, 0, 7, 6, 0, 7, 7, 7]",200,0.01,4096
73,2336,392.0,25936,1.6572964000000001,"[4, 7, 7, 0, 7, 6, 0, 7, 7, 7]",200,0.01,4096
74,2368,392.0,25936,1.6572964000000001,"[4, 7, 7, 0, 7, 6, 0, 7, 7, 7]",200,0.01,4096
75,2400,392.0,25936,1.6572964000000001,"[4, 7, 7, 0, 7, 6, 0, 7, 7, 7]",200,0.01,4096
76,2432,392.0,25936,1.6572964000000001,"[4, 7, 7, 0, 7, 6, 0, 7, 7, 7]",200,0.01,4096
77,2464,392.0,25936,1.6572964000000001,"[4, 7, 7, 0, 7, 6, 0, 7, 7, 7]",200,0.01,4096
78,2496,392.0,25936,1.6572964000000001,"[4, 7, 7, 0, 7, 6, 0, 7, 7, 7]",200,0.01,4096
79,2528,392.0,25936,1.6572964000000001,"[4, 7, 7, 0, 7, 6, 0, 7, 7, 7]",200,0.01,4096
80,2560,392.0,25936,1.6572964000000001,"[4, 7, 7, 0, 7, 6, 0, 7, 7, 7]",200,0.01,4096
81,2592,392.0,25936,1.6572964000000001,"[4, 7, 7, 0, 7, 6, 0, 7, 7, 7]",200,0.01,4096
82,2624,392.0,25936,1.6572964000000001,"[4, 7, 7, 0, 7, 6, 0, 7, 7, 7]",200,0.01,4096
83,2656,392.0,25936,1.6572964000000001,"[4, 7, 7, 0, 7, 6, 0, 7, 7, 7]",200,0.01,4096
84,2688,392.0,25936,1.6572964000000001,"[4, 7, 7, 0, 7, 6, 0, 7, 7, 7]",200,0.01,4096
85,2720,392.0,25936,1.6572964000000001,"[4, 7, 7, 0, 7, 6, 0, 7, 7, 7]",200,0.01,4096
86,2752,392.0,25936,1.6572964000000001,"[4, 7, 7, 0, 7, 6, 0, 7, 7, 7]",200,0.01,4096
87,2784,392.0,25936,1.6572964000000001,"[4, 7, 7, 0, 7, 6, 0, 7, 7, 7]",200,0.01,4096
88,2816,392.0,25936,1.6572964000000001,"[4, 7, 7, 0, 7, 6, 0, 7, 7, 7]",200,0.01,4096
89,2848,392.0,25936,1.6572964000000001,"[4, 7, 7, 0, 7, 6, 0, 7, 7, 7]",200,0.01,4096
90,2880,392.0,25936,1.6572964000000001,"[4, 7, 7, 0, 7, 6, 0, 7, 7, 7]",200,0.01,4096
91,2912,392.0,25936,1.6572964000000001,"[4, 7, 7, 0, 7, 6, 0, 7, 7, 7]",200,0.01,4096
92,2944,392.0,25936,1.6572964000000001,"[4, 7, 7, 0, 7, 6, 0, 7, 7, 7]",200,0.01,4096
93,2976,392.0,25936,1.6572964000000001,"[4, 7, 7, 0, 7, 6, 0, 7, 7, 7]",200,0.01,4096
94,3008,392.0,25936,1.6572964000000001,"[4, 7, 7, 0, 7, 6, 0, 7, 7, 7]",200,0.01,4096
95,3040,392.0,25936,1.6572964000000001,"[4, 7, 7, 0, 7, 6, 0, 7, 7, 7]",200,0.01,4096
96,3072,392.0,25936,1.6572964000000001,"[4, 7, 7, 0, 7, 6, 0, 7, 7, 7]",200,0.01,4096
97,3104,392.0,25936,1.6572964000000001,"[4, 7, 7, 0, 7, 6, 0, 7, 7, 7]",200,0.01,4096
98,3136,392.0,25936,1.6572964000000001,"[4, 7, 7, 0, 7, 6, 0, 7, 7, 7]",200,0.01,4096
99,3168,392.0,25936,1.6572964000000001,"[4, 7, 7, 0, 7, 6, 0, 7, 7, 7]",200,0.01,4096
100,3200,392.0,25936,1.6572964000000001,"[4, 7, 7, 0, 7, 6, 0, 7, 7, 7]",200,0.01,4096
101,3232,392.0,25936,1.6572964000000001,"[4, 7, 7, 0, 7, 6, 0, 7, 7, 7]",200,0.01,4096
102,3264,392.0,25936,1.6572964000000001,"[4, 7, 7, 0, 7, 6, 0, 7, 7, 7]",200,0.01,4096
103,3296,392.0,25936,1.6572964000000001,"[4, 7, 7, 0, 7, 6, 0, 7, 7, 7]",200,0.01,4096
104,3328,392.0,25936,1.6572964000000001,"[4, 7, 7, 0, 7, 6, 0, 7, 7, 7]",200,0.01,4096
105,3360,392.0,25936,1.6572964000000001,"[4, 7, 7, 0, 7, 6, 0, 7, 7, 7]",200,0.01,4096
106,3392,392.0,25936,1.6572964000000001,"[4, 7, 7, 0, 7, 6, 0, 7, 7, 7]",200,0.01,4096
107,3424,392.0,25936,1.6572964000000001,"[4, 7, 7, 0, 7, 6, 0, 7, 7, 7]",200,0.01,4096
108,3456,392.0,25936,1.6572964000000001,"[4, 7, 7, 0, 7, 6, 0, 7, 7, 7]",200,0.01,4096
109,3488,392.0,25936,1.6572964000000001,"[4, 7, 7, 0, 7, 6, 0, 7, 7, 7]",200,0.01,4096
110,3520,392.0,25936,1.6572964000000001,"[4, 7, 7, 0, 7, 6, 0, 7, 7, 7]",200,0.01,4096
111,3552,392.0,25936,1.6572964000000001,"[4, 7, 7, 0, 7, 6, 0, 7, 7, 7]",200,0.01,4096
112,3584,392.0,25936,1.6572964000000001,"[4, 7, 7, 0, 7, 6, 0, 7, 7, 7]",200,0.01,4096
113,3616,392.0,25936,1.6572964000000001,"[4, 7, 7, 0, 7, 6, 0, 7, 7, 7]",200,0.01,4096
114,3648,392.0,25936,1.6572964000000001,"[4, 7, 7, 0, 7, 6, 0, 7, 7, 7]",200,0.01,4096
115,3680,392.0,25936,1.6572964000000001,"[4, 7, 7, 0, 7, 6, 0, 7, 7, 7]",200,0.01,4096
116,3712,392.0,25936,1.6572964000000001,"[4, 7, 7, 0, 7, 6, 0, 7, 7, 7]",200,0.01,4096
117,3744,392.0,25936,1.6572964000000001,"[4, 7, 7, 0, 7, 6, 0, 7, 7, 7]",200,0.01,4096
118,3776,392.0,25936,1.6572964000000001,"[4, 7, 7, 0, 7, 6, 0, 7, 7, 7]",200,0.01,4096
119,3808,392.0,25936,1.6572964000000001,"[4, 7, 7, 0, 7, 6, 0, 7, 7, 7]",200,0.01,4096
120,3840,392.0,25936,1.6572964000000001,"[4, 7, 7, 0, 7, 6, 0, 7, 7, 7]",200,0.01,4096
121,3872,392.0,25936,1.6572964000000001,"[4, 7, 7, 0, 7, 6, 0, 7, 7, 7]",200,0.01,4096
122,3904,392.0,25936,1.6572964000000001,"[4, 7, 7, 0, 7, 6, 0, 7, 7, 7]",200,0.01,4096
123,3936,392.0,25936,1.6572964000000001,"[4, 7, 7, 0, 7, 6, 0, 7, 7, 7]",200,0.01,4096
124,3968,392.0,25936,1.6572964000000001,"[4, 7, 7, 0, 7, 6, 0, 7, 7, 7]",200,0.01,4096
125,4000,392.0,25936,1.6572964000000001,"[4, 7, 7, 0, 7, 6, 0, 7, 7, 7]",200,0.01,4096
126,4032,392.0,25936,1.6572964000000001,"[4, 7, 7, 0, 7, 6, 0, 7, 7, 7]",200,0.01,4096
127,4064,392.0,25936,1.6572964000000001,"[4, 7, 7, 0, 7, 6, 0, 7, 7, 7]",200,0.01,4096
