,Iteration,Fitness,FEvals,Time,State,use_fast_mimic,Population Size,Keep Percent,max_iters,fast_mimic
0,0,246.0,200,0.004701000000000066,"[7, 5, 4, 0, 7, 1, 7, 2, 2, 2]",True,200,0.5,4096,True
1,32,386.0,6638,0.43417740000000005,"[7.0, 7.0, 7.0, 1.0, 7.0, 4.0, 0.0, 2.0, 7.0, 7.0]",True,200,0.5,4096,True
2,64,386.0,13070,0.9118881999999999,"[7.0, 7.0, 7.0, 1.0, 7.0, 4.0, 0.0, 2.0, 7.0, 7.0]",True,200,0.5,4096,True
3,96,386.0,19502,1.3446086999999998,"[7.0, 7.0, 7.0, 1.0, 7.0, 4.0, 0.0, 2.0, 7.0, 7.0]",True,200,0.5,4096,True
4,128,386.0,22316,1.5315651,"[7.0, 7.0, 7.0, 1.0, 7.0, 4.0, 0.0, 2.0, 7.0, 7.0]",True,200,0.5,4096,True
5,160,386.0,22316,1.5315651,"[7.0, 7.0, 7.0, 1.0, 7.0, 4.0, 0.0, 2.0, 7.0, 7.0]",True,200,0.5,4096,True
6,192,386.0,22316,1.5315651,"[7.0, 7.0, 7.0, 1.0, 7.0, 4.0, 0.0, 2.0, 7.0, 7.0]",True,200,0.5,4096,True
7,224,386.0,22316,1.5315651,"[7.0, 7.0, 7.0, 1.0, 7.0, 4.0, 0.0, 2.0, 7.0, 7.0]",True,200,0.5,4096,True
8,256,386.0,22316,1.5315651,"[7.0, 7.0, 7.0, 1.0, 7.0, 4.0, 0.0, 2.0, 7.0, 7.0]",True,200,0.5,4096,True
9,288,386.0,22316,1.5315651,"[7.0, 7.0, 7.0, 1.0, 7.0, 4.0, 0.0, 2.0, 7.0, 7.0]",True,200,0.5,4096,True
10,320,386.0,22316,1.5315651,"[7.0, 7.0, 7.0, 1.0, 7.0, 4.0, 0.0, 2.0, 7.0, 7.0]",True,200,0.5,4096,True
11,352,386.0,22316,1.5315651,"[7.0, 7.0, 7.0, 1.0, 7.0, 4.0, 0.0, 2.0, 7.0, 7.0]",True,200,0.5,4096,True
12,384,386.0,22316,1.5315651,"[7.0, 7.0, 7.0, 1.0, 7.0, 4.0, 0.0, 2.0, 7.0, 7.0]",True,200,0.5,4096,True
13,416,386.0,22316,1.5315651,"[7.0, 7.0, 7.0, 1.0, 7.0, 4.0, 0.0, 2.0, 7.0, 7.0]",True,200,0.5,4096,True
14,448,386.0,22316,1.5315651,"[7.0, 7.0, 7.0, 1.0, 7.0, 4.0, 0.0, 2.0, 7.0, 7.0]",True,200,0.5,4096,True
15,480,386.0,22316,1.5315651,"[7.0, 7.0, 7.0, 1.0, 7.0, 4.0, 0.0, 2.0, 7.0, 7.0]",True,200,0.5,4096,True
16,512,386.0,22316,1.5315651,"[7.0, 7.0, 7.0, 1.0, 7.0, 4.0, 0.0, 2.0, 7.0, 7.0]",True,200,0.5,4096,True
17,544,386.0,22316,1.5315651,"[7.0, 7.0, 7.0, 1.0, 7.0, 4.0, 0.0, 2.0, 7.0, 7.0]",True,200,0.5,4096,True
18,576,386.0,22316,1.5315651,"[7.0, 7.0, 7.0, 1.0, 7.0, 4.0, 0.0, 2.0, 7.0, 7.0]",True,200,0.5,4096,True
19,608,386.0,22316,1.5315651,"[7.0, 7.0, 7.0, 1.0, 7.0, 4.0, 0.0, 2.0, 7.0, 7.0]",True,200,0.5,4096,True
20,640,386.0,22316,1.5315651,"[7.0, 7.0, 7.0, 1.0, 7.0, 4.0, 0.0, 2.0, 7.0, 7.0]",True,200,0.5,4096,True
21,672,386.0,22316,1.5315651,"[7.0, 7.0, 7.0, 1.0, 7.0, 4.0, 0.0, 2.0, 7.0, 7.0]",True,200,0.5,4096,True
22,704,386.0,22316,1.5315651,"[7.0, 7.0, 7.0, 1.0, 7.0, 4.0, 0.0, 2.0, 7.0, 7.0]",True,200,0.5,4096,True
23,736,386.0,22316,1.5315651,"[7.0, 7.0, 7.0, 1.0, 7.0, 4.0, 0.0, 2.0, 7.0, 7.0]",True,200,0.5,4096,True
24,768,386.0,22316,1.5315651,"[7.0, 7.0, 7.0, 1.0, 7.0, 4.0, 0.0, 2.0, 7.0, 7.0]",True,200,0.5,4096,True
25,800,386.0,22316,1.5315651,"[7.0, 7.0, 7.0, 1.0, 7.0, 4.0, 0.0, 2.0, 7.0, 7.0]",True,200,0.5,4096,True
26,832,386.0,22316,1.5315651,"[7.0, 7.0, 7.0, 1.0, 7.0, 4.0, 0.0, 2.0, 7.0, 7.0]",True,200,0.5,4096,True
27,864,386.0,22316,1.5315651,"[7.0, 7.0, 7.0, 1.0, 7.0, 4.0, 0.0, 2.0, 7.0, 7.0]",True,200,0.5,4096,True
28,896,386.0,22316,1.5315651,"[7.0, 7.0, 7.0, 1.0, 7.0, 4.0, 0.0, 2.0, 7.0, 7.0]",True,200,0.5,4096,True
29,928,386.0,22316,1.5315651,"[7.0, 7.0, 7.0, 1.0, 7.0, 4.0, 0.0, 2.0, 7.0, 7.0]",True,200,0.5,4096,True
30,960,386.0,22316,1.5315651,"[7.0, 7.0, 7.0, 1.0, 7.0, 4.0, 0.0, 2.0, 7.0, 7.0]",True,200,0.5,4096,True
31,992,386.0,22316,1.5315651,"[7.0, 7.0, 7.0, 1.0, 7.0, 4.0, 0.0, 2.0, 7.0, 7.0]",True,200,0.5,4096,True
32,1024,386.0,22316,1.5315651,"[7.0, 7.0, 7.0, 1.0, 7.0, 4.0, 0.0, 2.0, 7.0, 7.0]",True,200,0.5,4096,True
33,1056,386.0,22316,1.5315651,"[7.0, 7.0, 7.0, 1.0, 7.0, 4.0, 0.0, 2.0, 7.0, 7.0]",True,200,0.5,4096,True
34,1088,386.0,22316,1.5315651,"[7.0, 7.0, 7.0, 1.0, 7.0, 4.0, 0.0, 2.0, 7.0, 7.0]",True,200,0.5,4096,True
35,1120,386.0,22316,1.5315651,"[7.0, 7.0, 7.0, 1.0, 7.0, 4.0, 0.0, 2.0, 7.0, 7.0]",True,200,0.5,4096,True
36,1152,386.0,22316,1.5315651,"[7.0, 7.0, 7.0, 1.0, 7.0, 4.0, 0.0, 2.0, 7.0, 7.0]",True,200,0.5,4096,True
37,1184,386.0,22316,1.5315651,"[7.0, 7.0, 7.0, 1.0, 7.0, 4.0, 0.0, 2.0, 7.0, 7.0]",True,200,0.5,4096,True
38,1216,386.0,22316,1.5315651,"[7.0, 7.0, 7.0, 1.0, 7.0, 4.0, 0.0, 2.0, 7.0, 7.0]",True,200,0.5,4096,True
39,1248,386.0,22316,1.5315651,"[7.0, 7.0, 7.0, 1.0, 7.0, 4.0, 0.0, 2.0, 7.0, 7.0]",True,200,0.5,4096,True
40,1280,386.0,22316,1.5315651,"[7.0, 7.0, 7.0, 1.0, 7.0, 4.0, 0.0, 2.0, 7.0, 7.0]",True,200,0.5,4096,True
41,1312,386.0,22316,1.5315651,"[7.0, 7.0, 7.0, 1.0, 7.0, 4.0, 0.0, 2.0, 7.0, 7.0]",True,200,0.5,4096,True
42,1344,386.0,22316,1.5315651,"[7.0, 7.0, 7.0, 1.0, 7.0, 4.0, 0.0, 2.0, 7.0, 7.0]",True,200,0.5,4096,True
43,1376,386.0,22316,1.5315651,"[7.0, 7.0, 7.0, 1.0, 7.0, 4.0, 0.0, 2.0, 7.0, 7.0]",True,200,0.5,4096,True
44,1408,386.0,22316,1.5315651,"[7.0, 7.0, 7.0, 1.0, 7.0, 4.0, 0.0, 2.0, 7.0, 7.0]",True,200,0.5,4096,True
45,1440,386.0,22316,1.5315651,"[7.0, 7.0, 7.0, 1.0, 7.0, 4.0, 0.0, 2.0, 7.0, 7.0]",True,200,0.5,4096,True
46,1472,386.0,22316,1.5315651,"[7.0, 7.0, 7.0, 1.0, 7.0, 4.0, 0.0, 2.0, 7.0, 7.0]",True,200,0.5,4096,True
47,1504,386.0,22316,1.5315651,"[7.0, 7.0, 7.0, 1.0, 7.0, 4.0, 0.0, 2.0, 7.0, 7.0]",True,200,0.5,4096,True
48,1536,386.0,22316,1.5315651,"[7.0, 7.0, 7.0, 1.0, 7.0, 4.0, 0.0, 2.0, 7.0, 7.0]",True,200,0.5,4096,True
49,1568,386.0,22316,1.5315651,"[7.0, 7.0, 7.0, 1.0, 7.0, 4.0, 0.0, 2.0, 7.0, 7.0]",True,200,0.5,4096,True
50,1600,386.0,22316,1.5315651,"[7.0, 7.0, 7.0, 1.0, 7.0, 4.0, 0.0, 2.0, 7.0, 7.0]",True,200,0.5,4096,True
51,1632,386.0,22316,1.5315651,"[7.0, 7.0, 7.0, 1.0, 7.0, 4.0, 0.0, 2.0, 7.0, 7.0]",True,200,0.5,4096,True
52,1664,386.0,22316,1.5315651,"[7.0, 7.0, 7.0, 1.0, 7.0, 4.0, 0.0, 2.0, 7.0, 7.0]",True,200,0.5,4096,True
53,1696,386.0,22316,1.5315651,"[7.0, 7.0, 7.0, 1.0, 7.0, 4.0, 0.0, 2.0, 7.0, 7.0]",True,200,0.5,4096,True
54,1728,386.0,22316,1.5315651,"[7.0, 7.0, 7.0, 1.0, 7.0, 4.0, 0.0, 2.0, 7.0, 7.0]",True,200,0.5,4096,True
55,1760,386.0,22316,1.5315651,"[7.0, 7.0, 7.0, 1.0, 7.0, 4.0, 0.0, 2.0, 7.0, 7.0]",True,200,0.5,4096,True
56,1792,386.0,22316,1.5315651,"[7.0, 7.0, 7.0, 1.0, 7.0, 4.0, 0.0, 2.0, 7.0, 7.0]",True,200,0.5,4096,True
57,1824,386.0,22316,1.5315651,"[7.0, 7.0, 7.0, 1.0, 7.0, 4.0, 0.0, 2.0, 7.0, 7.0]",True,200,0.5,4096,True
58,1856,386.0,22316,1.5315651,"[7.0, 7.0, 7.0, 1.0, 7.0, 4.0, 0.0, 2.0, 7.0, 7.0]",True,200,0.5,4096,True
59,1888,386.0,22316,1.5315651,"[7.0, 7.0, 7.0, 1.0, 7.0, 4.0, 0.0, 2.0, 7.0, 7.0]",True,200,0.5,4096,True
60,1920,386.0,22316,1.5315651,"[7.0, 7.0, 7.0, 1.0, 7.0, 4.0, 0.0, 2.0, 7.0, 7.0]",True,200,0.5,4096,True
61,1952,386.0,22316,1.5315651,"[7.0, 7.0, 7.0, 1.0, 7.0, 4.0, 0.0, 2.0, 7.0, 7.0]",True,200,0.5,4096,True
62,1984,386.0,22316,1.5315651,"[7.0, 7.0, 7.0, 1.0, 7.0, 4.0, 0.0, 2.0, 7.0, 7.0]",True,200,0.5,4096,True
63,2016,386.0,22316,1.5315651,"[7.0, 7.0, 7.0, 1.0, 7.0, 4.0, 0.0, 2.0, 7.0, 7.0]",True,200,0.5,4096,True
64,2048,386.0,22316,1.5315651,"[7.0, 7.0, 7.0, 1.0, 7.0, 4.0, 0.0, 2.0, 7.0, 7.0]",True,200,0.5,4096,True
65,2080,386.0,22316,1.5315651,"[7.0, 7.0, 7.0, 1.0, 7.0, 4.0, 0.0, 2.0, 7.0, 7.0]",True,200,0.5,4096,True
66,2112,386.0,22316,1.5315651,"[7.0, 7.0, 7.0, 1.0, 7.0, 4.0, 0.0, 2.0, 7.0, 7.0]",True,200,0.5,4096,True
67,2144,386.0,22316,1.5315651,"[7.0, 7.0, 7.0, 1.0, 7.0, 4.0, 0.0, 2.0, 7.0, 7.0]",True,200,0.5,4096,True
68,2176,386.0,22316,1.5315651,"[7.0, 7.0, 7.0, 1.0, 7.0, 4.0, 0.0, 2.0, 7.0, 7.0]",True,200,0.5,4096,True
69,2208,386.0,22316,1.5315651,"[7.0, 7.0, 7.0, 1.0, 7.0, 4.0, 0.0, 2.0, 7.0, 7.0]",True,200,0.5,4096,True
70,2240,386.0,22316,1.5315651,"[7.0, 7.0, 7.0, 1.0, 7.0, 4.0, 0.0, 2.0, 7.0, 7.0]",True,200,0.5,4096,True
71,2272,386.0,22316,1.5315651,"[7.0, 7.0, 7.0, 1.0, 7.0, 4.0, 0.0, 2.0, 7.0, 7.0]",True,200,0.5,4096,True
72,2304,386.0,22316,1.5315651,"[7.0, 7.0, 7.0, 1.0, 7.0, 4.0, 0.0, 2.0, 7.0, 7.0]",True,200,0.5,4096,True
73,2336,386.0,22316,1.5315651,"[7.0, 7.0, 7.0, 1.0, 7.0, 4.0, 0.0, 2.0, 7.0, 7.0]",True,200,0.5,4096,True
74,2368,386.0,22316,1.5315651,"[7.0, 7.0, 7.0, 1.0, 7.0, 4.0, 0.0, 2.0, 7.0, 7.0]",True,200,0.5,4096,True
75,2400,386.0,22316,1.5315651,"[7.0, 7.0, 7.0, 1.0, 7.0, 4.0, 0.0, 2.0, 7.0, 7.0]",True,200,0.5,4096,True
76,2432,386.0,22316,1.5315651,"[7.0, 7.0, 7.0, 1.0, 7.0, 4.0, 0.0, 2.0, 7.0, 7.0]",True,200,0.5,4096,True
77,2464,386.0,22316,1.5315651,"[7.0, 7.0, 7.0, 1.0, 7.0, 4.0, 0.0, 2.0, 7.0, 7.0]",True,200,0.5,4096,True
78,2496,386.0,22316,1.5315651,"[7.0, 7.0, 7.0, 1.0, 7.0, 4.0, 0.0, 2.0, 7.0, 7.0]",True,200,0.5,4096,True
79,2528,386.0,22316,1.5315651,"[7.0, 7.0, 7.0, 1.0, 7.0, 4.0, 0.0, 2.0, 7.0, 7.0]",True,200,0.5,4096,True
80,2560,386.0,22316,1.5315651,"[7.0, 7.0, 7.0, 1.0, 7.0, 4.0, 0.0, 2.0, 7.0, 7.0]",True,200,0.5,4096,True
81,2592,386.0,22316,1.5315651,"[7.0, 7.0, 7.0, 1.0, 7.0, 4.0, 0.0, 2.0, 7.0, 7.0]",True,200,0.5,4096,True
82,2624,386.0,22316,1.5315651,"[7.0, 7.0, 7.0, 1.0, 7.0, 4.0, 0.0, 2.0, 7.0, 7.0]",True,200,0.5,4096,True
83,2656,386.0,22316,1.5315651,"[7.0, 7.0, 7.0, 1.0, 7.0, 4.0, 0.0, 2.0, 7.0, 7.0]",True,200,0.5,4096,True
84,2688,386.0,22316,1.5315651,"[7.0, 7.0, 7.0, 1.0, 7.0, 4.0, 0.0, 2.0, 7.0, 7.0]",True,200,0.5,4096,True
85,2720,386.0,22316,1.5315651,"[7.0, 7.0, 7.0, 1.0, 7.0, 4.0, 0.0, 2.0, 7.0, 7.0]",True,200,0.5,4096,True
86,2752,386.0,22316,1.5315651,"[7.0, 7.0, 7.0, 1.0, 7.0, 4.0, 0.0, 2.0, 7.0, 7.0]",True,200,0.5,4096,True
87,2784,386.0,22316,1.5315651,"[7.0, 7.0, 7.0, 1.0, 7.0, 4.0, 0.0, 2.0, 7.0, 7.0]",True,200,0.5,4096,True
88,2816,386.0,22316,1.5315651,"[7.0, 7.0, 7.0, 1.0, 7.0, 4.0, 0.0, 2.0, 7.0, 7.0]",True,200,0.5,4096,True
89,2848,386.0,22316,1.5315651,"[7.0, 7.0, 7.0, 1.0, 7.0, 4.0, 0.0, 2.0, 7.0, 7.0]",True,200,0.5,4096,True
90,2880,386.0,22316,1.5315651,"[7.0, 7.0, 7.0, 1.0, 7.0, 4.0, 0.0, 2.0, 7.0, 7.0]",True,200,0.5,4096,True
91,2912,386.0,22316,1.5315651,"[7.0, 7.0, 7.0, 1.0, 7.0, 4.0, 0.0, 2.0, 7.0, 7.0]",True,200,0.5,4096,True
92,2944,386.0,22316,1.5315651,"[7.0, 7.0, 7.0, 1.0, 7.0, 4.0, 0.0, 2.0, 7.0, 7.0]",True,200,0.5,4096,True
93,2976,386.0,22316,1.5315651,"[7.0, 7.0, 7.0, 1.0, 7.0, 4.0, 0.0, 2.0, 7.0, 7.0]",True,200,0.5,4096,True
94,3008,386.0,22316,1.5315651,"[7.0, 7.0, 7.0, 1.0, 7.0, 4.0, 0.0, 2.0, 7.0, 7.0]",True,200,0.5,4096,True
95,3040,386.0,22316,1.5315651,"[7.0, 7.0, 7.0, 1.0, 7.0, 4.0, 0.0, 2.0, 7.0, 7.0]",True,200,0.5,4096,True
96,3072,386.0,22316,1.5315651,"[7.0, 7.0, 7.0, 1.0, 7.0, 4.0, 0.0, 2.0, 7.0, 7.0]",True,200,0.5,4096,True
97,3104,386.0,22316,1.5315651,"[7.0, 7.0, 7.0, 1.0, 7.0, 4.0, 0.0, 2.0, 7.0, 7.0]",True,200,0.5,4096,True
98,3136,386.0,22316,1.5315651,"[7.0, 7.0, 7.0, 1.0, 7.0, 4.0, 0.0, 2.0, 7.0, 7.0]",True,200,0.5,4096,True
99,3168,386.0,22316,1.5315651,"[7.0, 7.0, 7.0, 1.0, 7.0, 4.0, 0.0, 2.0, 7.0, 7.0]",True,200,0.5,4096,True
100,3200,386.0,22316,1.5315651,"[7.0, 7.0, 7.0, 1.0, 7.0, 4.0, 0.0, 2.0, 7.0, 7.0]",True,200,0.5,4096,True
101,3232,386.0,22316,1.5315651,"[7.0, 7.0, 7.0, 1.0, 7.0, 4.0, 0.0, 2.0, 7.0, 7.0]",True,200,0.5,4096,True
102,3264,386.0,22316,1.5315651,"[7.0, 7.0, 7.0, 1.0, 7.0, 4.0, 0.0, 2.0, 7.0, 7.0]",True,200,0.5,4096,True
103,3296,386.0,22316,1.5315651,"[7.0, 7.0, 7.0, 1.0, 7.0, 4.0, 0.0, 2.0, 7.0, 7.0]",True,200,0.5,4096,True
104,3328,386.0,22316,1.5315651,"[7.0, 7.0, 7.0, 1.0, 7.0, 4.0, 0.0, 2.0, 7.0, 7.0]",True,200,0.5,4096,True
105,3360,386.0,22316,1.5315651,"[7.0, 7.0, 7.0, 1.0, 7.0, 4.0, 0.0, 2.0, 7.0, 7.0]",True,200,0.5,4096,True
106,3392,386.0,22316,1.5315651,"[7.0, 7.0, 7.0, 1.0, 7.0, 4.0, 0.0, 2.0, 7.0, 7.0]",True,200,0.5,4096,True
107,3424,386.0,22316,1.5315651,"[7.0, 7.0, 7.0, 1.0, 7.0, 4.0, 0.0, 2.0, 7.0, 7.0]",True,200,0.5,4096,True
108,3456,386.0,22316,1.5315651,"[7.0, 7.0, 7.0, 1.0, 7.0, 4.0, 0.0, 2.0, 7.0, 7.0]",True,200,0.5,4096,True
109,3488,386.0,22316,1.5315651,"[7.0, 7.0, 7.0, 1.0, 7.0, 4.0, 0.0, 2.0, 7.0, 7.0]",True,200,0.5,4096,True
110,3520,386.0,22316,1.5315651,"[7.0, 7.0, 7.0, 1.0, 7.0, 4.0, 0.0, 2.0, 7.0, 7.0]",True,200,0.5,4096,True
111,3552,386.0,22316,1.5315651,"[7.0, 7.0, 7.0, 1.0, 7.0, 4.0, 0.0, 2.0, 7.0, 7.0]",True,200,0.5,4096,True
112,3584,386.0,22316,1.5315651,"[7.0, 7.0, 7.0, 1.0, 7.0, 4.0, 0.0, 2.0, 7.0, 7.0]",True,200,0.5,4096,True
113,3616,386.0,22316,1.5315651,"[7.0, 7.0, 7.0, 1.0, 7.0, 4.0, 0.0, 2.0, 7.0, 7.0]",True,200,0.5,4096,True
114,3648,386.0,22316,1.5315651,"[7.0, 7.0, 7.0, 1.0, 7.0, 4.0, 0.0, 2.0, 7.0, 7.0]",True,200,0.5,4096,True
115,3680,386.0,22316,1.5315651,"[7.0, 7.0, 7.0, 1.0, 7.0, 4.0, 0.0, 2.0, 7.0, 7.0]",True,200,0.5,4096,True
116,3712,386.0,22316,1.5315651,"[7.0, 7.0, 7.0, 1.0, 7.0, 4.0, 0.0, 2.0, 7.0, 7.0]",True,200,0.5,4096,True
117,3744,386.0,22316,1.5315651,"[7.0, 7.0, 7.0, 1.0, 7.0, 4.0, 0.0, 2.0, 7.0, 7.0]",True,200,0.5,4096,True
118,3776,386.0,22316,1.5315651,"[7.0, 7.0, 7.0, 1.0, 7.0, 4.0, 0.0, 2.0, 7.0, 7.0]",True,200,0.5,4096,True
119,3808,386.0,22316,1.5315651,"[7.0, 7.0, 7.0, 1.0, 7.0, 4.0, 0.0, 2.0, 7.0, 7.0]",True,200,0.5,4096,True
120,3840,386.0,22316,1.5315651,"[7.0, 7.0, 7.0, 1.0, 7.0, 4.0, 0.0, 2.0, 7.0, 7.0]",True,200,0.5,4096,True
121,3872,386.0,22316,1.5315651,"[7.0, 7.0, 7.0, 1.0, 7.0, 4.0, 0.0, 2.0, 7.0, 7.0]",True,200,0.5,4096,True
122,3904,386.0,22316,1.5315651,"[7.0, 7.0, 7.0, 1.0, 7.0, 4.0, 0.0, 2.0, 7.0, 7.0]",True,200,0.5,4096,True
123,3936,386.0,22316,1.5315651,"[7.0, 7.0, 7.0, 1.0, 7.0, 4.0, 0.0, 2.0, 7.0, 7.0]",True,200,0.5,4096,True
124,3968,386.0,22316,1.5315651,"[7.0, 7.0, 7.0, 1.0, 7.0, 4.0, 0.0, 2.0, 7.0, 7.0]",True,200,0.5,4096,True
125,4000,386.0,22316,1.5315651,"[7.0, 7.0, 7.0, 1.0, 7.0, 4.0, 0.0, 2.0, 7.0, 7.0]",True,200,0.5,4096,True
126,4032,386.0,22316,1.5315651,"[7.0, 7.0, 7.0, 1.0, 7.0, 4.0, 0.0, 2.0, 7.0, 7.0]",True,200,0.5,4096,True
127,4064,386.0,22316,1.5315651,"[7.0, 7.0, 7.0, 1.0, 7.0, 4.0, 0.0, 2.0, 7.0, 7.0]",True,200,0.5,4096,True
